[
  {
    "total_img": 18,
    "number_page": 1,
    "title": "Panda",
    "tag": "Panda,",
    "description": "Panda",
    "link_thumb": "https://live.staticflickr.com/65535/49956925207_e3e14a24a6_n.jpg",
    "id_album": "-358592519",
    "total_view": 18
  },
  {
    "total_img": 3,
    "number_page": 1,
    "title": "Sheep",
    "tag": "Sheep,",
    "description": "Sheep",
    "link_thumb": "https://live.staticflickr.com/65535/49693584503_746fa8842a_n.jpg",
    "id_album": "-755466332",
    "total_view": 3
  },
  {
    "total_img": 76,
    "number_page": 1,
    "title": "Light",
    "tag": "Light,",
    "description": "Light",
    "link_thumb": "https://live.staticflickr.com/65535/49727755567_e026722fca_n.jpg",
    "id_album": "742877173",
    "total_view": 76
  },
  {
    "total_img": 35,
    "number_page": 1,
    "title": "Animal",
    "tag": "Animal,",
    "description": "Animal",
    "link_thumb": "https://live.staticflickr.com/65535/49743222737_6d2f126a30_n.jpg",
    "id_album": "-1913845949",
    "total_view": 35
  },
  {
    "total_img": 3,
    "number_page": 1,
    "title": "Birds",
    "tag": "Birds,",
    "description": "Birds",
    "link_thumb": "https://live.staticflickr.com/65535/49743232392_29738dfe21_n.jpg",
    "id_album": "1271846417",
    "total_view": 3
  },
  {
    "total_img": 45,
    "number_page": 1,
    "title": "Pig",
    "tag": "Pig,",
    "description": "Pig",
    "link_thumb": "https://live.staticflickr.com/65535/49726925693_708ef6ca57_n.jpg",
    "id_album": "-1431786825",
    "total_view": 45
  },
  {
    "total_img": 43,
    "number_page": 1,
    "title": "Milkmokka Fofo",
    "tag": "Milkmokka Fofo,",
    "description": "Milkmokka Fofo",
    "link_thumb": "https://live.staticflickr.com/65535/49742934056_efd460c78e_n.jpg",
    "id_album": "-1473448477",
    "total_view": 43
  },
  {
    "total_img": 45,
    "number_page": 1,
    "title": "Dog",
    "tag": "Dog,",
    "description": "Dog",
    "link_thumb": "https://live.staticflickr.com/65535/49623078737_e12156ab87_n.jpg",
    "id_album": "-1432180061",
    "total_view": 45
  },
  {
    "total_img": 21,
    "number_page": 1,
    "title": "Unicorn",
    "tag": "Unicorn,",
    "description": "Unicorn",
    "link_thumb": "https://live.staticflickr.com/65535/49727790152_4604c02690_n.jpg",
    "id_album": "431597977",
    "total_view": 21
  },
  {
    "total_img": 25,
    "number_page": 1,
    "title": "Mouse Hamster",
    "tag": "Mouse Hamster,",
    "description": "Mouse Hamster",
    "link_thumb": "https://live.staticflickr.com/65535/49742942336_d8179730b4_n.jpg",
    "id_album": "-1779286820",
    "total_view": 25
  },
  {
    "total_img": 43,
    "number_page": 1,
    "title": "Totoro",
    "tag": "Totoro,",
    "description": "Totoro",
    "link_thumb": "https://live.staticflickr.com/65535/49726927883_8b29fdece6_n.jpg",
    "id_album": "1226948986",
    "total_view": 43
  },
  {
    "total_img": 2,
    "number_page": 1,
    "title": "Tiger",
    "tag": "Tiger,",
    "description": "Tiger",
    "link_thumb": "https://live.staticflickr.com/65535/49693584983_b04cf0d2ea_n.jpg",
    "id_album": "405170427",
    "total_view": 2
  },
  {
    "total_img": 4,
    "number_page": 1,
    "title": "Lion",
    "tag": "Lion,",
    "description": "Lion",
    "link_thumb": "https://live.staticflickr.com/65535/49742386353_169a844989_n.jpg",
    "id_album": "416744915",
    "total_view": 4
  },
  {
    "total_img": 12,
    "number_page": 1,
    "title": "Anime Chibi",
    "tag": "Anime Chibi,",
    "description": "Anime Chibi",
    "link_thumb": "https://live.staticflickr.com/65535/49742906436_89f93e8695_n.jpg",
    "id_album": "1699819648",
    "total_view": 12
  },
  {
    "total_img": 2,
    "number_page": 1,
    "title": "Monkey",
    "tag": "Monkey,",
    "description": "Monkey",
    "link_thumb": "https://live.staticflickr.com/65535/49693580403_9889b43d40_n.jpg",
    "id_album": "-784970094",
    "total_view": 2
  },
  {
    "total_img": 122,
    "number_page": 1,
    "title": "Bear",
    "tag": "Bear,",
    "description": "Bear",
    "link_thumb": "https://live.staticflickr.com/65535/49726876058_f37cd5eb5a_n.jpg",
    "id_album": "-422187261",
    "total_view": 122
  },
  {
    "total_img": 92,
    "number_page": 1,
    "title": "Boy",
    "tag": "Boy,",
    "description": "Boy",
    "link_thumb": "https://live.staticflickr.com/65535/49727737932_3fbcaebfff_n.jpg",
    "id_album": "-1694302085",
    "total_view": 92
  },
  {
    "total_img": 5,
    "number_page": 1,
    "title": "Peko",
    "tag": "Peko,",
    "description": "Peko",
    "link_thumb": "https://live.staticflickr.com/65535/49693681963_54f345268e_n.jpg",
    "id_album": "46674803",
    "total_view": 5
  },
  {
    "total_img": 60,
    "number_page": 1,
    "title": "Other",
    "tag": "Other,",
    "description": "Other",
    "link_thumb": "https://live.staticflickr.com/65535/49727465951_4e77bb1429_n.jpg",
    "id_album": "-1862561193",
    "total_view": 60
  },
  {
    "total_img": 136,
    "number_page": 1,
    "title": "Dau Mam",
    "tag": "Dau Mam,",
    "description": "Dau Mam",
    "link_thumb": "https://live.staticflickr.com/65535/49693525833_ddeeefd8f6_n.jpg",
    "id_album": "-643980979",
    "total_view": 136
  },
  {
    "total_img": 13,
    "number_page": 1,
    "title": "Pooh",
    "tag": "Pooh,",
    "description": "Pooh",
    "link_thumb": "https://live.staticflickr.com/65535/49743280852_3f1167c6d1_n.jpg",
    "id_album": "1563362783",
    "total_view": 13
  },
  {
    "total_img": 12,
    "number_page": 1,
    "title": "Fox",
    "tag": "Fox,",
    "description": "Fox",
    "link_thumb": "https://live.staticflickr.com/65535/49743241147_80a6becc0c_n.jpg",
    "id_album": "-128218148",
    "total_view": 12
  },
  {
    "total_img": 43,
    "number_page": 1,
    "title": "Mocmoc",
    "tag": "Mocmoc,",
    "description": "Mocmoc",
    "link_thumb": "https://live.staticflickr.com/65535/49622841011_3417453e23_n.jpg",
    "id_album": "-406350429",
    "total_view": 43
  },
  {
    "total_img": 125,
    "number_page": 1,
    "title": "My Melody Bunny",
    "tag": "My Melody Bunny,",
    "description": "My Melody Bunny",
    "link_thumb": "https://live.staticflickr.com/65535/49727778152_25a2634b3b_n.jpg",
    "id_album": "1396902986",
    "total_view": 125
  },
  {
    "total_img": 42,
    "number_page": 1,
    "title": "Peace Art",
    "tag": "Peace Art,",
    "description": "Peace Art",
    "link_thumb": "https://live.staticflickr.com/65535/49623161222_daf7824de2_n.jpg",
    "id_album": "949200594",
    "total_view": 42
  },
  {
    "total_img": 166,
    "number_page": 1,
    "title": "Molang",
    "tag": "Molang,",
    "description": "Molang",
    "link_thumb": "https://live.staticflickr.com/65535/49694373172_02f25a146a_n.jpg",
    "id_album": "1201366373",
    "total_view": 166
  },
  {
    "total_img": 130,
    "number_page": 1,
    "title": "Cat",
    "tag": "Cat,",
    "description": "Cat",
    "link_thumb": "https://live.staticflickr.com/65535/49727428596_4d8e9b250d_n.jpg",
    "id_album": "-1741487325",
    "total_view": 130
  },
  {
    "total_img": 28,
    "number_page": 1,
    "title": "Little Monk",
    "tag": "Little Monk,",
    "description": "Little Monk",
    "link_thumb": "https://live.staticflickr.com/65535/49710286373_5453a7f24c_n.jpg",
    "id_album": "-1599896063",
    "total_view": 28
  },
  {
    "total_img": 316,
    "number_page": 2,
    "title": "Girl",
    "tag": "Girl,",
    "description": "Girl",
    "link_thumb": "https://live.staticflickr.com/65535/49726888153_5b12154636_n.jpg",
    "id_album": "-316663319",
    "total_view": 316
  },
  {
    "total_img": 43,
    "number_page": 1,
    "title": "Poke",
    "tag": "Poke,",
    "description": "Poke",
    "link_thumb": "https://live.staticflickr.com/65535/49727787597_e2bb9b48d9_n.jpg",
    "id_album": "-1099943053",
    "total_view": 43
  },
  {
    "total_img": 55,
    "number_page": 1,
    "title": "Couple Art",
    "tag": "Couple Art,",
    "description": "Couple Art",
    "link_thumb": "https://live.staticflickr.com/65535/49727744167_ae7810e661_n.jpg",
    "id_album": "-1497779911",
    "total_view": 55
  }
]