[
  {
    "link_thumb": "https://live.staticflickr.com/65535/49743230407_647f4957e1_n.jpg",
    "id_album": "-422187261",
    "description": "KAWAII060420214912126",
    "title": "KAWAII060420214912126",
    "link_img": "https://live.staticflickr.com/65535/49743230407_19a72103ae_o.jpg",
    "id_image": "KAWAII060420214912126",
    "count_view": 0
  },
  {
    "link_thumb": "https://live.staticflickr.com/65535/49548807387_2f23a09639_n.jpg",
    "id_album": "-1741487325",
    "description": "KAWAII12091826",
    "title": "KAWAII12091826",
    "link_img": "https://live.staticflickr.com/65535/49548807387_3f7d724a79_o.jpg",
    "id_image": "KAWAII12091826",
    "count_view": 0
  },
  {
    "link_thumb": "https://live.staticflickr.com/65535/49592728911_575c675ae4_n.jpg",
    "id_album": "949200594",
    "description": "KAWAII2702202351109",
    "title": "KAWAII2702202351109",
    "link_img": "https://live.staticflickr.com/65535/49592728911_b42aca2802_o.jpg",
    "id_image": "KAWAII2702202351109",
    "count_view": 0
  },
  {
    "link_thumb": "https://live.staticflickr.com/65535/49622830001_eb9b004f6c_n.jpg",
    "id_album": "-316663319",
    "description": "KAWAII0503202021290",
    "title": "KAWAII0503202021290",
    "link_img": "https://live.staticflickr.com/65535/49622830001_1cb79bebf2_o.jpg",
    "id_image": "KAWAII0503202021290",
    "count_view": 0
  },
  {
    "link_thumb": "https://live.staticflickr.com/65535/49622846951_ea92c7b8a6_n.jpg",
    "id_album": "-406350429",
    "description": "KAWAII0503202021266",
    "title": "KAWAII0503202021266",
    "link_img": "https://live.staticflickr.com/65535/49622846951_8c7fc8cfa4_o.jpg",
    "id_image": "KAWAII0503202021266",
    "count_view": 0
  },
  {
    "link_thumb": "https://live.staticflickr.com/65535/49548275863_be7720d877_n.jpg",
    "id_album": "949200594",
    "description": "KAWAII1709188",
    "title": "KAWAII1709188",
    "link_img": "https://live.staticflickr.com/65535/49548275863_5317ecc65b_o.jpg",
    "id_image": "KAWAII1709188",
    "count_view": 0
  },
  {
    "link_thumb": "https://live.staticflickr.com/65535/49548667946_8886f00704_n.jpg",
    "id_album": "-422187261",
    "description": "KAWAII1702202236227",
    "title": "KAWAII1702202236227",
    "link_img": "https://live.staticflickr.com/65535/49548667946_abc94f15f7_o.jpg",
    "id_image": "KAWAII1702202236227",
    "count_view": 0
  },
  {
    "link_thumb": "https://live.staticflickr.com/65535/49623115537_abfe410cf9_n.jpg",
    "id_album": "-406350429",
    "description": "KAWAII0503202021164",
    "title": "KAWAII0503202021164",
    "link_img": "https://live.staticflickr.com/65535/49623115537_6f1a6bb2e6_o.jpg",
    "id_image": "KAWAII0503202021164",
    "count_view": 0
  },
  {
    "link_thumb": "https://live.staticflickr.com/65535/49742946911_554a53ee30_n.jpg",
    "id_album": "1396902986",
    "description": "KAWAII06042021491181",
    "title": "KAWAII06042021491181",
    "link_img": "https://live.staticflickr.com/65535/49742946911_fa5d7f719b_o.jpg",
    "id_image": "KAWAII06042021491181",
    "count_view": 0
  },
  {
    "link_thumb": "https://live.staticflickr.com/65535/49694376632_63a65cf551_n.jpg",
    "id_album": "-643980979",
    "description": "KAWAII050320202128",
    "title": "KAWAII050320202128",
    "link_img": "https://live.staticflickr.com/65535/49694376632_f96d25a864_o.jpg",
    "id_image": "KAWAII050320202128",
    "count_view": 0
  },
  {
    "link_thumb": "https://live.staticflickr.com/65535/49548734621_6f7909057d_n.jpg",
    "id_album": "-1431786825",
    "description": "KAWAII1702202239508",
    "title": "KAWAII1702202239508",
    "link_img": "https://live.staticflickr.com/65535/49548734621_96211a1217_o.jpg",
    "id_image": "KAWAII1702202239508",
    "count_view": 0
  },
  {
    "link_thumb": "https://live.staticflickr.com/65535/49726879053_ec7cb932f9_n.jpg",
    "id_album": "-1694302085",
    "description": "KAWAII0503202021222",
    "title": "KAWAII0503202021222",
    "link_img": "https://live.staticflickr.com/65535/49726879053_5ac34bdd7d_o.jpg",
    "id_image": "KAWAII0503202021222",
    "count_view": 0
  },
  {
    "link_thumb": "https://live.staticflickr.com/65535/49694118056_c340991dd2_n.jpg",
    "id_album": "-643980979",
    "description": "KAWAII17022023469",
    "title": "KAWAII17022023469",
    "link_img": "https://live.staticflickr.com/65535/49694118056_221d389d0f_o.jpg",
    "id_image": "KAWAII17022023469",
    "count_view": 0
  },
  {
    "link_thumb": "https://live.staticflickr.com/65535/49693546498_266cedc3fd_n.jpg",
    "id_album": "1201366373",
    "description": "KAWAII120918199",
    "title": "KAWAII120918199",
    "link_img": "https://live.staticflickr.com/65535/49693546498_68082d5e8c_o.jpg",
    "id_image": "KAWAII120918199",
    "count_view": 0
  },
  {
    "link_thumb": "https://live.staticflickr.com/65535/49694388692_8c05230376_n.jpg",
    "id_album": "-643980979",
    "description": "KAWAII120918164",
    "title": "KAWAII120918164",
    "link_img": "https://live.staticflickr.com/65535/49694388692_4df2e7dd01_o.jpg",
    "id_image": "KAWAII120918164",
    "count_view": 0
  },
  {
    "link_thumb": "https://live.staticflickr.com/65535/49548993842_31f2fe9d85_n.jpg",
    "id_album": "-316663319",
    "description": "KAWAII17091830",
    "title": "KAWAII17091830",
    "link_img": "https://live.staticflickr.com/65535/49548993842_bedaa88c15_o.jpg",
    "id_image": "KAWAII17091830",
    "count_view": 0
  },
  {
    "link_thumb": "https://live.staticflickr.com/65535/49694125311_154b517e69_n.jpg",
    "id_album": "-358592519",
    "description": "KAWAII1702202237314",
    "title": "KAWAII1702202237314",
    "link_img": "https://live.staticflickr.com/65535/49694125311_83b4919df8_o.jpg",
    "id_image": "KAWAII1702202237314",
    "count_view": 0
  },
  {
    "link_thumb": "https://live.staticflickr.com/65535/49743230917_4a213ccc73_n.jpg",
    "id_album": "-422187261",
    "description": "KAWAII06042021491288",
    "title": "KAWAII06042021491288",
    "link_img": "https://live.staticflickr.com/65535/49743230917_6c13b44d19_o.jpg",
    "id_image": "KAWAII06042021491288",
    "count_view": 0
  },
  {
    "link_thumb": "https://live.staticflickr.com/65535/49743247877_3868e1f44c_n.jpg",
    "id_album": "-316663319",
    "description": "KAWAII060420214913169",
    "title": "KAWAII060420214913169",
    "link_img": "https://live.staticflickr.com/65535/49743247877_8f7720baea_o.jpg",
    "id_image": "KAWAII060420214913169",
    "count_view": 0
  },
  {
    "link_thumb": "https://live.staticflickr.com/65535/49622844116_c880be49ce_n.jpg",
    "id_album": "-406350429",
    "description": "KAWAII0503202021197",
    "title": "KAWAII0503202021197",
    "link_img": "https://live.staticflickr.com/65535/49622844116_63eb17687d_o.jpg",
    "id_image": "KAWAII0503202021197",
    "count_view": 0
  },
  {
    "link_thumb": "https://live.staticflickr.com/65535/49726900853_dd24b8ddb6_n.jpg",
    "id_album": "742877173",
    "description": "KAWAII02042019451152",
    "title": "KAWAII02042019451152",
    "link_img": "https://live.staticflickr.com/65535/49726900853_6676000a86_o.jpg",
    "id_image": "KAWAII02042019451152",
    "count_view": 0
  },
  {
    "link_thumb": "https://live.staticflickr.com/65535/49548994707_c8586bc144_n.jpg",
    "id_album": "-422187261",
    "description": "KAWAII17091833",
    "title": "KAWAII17091833",
    "link_img": "https://live.staticflickr.com/65535/49548994707_a8a894a3b9_o.jpg",
    "id_image": "KAWAII17091833",
    "count_view": 0
  },
  {
    "link_thumb": "https://live.staticflickr.com/65535/49694381982_22f65d6e4b_n.jpg",
    "id_album": "-643980979",
    "description": "KAWAII050320202188",
    "title": "KAWAII050320202188",
    "link_img": "https://live.staticflickr.com/65535/49694381982_3672308b8b_o.jpg",
    "id_image": "KAWAII050320202188",
    "count_view": 0
  },
  {
    "link_thumb": "https://live.staticflickr.com/65535/49693525553_2c502f8a61_n.jpg",
    "id_album": "416744915",
    "description": "KAWAII1702202238442",
    "title": "KAWAII1702202238442",
    "link_img": "https://live.staticflickr.com/65535/49693525553_7d58a7d5b4_o.jpg",
    "id_image": "KAWAII1702202238442",
    "count_view": 0
  },
  {
    "link_thumb": "https://live.staticflickr.com/65535/49623114102_c4b0e64840_n.jpg",
    "id_album": "-406350429",
    "description": "KAWAII0503202021115",
    "title": "KAWAII0503202021115",
    "link_img": "https://live.staticflickr.com/65535/49623114102_63275bcc45_o.jpg",
    "id_image": "KAWAII0503202021115",
    "count_view": 0
  },
  {
    "link_thumb": "https://live.staticflickr.com/65535/49711146627_ecd37057a1_n.jpg",
    "id_album": "-1599896063",
    "description": "LITTLEMONK29032012064022",
    "title": "LITTLEMONK29032012064022",
    "link_img": "https://live.staticflickr.com/65535/49711146627_b08b52fb70_o.jpg",
    "id_image": "LITTLEMONK29032012064022",
    "count_view": 0
  },
  {
    "link_thumb": "https://live.staticflickr.com/65535/49694366052_be9e798b27_n.jpg",
    "id_album": "1699819648",
    "description": "KAWAII0503202021154",
    "title": "KAWAII0503202021154",
    "link_img": "https://live.staticflickr.com/65535/49694366052_ddf3f9b608_o.jpg",
    "id_image": "KAWAII0503202021154",
    "count_view": 0
  },
  {
    "link_thumb": "https://live.staticflickr.com/65535/49548217328_788ffac1da_n.jpg",
    "id_album": "-1099943053",
    "description": "KAWAII1702202238447",
    "title": "KAWAII1702202238447",
    "link_img": "https://live.staticflickr.com/65535/49548217328_151ec9ed83_o.jpg",
    "id_image": "KAWAII1702202238447",
    "count_view": 0
  },
  {
    "link_thumb": "https://live.staticflickr.com/65535/49548669546_d864b4cec1_n.jpg",
    "id_album": "-1741487325",
    "description": "KAWAII1702202236234",
    "title": "KAWAII1702202236234",
    "link_img": "https://live.staticflickr.com/65535/49548669546_02a854cb7a_o.jpg",
    "id_image": "KAWAII1702202236234",
    "count_view": 0
  },
  {
    "link_thumb": "https://live.staticflickr.com/65535/49548050243_71552f7684_n.jpg",
    "id_album": "-422187261",
    "description": "KAWAII120918131",
    "title": "KAWAII120918131",
    "link_img": "https://live.staticflickr.com/65535/49548050243_7ca2a28fe6_o.jpg",
    "id_image": "KAWAII120918131",
    "count_view": 0
  },
  {
    "link_thumb": "https://live.staticflickr.com/65535/49622834286_33b4a5bf90_n.jpg",
    "id_album": "-316663319",
    "description": "KAWAII050320202139",
    "title": "KAWAII050320202139",
    "link_img": "https://live.staticflickr.com/65535/49622834286_570e0604cd_o.jpg",
    "id_image": "KAWAII050320202139",
    "count_view": 0
  },
  {
    "link_thumb": "https://live.staticflickr.com/65535/49548905007_fe53d568fb_n.jpg",
    "id_album": "-1099943053",
    "description": "KAWAII1702202236279",
    "title": "KAWAII1702202236279",
    "link_img": "https://live.staticflickr.com/65535/49548905007_00a605895a_o.jpg",
    "id_image": "KAWAII1702202236279",
    "count_view": 0
  },
  {
    "link_thumb": "https://live.staticflickr.com/65535/49622829591_cc4a13fe48_n.jpg",
    "id_album": "-316663319",
    "description": "KAWAII0503202021284",
    "title": "KAWAII0503202021284",
    "link_img": "https://live.staticflickr.com/65535/49622829591_90a4c15241_o.jpg",
    "id_image": "KAWAII0503202021284",
    "count_view": 0
  },
  {
    "link_thumb": "https://live.staticflickr.com/65535/49693560078_345e31aa6a_n.jpg",
    "id_album": "1201366373",
    "description": "KAWAII12091860",
    "title": "KAWAII12091860",
    "link_img": "https://live.staticflickr.com/65535/49693560078_c6ddf23e5c_o.jpg",
    "id_image": "KAWAII12091860",
    "count_view": 0
  },
  {
    "link_thumb": "https://live.staticflickr.com/65535/49622282188_f7238e3cd5_n.jpg",
    "id_album": "-422187261",
    "description": "KAWAII0503202021330",
    "title": "KAWAII0503202021330",
    "link_img": "https://live.staticflickr.com/65535/49622282188_7f6aa8f2ff_o.jpg",
    "id_image": "KAWAII0503202021330",
    "count_view": 0
  },
  {
    "link_thumb": "https://live.staticflickr.com/65535/49548765461_743ff4ce1a_n.jpg",
    "id_album": "949200594",
    "description": "KAWAII17091827",
    "title": "KAWAII17091827",
    "link_img": "https://live.staticflickr.com/65535/49548765461_2e7a63fb0f_o.jpg",
    "id_image": "KAWAII17091827",
    "count_view": 0
  },
  {
    "link_thumb": "https://live.staticflickr.com/65535/49743229022_18f1dffec0_n.jpg",
    "id_album": "-1913845949",
    "description": "KAWAII060420214918319",
    "title": "KAWAII060420214918319",
    "link_img": "https://live.staticflickr.com/65535/49743229022_a755296381_o.jpg",
    "id_image": "KAWAII060420214918319",
    "count_view": 0
  },
  {
    "link_thumb": "https://live.staticflickr.com/65535/49548648796_cfeb122be0_n.jpg",
    "id_album": "-1741487325",
    "description": "KAWAII1702202235134",
    "title": "KAWAII1702202235134",
    "link_img": "https://live.staticflickr.com/65535/49548648796_306a19d7d5_o.jpg",
    "id_image": "KAWAII1702202235134",
    "count_view": 0
  },
  {
    "link_thumb": "https://live.staticflickr.com/65535/49694431617_90867bcb8a_n.jpg",
    "id_album": "1226948986",
    "description": "TOTORO220320154114",
    "title": "TOTORO220320154114",
    "link_img": "https://live.staticflickr.com/65535/49694431617_c4ac376478_o.jpg",
    "id_image": "TOTORO220320154114",
    "count_view": 0
  },
  {
    "link_thumb": "https://live.staticflickr.com/65535/49693540143_bacb5cc03a_n.jpg",
    "id_album": "1201366373",
    "description": "KAWAII120918142",
    "title": "KAWAII120918142",
    "link_img": "https://live.staticflickr.com/65535/49693540143_7dacd41cac_o.jpg",
    "id_image": "KAWAII120918142",
    "count_view": 0
  },
  {
    "link_thumb": "https://live.staticflickr.com/65535/49622288518_cd3af19a45_n.jpg",
    "id_album": "1396902986",
    "description": "KAWAII0503202021279",
    "title": "KAWAII0503202021279",
    "link_img": "https://live.staticflickr.com/65535/49622288518_572274970f_o.jpg",
    "id_image": "KAWAII0503202021279",
    "count_view": 0
  },
  {
    "link_thumb": "https://live.staticflickr.com/65535/49693681563_0c652e2f73_n.jpg",
    "id_album": "-1862561193",
    "description": "KAWAII24032022050236",
    "title": "KAWAII24032022050236",
    "link_img": "https://live.staticflickr.com/65535/49693681563_3b6a993c59_o.jpg",
    "id_image": "KAWAII24032022050236",
    "count_view": 0
  },
  {
    "link_thumb": "https://live.staticflickr.com/65535/49548094108_e9f197e480_n.jpg",
    "id_album": "1396902986",
    "description": "KAWAII120918323",
    "title": "KAWAII120918323",
    "link_img": "https://live.staticflickr.com/65535/49548094108_881d048ace_o.jpg",
    "id_image": "KAWAII120918323",
    "count_view": 0
  },
  {
    "link_thumb": "https://live.staticflickr.com/65535/49592956927_6b707f4644_n.jpg",
    "id_album": "-316663319",
    "description": "KAWAII2702202351130",
    "title": "KAWAII2702202351130",
    "link_img": "https://live.staticflickr.com/65535/49592956927_b063070251_o.jpg",
    "id_image": "KAWAII2702202351130",
    "count_view": 0
  },
  {
    "link_thumb": "https://live.staticflickr.com/65535/49694092616_66efc7466f_n.jpg",
    "id_album": "1201366373",
    "description": "KAWAII120918224",
    "title": "KAWAII120918224",
    "link_img": "https://live.staticflickr.com/65535/49694092616_a1a1582151_o.jpg",
    "id_image": "KAWAII120918224",
    "count_view": 0
  },
  {
    "link_thumb": "https://live.staticflickr.com/65535/49727448706_c3d8418039_n.jpg",
    "id_album": "742877173",
    "description": "KAWAII02042019451189",
    "title": "KAWAII02042019451189",
    "link_img": "https://live.staticflickr.com/65535/49727448706_448a753ef2_o.jpg",
    "id_image": "KAWAII02042019451189",
    "count_view": 0
  },
  {
    "link_thumb": "https://live.staticflickr.com/65535/49694371662_b9bf2540f8_n.jpg",
    "id_album": "416744915",
    "description": "KAWAII1702202239547",
    "title": "KAWAII1702202239547",
    "link_img": "https://live.staticflickr.com/65535/49694371662_1083f42035_o.jpg",
    "id_image": "KAWAII1702202239547",
    "count_view": 0
  },
  {
    "link_thumb": "https://live.staticflickr.com/65535/49548635651_3666feeb14_n.jpg",
    "id_album": "1396902986",
    "description": "KAWAII170220223448",
    "title": "KAWAII170220223448",
    "link_img": "https://live.staticflickr.com/65535/49548635651_1d233f666d_o.jpg",
    "id_image": "KAWAII170220223448",
    "count_view": 0
  },
  {
    "link_thumb": "https://live.staticflickr.com/65535/49743279367_86ed79dcdb_n.jpg",
    "id_album": "-1431786825",
    "description": "KAWAII06042021491518",
    "title": "KAWAII06042021491518",
    "link_img": "https://live.staticflickr.com/65535/49743279367_7136765f24_o.jpg",
    "id_image": "KAWAII06042021491518",
    "count_view": 0
  },
  {
    "link_thumb": "https://live.staticflickr.com/65535/49743259907_59f31bfa3e_n.jpg",
    "id_album": "-1473448477",
    "description": "KAWAII060420214915206",
    "title": "KAWAII060420214915206",
    "link_img": "https://live.staticflickr.com/65535/49743259907_c31226ddb4_o.jpg",
    "id_image": "KAWAII060420214915206",
    "count_view": 0
  },
  {
    "link_thumb": "https://live.staticflickr.com/65535/49548618276_cf20d5eb55_n.jpg",
    "id_album": "-1432180061",
    "description": "KAWAII12091881",
    "title": "KAWAII12091881",
    "link_img": "https://live.staticflickr.com/65535/49548618276_a75df97e65_o.jpg",
    "id_image": "KAWAII12091881",
    "count_view": 0
  },
  {
    "link_thumb": "https://live.staticflickr.com/65535/49742386178_0cfdce1133_n.jpg",
    "id_album": "742877173",
    "description": "KAWAII06042021491858",
    "title": "KAWAII06042021491858",
    "link_img": "https://live.staticflickr.com/65535/49742386178_b932cbaa6d_o.jpg",
    "id_image": "KAWAII06042021491858",
    "count_view": 0
  },
  {
    "link_thumb": "https://live.staticflickr.com/65535/49727439481_0603d62def_n.jpg",
    "id_album": "-316663319",
    "description": "KAWAII020420194512102",
    "title": "KAWAII020420194512102",
    "link_img": "https://live.staticflickr.com/65535/49727439481_37df49748e_o.jpg",
    "id_image": "KAWAII020420194512102",
    "count_view": 0
  },
  {
    "link_thumb": "https://live.staticflickr.com/65535/49622291638_2e4139d76c_n.jpg",
    "id_album": "-1741487325",
    "description": "KAWAII0503202021160",
    "title": "KAWAII0503202021160",
    "link_img": "https://live.staticflickr.com/65535/49622291638_95aaffd762_o.jpg",
    "id_image": "KAWAII0503202021160",
    "count_view": 0
  },
  {
    "link_thumb": "https://live.staticflickr.com/65535/49727443596_72a83f0aac_n.jpg",
    "id_album": "742877173",
    "description": "KAWAII02042019450879",
    "title": "KAWAII02042019450879",
    "link_img": "https://live.staticflickr.com/65535/49727443596_fc339dda69_o.jpg",
    "id_image": "KAWAII02042019450879",
    "count_view": 0
  },
  {
    "link_thumb": "https://live.staticflickr.com/65535/49694395392_08a2bd609a_n.jpg",
    "id_album": "1201366373",
    "description": "KAWAII120918227",
    "title": "KAWAII120918227",
    "link_img": "https://live.staticflickr.com/65535/49694395392_53d4fb2179_o.jpg",
    "id_image": "KAWAII120918227",
    "count_view": 0
  },
  {
    "link_thumb": "https://live.staticflickr.com/65535/49592707666_c6e0083116_n.jpg",
    "id_album": "1396902986",
    "description": "KAWAII2702202351156",
    "title": "KAWAII2702202351156",
    "link_img": "https://live.staticflickr.com/65535/49592707666_31403892d7_o.jpg",
    "id_image": "KAWAII2702202351156",
    "count_view": 0
  },
  {
    "link_thumb": "https://live.staticflickr.com/65535/49622333383_66149eb52f_n.jpg",
    "id_album": "-406350429",
    "description": "KAWAII0503202021309",
    "title": "KAWAII0503202021309",
    "link_img": "https://live.staticflickr.com/65535/49622333383_b5ce7cf8e8_o.jpg",
    "id_image": "KAWAII0503202021309",
    "count_view": 0
  },
  {
    "link_thumb": "https://live.staticflickr.com/65535/49727761257_5ac0c27d19_n.jpg",
    "id_album": "742877173",
    "description": "KAWAII020420194510239",
    "title": "KAWAII020420194510239",
    "link_img": "https://live.staticflickr.com/65535/49727761257_d57cc01515_o.jpg",
    "id_image": "KAWAII020420194510239",
    "count_view": 0
  },
  {
    "link_thumb": "https://live.staticflickr.com/65535/49694073361_dc86530e5b_n.jpg",
    "id_album": "-643980979",
    "description": "KAWAII0503202021258",
    "title": "KAWAII0503202021258",
    "link_img": "https://live.staticflickr.com/65535/49694073361_208c511a69_o.jpg",
    "id_image": "KAWAII0503202021258",
    "count_view": 0
  },
  {
    "link_thumb": "https://live.staticflickr.com/65535/49548909097_e93dfa93f2_n.jpg",
    "id_album": "1396902986",
    "description": "KAWAII1702202236297",
    "title": "KAWAII1702202236297",
    "link_img": "https://live.staticflickr.com/65535/49548909097_066e855a1f_o.jpg",
    "id_image": "KAWAII1702202236297",
    "count_view": 0
  },
  {
    "link_thumb": "https://live.staticflickr.com/65535/49622809301_6b0684800f_n.jpg",
    "id_album": "-1694302085",
    "description": "KAWAII0503202021105",
    "title": "KAWAII0503202021105",
    "link_img": "https://live.staticflickr.com/65535/49622809301_e17339301c_o.jpg",
    "id_image": "KAWAII0503202021105",
    "count_view": 0
  },
  {
    "link_thumb": "https://live.staticflickr.com/65535/49694127511_dfcb8f8d26_n.jpg",
    "id_album": "-755466332",
    "description": "KAWAII120918329",
    "title": "KAWAII120918329",
    "link_img": "https://live.staticflickr.com/65535/49694127511_fd11edfdf7_o.jpg",
    "id_image": "KAWAII120918329",
    "count_view": 0
  },
  {
    "link_thumb": "https://live.staticflickr.com/65535/49694387657_ca79ea691c_n.jpg",
    "id_album": "1201366373",
    "description": "KAWAII120918157",
    "title": "KAWAII120918157",
    "link_img": "https://live.staticflickr.com/65535/49694387657_6176250974_o.jpg",
    "id_image": "KAWAII120918157",
    "count_view": 0
  },
  {
    "link_thumb": "https://live.staticflickr.com/65535/49623079617_1afe6fdccf_n.jpg",
    "id_album": "-1741487325",
    "description": "KAWAII0503202021174",
    "title": "KAWAII0503202021174",
    "link_img": "https://live.staticflickr.com/65535/49623079617_de337d40a0_o.jpg",
    "id_image": "KAWAII0503202021174",
    "count_view": 0
  },
  {
    "link_thumb": "https://live.staticflickr.com/65535/49693583953_97eff14de3_n.jpg",
    "id_album": "1563362783",
    "description": "KAWAII12091825180220205950",
    "title": "KAWAII12091825180220205950",
    "link_img": "https://live.staticflickr.com/65535/49693583953_1745fccdf8_o.jpg",
    "id_image": "KAWAII12091825180220205950",
    "count_view": 0
  },
  {
    "link_thumb": "https://live.staticflickr.com/65535/49548271533_25e62fa621_n.jpg",
    "id_album": "-1741487325",
    "description": "KAWAII17091848",
    "title": "KAWAII17091848",
    "link_img": "https://live.staticflickr.com/65535/49548271533_37461da76b_o.jpg",
    "id_image": "KAWAII17091848",
    "count_view": 0
  },
  {
    "link_thumb": "https://live.staticflickr.com/65535/49726920793_d5f069a07f_n.jpg",
    "id_album": "-1862561193",
    "description": "KAWAII0204201945111",
    "title": "KAWAII0204201945111",
    "link_img": "https://live.staticflickr.com/65535/49726920793_d6b6f36c3f_o.jpg",
    "id_image": "KAWAII0204201945111",
    "count_view": 0
  },
  {
    "link_thumb": "https://live.staticflickr.com/65535/49742410028_95aa6f0114_n.jpg",
    "id_album": "1563362783",
    "description": "KAWAII06042021491740",
    "title": "KAWAII06042021491740",
    "link_img": "https://live.staticflickr.com/65535/49742410028_d5b26217ee_o.jpg",
    "id_image": "KAWAII06042021491740",
    "count_view": 0
  },
  {
    "link_thumb": "https://live.staticflickr.com/65535/49548632456_02d78aed1e_n.jpg",
    "id_album": "-316663319",
    "description": "KAWAII1702202234119",
    "title": "KAWAII1702202234119",
    "link_img": "https://live.staticflickr.com/65535/49548632456_9273938554_o.jpg",
    "id_image": "KAWAII1702202234119",
    "count_view": 0
  },
  {
    "link_thumb": "https://live.staticflickr.com/65535/49742944906_9c8b773a84_n.jpg",
    "id_album": "-1779286820",
    "description": "KAWAII060420214917139",
    "title": "KAWAII060420214917139",
    "link_img": "https://live.staticflickr.com/65535/49742944906_b56b6e9b71_o.jpg",
    "id_image": "KAWAII060420214917139",
    "count_view": 0
  },
  {
    "link_thumb": "https://live.staticflickr.com/65535/49592720141_be59d30f5f_n.jpg",
    "id_album": "-316663319",
    "description": "KAWAII270220235184",
    "title": "KAWAII270220235184",
    "link_img": "https://live.staticflickr.com/65535/49592720141_398f2513cf_o.jpg",
    "id_image": "KAWAII270220235184",
    "count_view": 0
  },
  {
    "link_thumb": "https://live.staticflickr.com/65535/49693551533_3204e11952_n.jpg",
    "id_album": "1201366373",
    "description": "KAWAII120918247",
    "title": "KAWAII120918247",
    "link_img": "https://live.staticflickr.com/65535/49693551533_e00c35ceea_o.jpg",
    "id_image": "KAWAII120918247",
    "count_view": 0
  },
  {
    "link_thumb": "https://live.staticflickr.com/65535/49622285883_0f844c56b7_n.jpg",
    "id_album": "1396902986",
    "description": "KAWAII0503202021205",
    "title": "KAWAII0503202021205",
    "link_img": "https://live.staticflickr.com/65535/49622285883_25d3449fa3_o.jpg",
    "id_image": "KAWAII0503202021205",
    "count_view": 0
  },
  {
    "link_thumb": "https://live.staticflickr.com/65535/49727425281_67878e2bdd_n.jpg",
    "id_album": "-1694302085",
    "description": "KAWAII020420194508201",
    "title": "KAWAII020420194508201",
    "link_img": "https://live.staticflickr.com/65535/49727425281_64f106fd43_o.jpg",
    "id_image": "KAWAII020420194508201",
    "count_view": 0
  },
  {
    "link_thumb": "https://live.staticflickr.com/65535/49727745482_f382fce553_n.jpg",
    "id_album": "-1497779911",
    "description": "KAWAII0503202021126",
    "title": "KAWAII0503202021126",
    "link_img": "https://live.staticflickr.com/65535/49727745482_731a05e64f_o.jpg",
    "id_image": "KAWAII0503202021126",
    "count_view": 0
  },
  {
    "link_thumb": "https://live.staticflickr.com/65535/49548718541_8a62012522_n.jpg",
    "id_album": "1396902986",
    "description": "KAWAII1702202238449",
    "title": "KAWAII1702202238449",
    "link_img": "https://live.staticflickr.com/65535/49548718541_5554c7c5f0_o.jpg",
    "id_image": "KAWAII1702202238449",
    "count_view": 0
  },
  {
    "link_thumb": "https://live.staticflickr.com/65535/49743248717_89998e2b97_n.jpg",
    "id_album": "-316663319",
    "description": "KAWAII06042021491331",
    "title": "KAWAII06042021491331",
    "link_img": "https://live.staticflickr.com/65535/49743248717_8234d51f71_o.jpg",
    "id_image": "KAWAII06042021491331",
    "count_view": 0
  },
  {
    "link_thumb": "https://live.staticflickr.com/65535/49742941756_a02cc6b55a_n.jpg",
    "id_album": "-1473448477",
    "description": "KAWAII06042021491737",
    "title": "KAWAII06042021491737",
    "link_img": "https://live.staticflickr.com/65535/49742941756_0cd2c07c03_o.jpg",
    "id_image": "KAWAII06042021491737",
    "count_view": 0
  },
  {
    "link_thumb": "https://live.staticflickr.com/65535/49548143743_af8988865b_n.jpg",
    "id_album": "-422187261",
    "description": "KAWAII170220223491",
    "title": "KAWAII170220223491",
    "link_img": "https://live.staticflickr.com/65535/49548143743_ac48aee77e_o.jpg",
    "id_image": "KAWAII170220223491",
    "count_view": 0
  },
  {
    "link_thumb": "https://live.staticflickr.com/65535/49622841731_293aeeafdf_n.jpg",
    "id_album": "-406350429",
    "description": "KAWAII0503202021110",
    "title": "KAWAII0503202021110",
    "link_img": "https://live.staticflickr.com/65535/49622841731_32a943eaf2_o.jpg",
    "id_image": "KAWAII0503202021110",
    "count_view": 0
  },
  {
    "link_thumb": "https://live.staticflickr.com/65535/49694102456_7180e81e0c_n.jpg",
    "id_album": "1201366373",
    "description": "KAWAII12091850",
    "title": "KAWAII12091850",
    "link_img": "https://live.staticflickr.com/65535/49694102456_a37abb310b_o.jpg",
    "id_image": "KAWAII12091850",
    "count_view": 0
  },
  {
    "link_thumb": "https://live.staticflickr.com/65535/49548591466_2e7a3dab1a_n.jpg",
    "id_album": "-316663319",
    "description": "KAWAII120918303",
    "title": "KAWAII120918303",
    "link_img": "https://live.staticflickr.com/65535/49548591466_746ab509f8_o.jpg",
    "id_image": "KAWAII120918303",
    "count_view": 0
  },
  {
    "link_thumb": "https://live.staticflickr.com/65535/49548648001_2de5d741fa_n.jpg",
    "id_album": "-1741487325",
    "description": "KAWAII1702202235129",
    "title": "KAWAII1702202235129",
    "link_img": "https://live.staticflickr.com/65535/49548648001_3ffc32f97c_o.jpg",
    "id_image": "KAWAII1702202235129",
    "count_view": 0
  },
  {
    "link_thumb": "https://live.staticflickr.com/65535/49742915231_bdcaf55483_n.jpg",
    "id_album": "-1497779911",
    "description": "KAWAII06042021491499",
    "title": "KAWAII06042021491499",
    "link_img": "https://live.staticflickr.com/65535/49742915231_530e7591da_o.jpg",
    "id_image": "KAWAII06042021491499",
    "count_view": 0
  },
  {
    "link_thumb": "https://live.staticflickr.com/65535/49743270952_69c55ff46c_n.jpg",
    "id_album": "1396902986",
    "description": "KAWAII060420214912204",
    "title": "KAWAII060420214912204",
    "link_img": "https://live.staticflickr.com/65535/49743270952_1285abea5b_o.jpg",
    "id_image": "KAWAII060420214912204",
    "count_view": 0
  },
  {
    "link_thumb": "https://live.staticflickr.com/65535/49622332363_9dcb2579a8_n.jpg",
    "id_album": "-406350429",
    "description": "KAWAII0503202021268",
    "title": "KAWAII0503202021268",
    "link_img": "https://live.staticflickr.com/65535/49622332363_25d01093c7_o.jpg",
    "id_image": "KAWAII0503202021268",
    "count_view": 0
  },
  {
    "link_thumb": "https://live.staticflickr.com/65535/49622285663_33e9e60699_n.jpg",
    "id_album": "1396902986",
    "description": "KAWAII0503202021200",
    "title": "KAWAII0503202021200",
    "link_img": "https://live.staticflickr.com/65535/49622285663_9bb454601f_o.jpg",
    "id_image": "KAWAII0503202021200",
    "count_view": 0
  },
  {
    "link_thumb": "https://live.staticflickr.com/65535/49727426901_aa4714b602_n.jpg",
    "id_album": "-1694302085",
    "description": "KAWAII1702202235162",
    "title": "KAWAII1702202235162",
    "link_img": "https://live.staticflickr.com/65535/49727426901_c3b836d30b_o.jpg",
    "id_image": "KAWAII1702202235162",
    "count_view": 0
  },
  {
    "link_thumb": "https://live.staticflickr.com/65535/49592706831_861ca62369_n.jpg",
    "id_album": "1396902986",
    "description": "KAWAII2702202351138",
    "title": "KAWAII2702202351138",
    "link_img": "https://live.staticflickr.com/65535/49592706831_561d937080_o.jpg",
    "id_image": "KAWAII2702202351138",
    "count_view": 0
  },
  {
    "link_thumb": "https://live.staticflickr.com/65535/49693557238_c6b6635ea4_n.jpg",
    "id_album": "1201366373",
    "description": "KAWAII120918309",
    "title": "KAWAII120918309",
    "link_img": "https://live.staticflickr.com/65535/49693557238_c50d74d2b9_o.jpg",
    "id_image": "KAWAII120918309",
    "count_view": 0
  },
  {
    "link_thumb": "https://live.staticflickr.com/65535/49623075022_88f2c11de6_n.jpg",
    "id_album": "1396902986",
    "description": "KAWAII0503202021267",
    "title": "KAWAII0503202021267",
    "link_img": "https://live.staticflickr.com/65535/49623075022_cc645a933e_o.jpg",
    "id_image": "KAWAII0503202021267",
    "count_view": 0
  },
  {
    "link_thumb": "https://live.staticflickr.com/65535/49694219991_5df29d8ed5_n.jpg",
    "id_album": "-643980979",
    "description": "KAWAII24032022050265",
    "title": "KAWAII24032022050265",
    "link_img": "https://live.staticflickr.com/65535/49694219991_8eb24b53e7_o.jpg",
    "id_image": "KAWAII24032022050265",
    "count_view": 0
  },
  {
    "link_thumb": "https://live.staticflickr.com/65535/49548927977_c4b7791b97_n.jpg",
    "id_album": "-422187261",
    "description": "KAWAII1702202237381",
    "title": "KAWAII1702202237381",
    "link_img": "https://live.staticflickr.com/65535/49548927977_03f5048ee0_o.jpg",
    "id_image": "KAWAII1702202237381",
    "count_view": 0
  },
  {
    "link_thumb": "https://live.staticflickr.com/65535/49694084236_63d3b3d1f2_n.jpg",
    "id_album": "1201366373",
    "description": "KAWAII120918146",
    "title": "KAWAII120918146",
    "link_img": "https://live.staticflickr.com/65535/49694084236_b4dc9217da_o.jpg",
    "id_image": "KAWAII120918146",
    "count_view": 0
  },
  {
    "link_thumb": "https://live.staticflickr.com/65535/49592708451_8824c137ec_n.jpg",
    "id_album": "1396902986",
    "description": "KAWAII270220235141",
    "title": "KAWAII270220235141",
    "link_img": "https://live.staticflickr.com/65535/49592708451_7b6f016983_o.jpg",
    "id_image": "KAWAII270220235141",
    "count_view": 0
  },
  {
    "link_thumb": "https://live.staticflickr.com/65535/49727475936_5723e4d0a5_n.jpg",
    "id_album": "431597977",
    "description": "KAWAII020420194512109",
    "title": "KAWAII020420194512109",
    "link_img": "https://live.staticflickr.com/65535/49727475936_5f53df718a_o.jpg",
    "id_image": "KAWAII020420194512109",
    "count_view": 0
  },
  {
    "link_thumb": "https://live.staticflickr.com/65535/49578242613_7c8b60b077_n.jpg",
    "id_album": "-422187261",
    "description": "KAWAII190220211129",
    "title": "KAWAII190220211129",
    "link_img": "https://live.staticflickr.com/65535/49578242613_b4337b78c2_o.jpg",
    "id_image": "KAWAII190220211129",
    "count_view": 0
  },
  {
    "link_thumb": "https://live.staticflickr.com/65535/49694411482_dccb80dd9f_n.jpg",
    "id_album": "-643980979",
    "description": "KAWAII1702202235196",
    "title": "KAWAII1702202235196",
    "link_img": "https://live.staticflickr.com/65535/49694411482_4d17f04c9f_o.jpg",
    "id_image": "KAWAII1702202235196",
    "count_view": 0
  },
  {
    "link_thumb": "https://live.staticflickr.com/65535/49693519748_a79a94be96_n.jpg",
    "id_album": "1699819648",
    "description": "KAWAII050320202114",
    "title": "KAWAII050320202114",
    "link_img": "https://live.staticflickr.com/65535/49693519748_72ea22ea0c_o.jpg",
    "id_image": "KAWAII050320202114",
    "count_view": 0
  },
  {
    "link_thumb": "https://live.staticflickr.com/65535/49548907182_b3a4f4155d_n.jpg",
    "id_album": "-422187261",
    "description": "KAWAII1702202236289",
    "title": "KAWAII1702202236289",
    "link_img": "https://live.staticflickr.com/65535/49548907182_832a2bdfc9_o.jpg",
    "id_image": "KAWAII1702202236289",
    "count_view": 0
  },
  {
    "link_thumb": "https://live.staticflickr.com/65535/49726917603_404d3589cb_n.jpg",
    "id_album": "1396902986",
    "description": "KAWAII020420194511104",
    "title": "KAWAII020420194511104",
    "link_img": "https://live.staticflickr.com/65535/49726917603_3448c3a652_o.jpg",
    "id_image": "KAWAII020420194511104",
    "count_view": 0
  },
  {
    "link_thumb": "https://live.staticflickr.com/65535/49622283833_4431a37fe7_n.jpg",
    "id_album": "1396902986",
    "description": "KAWAII0503202021108",
    "title": "KAWAII0503202021108",
    "link_img": "https://live.staticflickr.com/65535/49622283833_65829db4d6_o.jpg",
    "id_image": "KAWAII0503202021108",
    "count_view": 0
  },
  {
    "link_thumb": "https://live.staticflickr.com/65535/49694128691_4f0e62d6c1_n.jpg",
    "id_album": "1226948986",
    "description": "TOTORO220320154113",
    "title": "TOTORO220320154113",
    "link_img": "https://live.staticflickr.com/65535/49694128691_9b97e65182_o.jpg",
    "id_image": "TOTORO220320154113",
    "count_view": 0
  },
  {
    "link_thumb": "https://live.staticflickr.com/65535/49710287133_c88fa54bb0_n.jpg",
    "id_album": "-1599896063",
    "description": "LITTLEMONK29032012063529",
    "title": "LITTLEMONK29032012063529",
    "link_img": "https://live.staticflickr.com/65535/49710287133_b5e17895be_o.jpg",
    "id_image": "LITTLEMONK29032012063529",
    "count_view": 0
  },
  {
    "link_thumb": "https://live.staticflickr.com/65535/49578750876_bea642f332_n.jpg",
    "id_album": "-1694302085",
    "description": "KAWAII190220211135",
    "title": "KAWAII190220211135",
    "link_img": "https://live.staticflickr.com/65535/49578750876_721cb6ccf2_o.jpg",
    "id_image": "KAWAII190220211135",
    "count_view": 0
  },
  {
    "link_thumb": "https://live.staticflickr.com/65535/49592209938_f62c424820_n.jpg",
    "id_album": "-1432180061",
    "description": "KAWAII270220235185",
    "title": "KAWAII270220235185",
    "link_img": "https://live.staticflickr.com/65535/49592209938_780f1ea26a_o.jpg",
    "id_image": "KAWAII270220235185",
    "count_view": 0
  },
  {
    "link_thumb": "https://live.staticflickr.com/65535/49694395672_7f65285bda_n.jpg",
    "id_album": "1201366373",
    "description": "KAWAII120918230",
    "title": "KAWAII120918230",
    "link_img": "https://live.staticflickr.com/65535/49694395672_d8e7ccf8ef_o.jpg",
    "id_image": "KAWAII120918230",
    "count_view": 0
  },
  {
    "link_thumb": "https://live.staticflickr.com/65535/49592228118_d708974308_n.jpg",
    "id_album": "949200594",
    "description": "KAWAII2702202351134",
    "title": "KAWAII2702202351134",
    "link_img": "https://live.staticflickr.com/65535/49592228118_c90b3e7973_o.jpg",
    "id_image": "KAWAII2702202351134",
    "count_view": 0
  },
  {
    "link_thumb": "https://live.staticflickr.com/65535/49726884643_2a9d92e5af_n.jpg",
    "id_album": "-1497779911",
    "description": "KAWAII050320202123",
    "title": "KAWAII050320202123",
    "link_img": "https://live.staticflickr.com/65535/49726884643_2321187220_o.jpg",
    "id_image": "KAWAII050320202123",
    "count_view": 0
  },
  {
    "link_thumb": "https://live.staticflickr.com/65535/49727761752_c968d433f3_n.jpg",
    "id_album": "742877173",
    "description": "KAWAII02042019451113",
    "title": "KAWAII02042019451113",
    "link_img": "https://live.staticflickr.com/65535/49727761752_441f8fa031_o.jpg",
    "id_image": "KAWAII02042019451113",
    "count_view": 0
  },
  {
    "link_thumb": "https://live.staticflickr.com/65535/49742903211_fcd07ca84a_n.jpg",
    "id_album": "-1913845949",
    "description": "KAWAII06042021491513",
    "title": "KAWAII06042021491513",
    "link_img": "https://live.staticflickr.com/65535/49742903211_a219540e98_o.jpg",
    "id_image": "KAWAII06042021491513",
    "count_view": 0
  },
  {
    "link_thumb": "https://live.staticflickr.com/65535/49694084581_9d6fb6a1b8_n.jpg",
    "id_album": "-643980979",
    "description": "KAWAII120918151",
    "title": "KAWAII120918151",
    "link_img": "https://live.staticflickr.com/65535/49694084581_fd70a5c5b1_o.jpg",
    "id_image": "KAWAII120918151",
    "count_view": 0
  },
  {
    "link_thumb": "https://live.staticflickr.com/65535/49592952392_4c43bf382f_n.jpg",
    "id_album": "-1741487325",
    "description": "KAWAII1702202237338",
    "title": "KAWAII1702202237338",
    "link_img": "https://live.staticflickr.com/65535/49592952392_4bb44f63a9_o.jpg",
    "id_image": "KAWAII1702202237338",
    "count_view": 0
  },
  {
    "link_thumb": "https://live.staticflickr.com/65535/49727425881_98e8640648_n.jpg",
    "id_album": "-1694302085",
    "description": "KAWAII02042019450887",
    "title": "KAWAII02042019450887",
    "link_img": "https://live.staticflickr.com/65535/49727425881_41398fda39_o.jpg",
    "id_image": "KAWAII02042019450887",
    "count_view": 0
  },
  {
    "link_thumb": "https://live.staticflickr.com/65535/49742951096_c5610f8f40_n.jpg",
    "id_album": "-1862561193",
    "description": "KAWAII060420214914262",
    "title": "KAWAII060420214914262",
    "link_img": "https://live.staticflickr.com/65535/49742951096_d7594f5e94_o.jpg",
    "id_image": "KAWAII060420214914262",
    "count_view": 0
  },
  {
    "link_thumb": "https://live.staticflickr.com/65535/49592227688_ef059cfa35_n.jpg",
    "id_album": "949200594",
    "description": "KAWAII270220235113",
    "title": "KAWAII270220235113",
    "link_img": "https://live.staticflickr.com/65535/49592227688_fb97dc9948_o.jpg",
    "id_image": "KAWAII270220235113",
    "count_view": 0
  },
  {
    "link_thumb": "https://live.staticflickr.com/65535/49726876208_e5b8d3e453_n.jpg",
    "id_album": "-422187261",
    "description": "KAWAII020420194511146",
    "title": "KAWAII020420194511146",
    "link_img": "https://live.staticflickr.com/65535/49726876208_5079248f53_o.jpg",
    "id_image": "KAWAII020420194511146",
    "count_view": 0
  },
  {
    "link_thumb": "https://live.staticflickr.com/65535/49548727196_7af34f5e15_n.jpg",
    "id_album": "-1741487325",
    "description": "KAWAII1702202238481",
    "title": "KAWAII1702202238481",
    "link_img": "https://live.staticflickr.com/65535/49548727196_c37f3180b8_o.jpg",
    "id_image": "KAWAII1702202238481",
    "count_view": 0
  },
  {
    "link_thumb": "https://live.staticflickr.com/65535/49710820586_fe595c2acd_n.jpg",
    "id_album": "-1599896063",
    "description": "LITTLEMONK29032012063316",
    "title": "LITTLEMONK29032012063316",
    "link_img": "https://live.staticflickr.com/65535/49710820586_acbdb7b8ff_o.jpg",
    "id_image": "LITTLEMONK29032012063316",
    "count_view": 0
  },
  {
    "link_thumb": "https://live.staticflickr.com/65535/49693582248_aec5e0bea5_n.jpg",
    "id_album": "-358592519",
    "description": "KAWAII1702202236302",
    "title": "KAWAII1702202236302",
    "link_img": "https://live.staticflickr.com/65535/49693582248_45280fbeb2_o.jpg",
    "id_image": "KAWAII1702202236302",
    "count_view": 0
  },
  {
    "link_thumb": "https://live.staticflickr.com/65535/49548617816_1b9e579e45_n.jpg",
    "id_album": "-1432180061",
    "description": "KAWAII1209188",
    "title": "KAWAII1209188",
    "link_img": "https://live.staticflickr.com/65535/49548617816_7760c68fb1_o.jpg",
    "id_image": "KAWAII1209188",
    "count_view": 0
  },
  {
    "link_thumb": "https://live.staticflickr.com/65535/49548797477_8571510e7c_n.jpg",
    "id_album": "-316663319",
    "description": "KAWAII120918211",
    "title": "KAWAII120918211",
    "link_img": "https://live.staticflickr.com/65535/49548797477_695593c1eb_o.jpg",
    "id_image": "KAWAII120918211",
    "count_view": 0
  },
  {
    "link_thumb": "https://live.staticflickr.com/65535/49727466806_2760e8cfcf_n.jpg",
    "id_album": "-1862561193",
    "description": "KAWAII02042019450919",
    "title": "KAWAII02042019450919",
    "link_img": "https://live.staticflickr.com/65535/49727466806_a8a219a42d_o.jpg",
    "id_image": "KAWAII02042019450919",
    "count_view": 0
  },
  {
    "link_thumb": "https://live.staticflickr.com/65535/49694425322_b51eb0e2a3_n.jpg",
    "id_album": "-643980979",
    "description": "KAWAII270220235163",
    "title": "KAWAII270220235163",
    "link_img": "https://live.staticflickr.com/65535/49694425322_970edb1907_o.jpg",
    "id_image": "KAWAII270220235163",
    "count_view": 0
  },
  {
    "link_thumb": "https://live.staticflickr.com/65535/49726893173_f736d3d317_n.jpg",
    "id_album": "-316663319",
    "description": "KAWAII020420194514101",
    "title": "KAWAII020420194514101",
    "link_img": "https://live.staticflickr.com/65535/49726893173_efa11a2103_o.jpg",
    "id_image": "KAWAII020420194514101",
    "count_view": 0
  },
  {
    "link_thumb": "https://live.staticflickr.com/65535/49727450881_7c7958f382_n.jpg",
    "id_album": "742877173",
    "description": "KAWAII020420194513138",
    "title": "KAWAII020420194513138",
    "link_img": "https://live.staticflickr.com/65535/49727450881_916c922e16_o.jpg",
    "id_image": "KAWAII020420194513138",
    "count_view": 0
  },
  {
    "link_thumb": "https://live.staticflickr.com/65535/49622306623_94c8e08c1d_n.jpg",
    "id_album": "-316663319",
    "description": "KAWAII0503202021192",
    "title": "KAWAII0503202021192",
    "link_img": "https://live.staticflickr.com/65535/49622306623_572c1ca42c_o.jpg",
    "id_image": "KAWAII0503202021192",
    "count_view": 0
  },
  {
    "link_thumb": "https://live.staticflickr.com/65535/49743238067_e9100109a9_n.jpg",
    "id_album": "-1497779911",
    "description": "KAWAII060420214914146",
    "title": "KAWAII060420214914146",
    "link_img": "https://live.staticflickr.com/65535/49743238067_642958007a_o.jpg",
    "id_image": "KAWAII060420214914146",
    "count_view": 0
  },
  {
    "link_thumb": "https://live.staticflickr.com/65535/49623079297_a7c178893d_n.jpg",
    "id_album": "-1741487325",
    "description": "KAWAII0503202021172",
    "title": "KAWAII0503202021172",
    "link_img": "https://live.staticflickr.com/65535/49623079297_dc3b7d3cf6_o.jpg",
    "id_image": "KAWAII0503202021172",
    "count_view": 0
  },
  {
    "link_thumb": "https://live.staticflickr.com/65535/49548074888_550c1ac4be_n.jpg",
    "id_album": "-1432180061",
    "description": "KAWAII120918242",
    "title": "KAWAII120918242",
    "link_img": "https://live.staticflickr.com/65535/49548074888_6f5129f22b_o.jpg",
    "id_image": "KAWAII120918242",
    "count_view": 0
  },
  {
    "link_thumb": "https://live.staticflickr.com/65535/49743227472_f75f605e69_n.jpg",
    "id_album": "-1913845949",
    "description": "KAWAII060420214915318",
    "title": "KAWAII060420214915318",
    "link_img": "https://live.staticflickr.com/65535/49743227472_74a5f2b14f_o.jpg",
    "id_image": "KAWAII060420214915318",
    "count_view": 0
  },
  {
    "link_thumb": "https://live.staticflickr.com/65535/49622828131_4893d74f42_n.jpg",
    "id_album": "-316663319",
    "description": "KAWAII0503202021256",
    "title": "KAWAII0503202021256",
    "link_img": "https://live.staticflickr.com/65535/49622828131_59cc0046aa_o.jpg",
    "id_image": "KAWAII0503202021256",
    "count_view": 0
  },
  {
    "link_thumb": "https://live.staticflickr.com/65535/49694385397_00b09b98ba_n.jpg",
    "id_album": "1201366373",
    "description": "KAWAII120918122",
    "title": "KAWAII120918122",
    "link_img": "https://live.staticflickr.com/65535/49694385397_5c25b2ca6f_o.jpg",
    "id_image": "KAWAII120918122",
    "count_view": 0
  },
  {
    "link_thumb": "https://live.staticflickr.com/65535/49694521342_f81714dbf3_n.jpg",
    "id_album": "-643980979",
    "description": "KAWAII24032022050127",
    "title": "KAWAII24032022050127",
    "link_img": "https://live.staticflickr.com/65535/49694521342_a6e11da6d3_o.jpg",
    "id_image": "KAWAII24032022050127",
    "count_view": 0
  },
  {
    "link_thumb": "https://live.staticflickr.com/65535/49622808686_2516abf137_n.jpg",
    "id_album": "-1741487325",
    "description": "KAWAII050320202173",
    "title": "KAWAII050320202173",
    "link_img": "https://live.staticflickr.com/65535/49622808686_4f6b8249d3_o.jpg",
    "id_image": "KAWAII050320202173",
    "count_view": 0
  },
  {
    "link_thumb": "https://live.staticflickr.com/65535/49623097582_a0b5d26cc5_n.jpg",
    "id_album": "-316663319",
    "description": "KAWAII0503202021229",
    "title": "KAWAII0503202021229",
    "link_img": "https://live.staticflickr.com/65535/49623097582_22857551b6_o.jpg",
    "id_image": "KAWAII0503202021229",
    "count_view": 0
  },
  {
    "link_thumb": "https://live.staticflickr.com/65535/49694524137_b80953ce00_n.jpg",
    "id_album": "-1432180061",
    "description": "KAWAII12091838",
    "title": "KAWAII12091838",
    "link_img": "https://live.staticflickr.com/65535/49694524137_9730271caf_o.jpg",
    "id_image": "KAWAII12091838",
    "count_view": 0
  },
  {
    "link_thumb": "https://live.staticflickr.com/65535/49727767512_205497106d_n.jpg",
    "id_album": "742877173",
    "description": "KAWAII02042019451463",
    "title": "KAWAII02042019451463",
    "link_img": "https://live.staticflickr.com/65535/49727767512_7e3dc89614_o.jpg",
    "id_image": "KAWAII02042019451463",
    "count_view": 0
  },
  {
    "link_thumb": "https://live.staticflickr.com/65535/49726924473_3f8ea1d665_n.jpg",
    "id_album": "-1862561193",
    "description": "KAWAII020420194513106",
    "title": "KAWAII020420194513106",
    "link_img": "https://live.staticflickr.com/65535/49726924473_6c8e71e23c_o.jpg",
    "id_image": "KAWAII020420194513106",
    "count_view": 0
  },
  {
    "link_thumb": "https://live.staticflickr.com/65535/49548180303_ee417ed302_n.jpg",
    "id_album": "1396902986",
    "description": "KAWAII1702202236296",
    "title": "KAWAII1702202236296",
    "link_img": "https://live.staticflickr.com/65535/49548180303_e1d6316ffd_o.jpg",
    "id_image": "KAWAII1702202236296",
    "count_view": 0
  },
  {
    "link_thumb": "https://live.staticflickr.com/65535/49742957246_359ec56fb7_n.jpg",
    "id_album": "-1431786825",
    "description": "KAWAII060420214917258",
    "title": "KAWAII060420214917258",
    "link_img": "https://live.staticflickr.com/65535/49742957246_e27771f7b9_o.jpg",
    "id_image": "KAWAII060420214917258",
    "count_view": 0
  },
  {
    "link_thumb": "https://live.staticflickr.com/65535/49548843397_dbf2fe5fe9_n.jpg",
    "id_album": "-1432180061",
    "description": "KAWAII1209187",
    "title": "KAWAII1209187",
    "link_img": "https://live.staticflickr.com/65535/49548843397_bf8a64d198_o.jpg",
    "id_image": "KAWAII1209187",
    "count_view": 0
  },
  {
    "link_thumb": "https://live.staticflickr.com/65535/49578243728_cffc5e92dd_n.jpg",
    "id_album": "-1694302085",
    "description": "KAWAII19022021112",
    "title": "KAWAII19022021112",
    "link_img": "https://live.staticflickr.com/65535/49578243728_6c35416521_o.jpg",
    "id_image": "KAWAII19022021112",
    "count_view": 0
  },
  {
    "link_thumb": "https://live.staticflickr.com/65535/49548710626_0532f61eea_n.jpg",
    "id_album": "-1432180061",
    "description": "KAWAII1702202238419",
    "title": "KAWAII1702202238419",
    "link_img": "https://live.staticflickr.com/65535/49548710626_f269a794fc_o.jpg",
    "id_image": "KAWAII1702202238419",
    "count_view": 0
  },
  {
    "link_thumb": "https://live.staticflickr.com/65535/49727784282_3fa89588d1_n.jpg",
    "id_album": "-1862561193",
    "description": "KAWAII02042019451140",
    "title": "KAWAII02042019451140",
    "link_img": "https://live.staticflickr.com/65535/49727784282_4ed66233ee_o.jpg",
    "id_image": "KAWAII02042019451140",
    "count_view": 0
  },
  {
    "link_thumb": "https://live.staticflickr.com/65535/49727751267_d1ddd34e63_n.jpg",
    "id_album": "-316663319",
    "description": "KAWAII020420194510209",
    "title": "KAWAII020420194510209",
    "link_img": "https://live.staticflickr.com/65535/49727751267_76eb7d2aac_o.jpg",
    "id_image": "KAWAII020420194510209",
    "count_view": 0
  },
  {
    "link_thumb": "https://live.staticflickr.com/65535/49742938901_507f0fb296_n.jpg",
    "id_album": "-1473448477",
    "description": "KAWAII060420214915300",
    "title": "KAWAII060420214915300",
    "link_img": "https://live.staticflickr.com/65535/49742938901_df0988c9a6_o.jpg",
    "id_image": "KAWAII060420214915300",
    "count_view": 0
  },
  {
    "link_thumb": "https://live.staticflickr.com/65535/49743270322_48b46857cd_n.jpg",
    "id_album": "1396902986",
    "description": "KAWAII050320202186",
    "title": "KAWAII050320202186",
    "link_img": "https://live.staticflickr.com/65535/49743270322_d2ff772569_o.jpg",
    "id_image": "KAWAII050320202186",
    "count_view": 0
  },
  {
    "link_thumb": "https://live.staticflickr.com/65535/49592214213_574d679760_n.jpg",
    "id_album": "-316663319",
    "description": "KAWAII270220235117",
    "title": "KAWAII270220235117",
    "link_img": "https://live.staticflickr.com/65535/49592214213_4fdbd065b2_o.jpg",
    "id_image": "KAWAII270220235117",
    "count_view": 0
  },
  {
    "link_thumb": "https://live.staticflickr.com/65535/49727448281_b4ec788374_n.jpg",
    "id_album": "742877173",
    "description": "KAWAII020420194511265",
    "title": "KAWAII020420194511265",
    "link_img": "https://live.staticflickr.com/65535/49727448281_40f223619f_o.jpg",
    "id_image": "KAWAII020420194511265",
    "count_view": 0
  },
  {
    "link_thumb": "https://live.staticflickr.com/65535/49622806061_acc7361557_n.jpg",
    "id_album": "-1741487325",
    "description": "KAWAII0503202021132",
    "title": "KAWAII0503202021132",
    "link_img": "https://live.staticflickr.com/65535/49622806061_f780ea6420_o.jpg",
    "id_image": "KAWAII0503202021132",
    "count_view": 0
  },
  {
    "link_thumb": "https://live.staticflickr.com/65535/49622840081_e373bc4bf9_n.jpg",
    "id_album": "-1694302085",
    "description": "KAWAII050320202197",
    "title": "KAWAII050320202197",
    "link_img": "https://live.staticflickr.com/65535/49622840081_3138ee4372_o.jpg",
    "id_image": "KAWAII050320202197",
    "count_view": 0
  },
  {
    "link_thumb": "https://live.staticflickr.com/65535/49727789047_984311d8a0_n.jpg",
    "id_album": "1563362783",
    "description": "KAWAII1702202237392",
    "title": "KAWAII1702202237392",
    "link_img": "https://live.staticflickr.com/65535/49727789047_b9f8c98b67_o.jpg",
    "id_image": "KAWAII1702202237392",
    "count_view": 0
  },
  {
    "link_thumb": "https://live.staticflickr.com/65535/49727446571_6d5ef95546_n.jpg",
    "id_album": "742877173",
    "description": "KAWAII020420194510178",
    "title": "KAWAII020420194510178",
    "link_img": "https://live.staticflickr.com/65535/49727446571_1345738e04_o.jpg",
    "id_image": "KAWAII020420194510178",
    "count_view": 0
  },
  {
    "link_thumb": "https://live.staticflickr.com/65535/49694371987_aff287f26d_n.jpg",
    "id_album": "-643980979",
    "description": "KAWAII0503202021106",
    "title": "KAWAII0503202021106",
    "link_img": "https://live.staticflickr.com/65535/49694371987_c04ff20047_o.jpg",
    "id_image": "KAWAII0503202021106",
    "count_view": 0
  },
  {
    "link_thumb": "https://live.staticflickr.com/65535/49548627341_d1e91ca898_n.jpg",
    "id_album": "1396902986",
    "description": "KAWAII170220223332",
    "title": "KAWAII170220223332",
    "link_img": "https://live.staticflickr.com/65535/49548627341_947cb50218_o.jpg",
    "id_image": "KAWAII170220223332",
    "count_view": 0
  },
  {
    "link_thumb": "https://live.staticflickr.com/65535/49548829712_507eb00ccd_n.jpg",
    "id_album": "-1099943053",
    "description": "KAWAII120918349",
    "title": "KAWAII120918349",
    "link_img": "https://live.staticflickr.com/65535/49548829712_07620e2619_o.jpg",
    "id_image": "KAWAII120918349",
    "count_view": 0
  },
  {
    "link_thumb": "https://live.staticflickr.com/65535/49711146377_82eb555582_n.jpg",
    "id_album": "-1599896063",
    "description": "LITTLEMONK29032012064018",
    "title": "LITTLEMONK29032012064018",
    "link_img": "https://live.staticflickr.com/65535/49711146377_944993cde7_o.jpg",
    "id_image": "LITTLEMONK29032012064018",
    "count_view": 0
  },
  {
    "link_thumb": "https://live.staticflickr.com/65535/49622828731_fdf5e06088_n.jpg",
    "id_album": "-316663319",
    "description": "KAWAII0503202021270",
    "title": "KAWAII0503202021270",
    "link_img": "https://live.staticflickr.com/65535/49622828731_bc080fb95a_o.jpg",
    "id_image": "KAWAII0503202021270",
    "count_view": 0
  },
  {
    "link_thumb": "https://live.staticflickr.com/65535/49622312083_f063a67fc7_n.jpg",
    "id_album": "-316663319",
    "description": "KAWAII0503202021244",
    "title": "KAWAII0503202021244",
    "link_img": "https://live.staticflickr.com/65535/49622312083_b3eff5c2cf_o.jpg",
    "id_image": "KAWAII0503202021244",
    "count_view": 0
  },
  {
    "link_thumb": "https://live.staticflickr.com/65535/49622816441_a1185fa8c3_n.jpg",
    "id_album": "-316663319",
    "description": "KAWAII0503202021128",
    "title": "KAWAII0503202021128",
    "link_img": "https://live.staticflickr.com/65535/49622816441_16b93e7b8c_o.jpg",
    "id_image": "KAWAII0503202021128",
    "count_view": 0
  },
  {
    "link_thumb": "https://live.staticflickr.com/65535/49693675488_78222493e3_n.jpg",
    "id_album": "-643980979",
    "description": "KAWAII24032022050220",
    "title": "KAWAII24032022050220",
    "link_img": "https://live.staticflickr.com/65535/49693675488_c85f07a308_o.jpg",
    "id_image": "KAWAII24032022050220",
    "count_view": 0
  },
  {
    "link_thumb": "https://live.staticflickr.com/65535/49693578178_f5f851143b_n.jpg",
    "id_album": "-643980979",
    "description": "KAWAII2702202351144",
    "title": "KAWAII2702202351144",
    "link_img": "https://live.staticflickr.com/65535/49693578178_f2df832e5c_o.jpg",
    "id_image": "KAWAII2702202351144",
    "count_view": 0
  },
  {
    "link_thumb": "https://live.staticflickr.com/65535/49743247462_f92806a66d_n.jpg",
    "id_album": "-316663319",
    "description": "KAWAII060420214913137",
    "title": "KAWAII060420214913137",
    "link_img": "https://live.staticflickr.com/65535/49743247462_821845a635_o.jpg",
    "id_image": "KAWAII060420214913137",
    "count_view": 0
  },
  {
    "link_thumb": "https://live.staticflickr.com/65535/49743268247_7e9591e74a_n.jpg",
    "id_album": "-1779286820",
    "description": "KAWAII060420214916207",
    "title": "KAWAII060420214916207",
    "link_img": "https://live.staticflickr.com/65535/49743268247_0a5aa914a6_o.jpg",
    "id_image": "KAWAII060420214916207",
    "count_view": 0
  },
  {
    "link_thumb": "https://live.staticflickr.com/65535/49743268987_a02ff27df9_n.jpg",
    "id_album": "-1779286820",
    "description": "KAWAII060420214918105",
    "title": "KAWAII060420214918105",
    "link_img": "https://live.staticflickr.com/65535/49743268987_0692e47578_o.jpg",
    "id_image": "KAWAII060420214918105",
    "count_view": 0
  },
  {
    "link_thumb": "https://live.staticflickr.com/65535/49694113176_4998b08d75_n.jpg",
    "id_album": "-643980979",
    "description": "KAWAII1702202238496",
    "title": "KAWAII1702202238496",
    "link_img": "https://live.staticflickr.com/65535/49694113176_0a4c515e09_o.jpg",
    "id_image": "KAWAII1702202238496",
    "count_view": 0
  },
  {
    "link_thumb": "https://live.staticflickr.com/65535/49694083526_00a9cdf340_n.jpg",
    "id_album": "1201366373",
    "description": "KAWAII120918135",
    "title": "KAWAII120918135",
    "link_img": "https://live.staticflickr.com/65535/49694083526_3f7a46c882_o.jpg",
    "id_image": "KAWAII120918135",
    "count_view": 0
  },
  {
    "link_thumb": "https://live.staticflickr.com/65535/49727750827_5544a6d51e_n.jpg",
    "id_album": "-316663319",
    "description": "KAWAII02042019450928",
    "title": "KAWAII02042019450928",
    "link_img": "https://live.staticflickr.com/65535/49727750827_b0a265e665_o.jpg",
    "id_image": "KAWAII02042019450928",
    "count_view": 0
  },
  {
    "link_thumb": "https://live.staticflickr.com/65535/49726883983_810403235c_n.jpg",
    "id_album": "-1497779911",
    "description": "KAWAII050320202115",
    "title": "KAWAII050320202115",
    "link_img": "https://live.staticflickr.com/65535/49726883983_90249b40a9_o.jpg",
    "id_image": "KAWAII050320202115",
    "count_view": 0
  },
  {
    "link_thumb": "https://live.staticflickr.com/65535/49726924058_d46096920e_n.jpg",
    "id_album": "-1862561193",
    "description": "KAWAII020420194512240",
    "title": "KAWAII020420194512240",
    "link_img": "https://live.staticflickr.com/65535/49726924058_f0799f0eef_o.jpg",
    "id_image": "KAWAII020420194512240",
    "count_view": 0
  },
  {
    "link_thumb": "https://live.staticflickr.com/65535/49693533688_979bdb70bd_n.jpg",
    "id_album": "-643980979",
    "description": "KAWAII050320202171",
    "title": "KAWAII050320202171",
    "link_img": "https://live.staticflickr.com/65535/49693533688_c03a871960_o.jpg",
    "id_image": "KAWAII050320202171",
    "count_view": 0
  },
  {
    "link_thumb": "https://live.staticflickr.com/65535/49727448881_4cc935def4_n.jpg",
    "id_album": "742877173",
    "description": "KAWAII02042019451193",
    "title": "KAWAII02042019451193",
    "link_img": "https://live.staticflickr.com/65535/49727448881_ef8c24c859_o.jpg",
    "id_image": "KAWAII02042019451193",
    "count_view": 0
  },
  {
    "link_thumb": "https://live.staticflickr.com/65535/49548083248_38f59ac156_n.jpg",
    "id_album": "-1741487325",
    "description": "KAWAII12091828",
    "title": "KAWAII12091828",
    "link_img": "https://live.staticflickr.com/65535/49548083248_c20621c5d3_o.jpg",
    "id_image": "KAWAII12091828",
    "count_view": 0
  },
  {
    "link_thumb": "https://live.staticflickr.com/65535/49622335103_64a8defb90_n.jpg",
    "id_album": "-406350429",
    "description": "KAWAII05032020219",
    "title": "KAWAII05032020219",
    "link_img": "https://live.staticflickr.com/65535/49622335103_1cc8197d63_o.jpg",
    "id_image": "KAWAII05032020219",
    "count_view": 0
  },
  {
    "link_thumb": "https://live.staticflickr.com/65535/49742947631_d1ebfe6c19_n.jpg",
    "id_album": "1396902986",
    "description": "KAWAII060420214913286",
    "title": "KAWAII060420214913286",
    "link_img": "https://live.staticflickr.com/65535/49742947631_f819898538_o.jpg",
    "id_image": "KAWAII060420214913286",
    "count_view": 0
  },
  {
    "link_thumb": "https://live.staticflickr.com/65535/49623078737_e12156ab87_n.jpg",
    "id_album": "-1432180061",
    "description": "KAWAII0503202021159",
    "title": "KAWAII0503202021159",
    "link_img": "https://live.staticflickr.com/65535/49623078737_ee4fde345c_o.jpg",
    "id_image": "KAWAII0503202021159",
    "count_view": 0
  },
  {
    "link_thumb": "https://live.staticflickr.com/65535/49622335793_0fb0835dcb_n.jpg",
    "id_album": "-406350429",
    "description": "KAWAII050320202195",
    "title": "KAWAII050320202195",
    "link_img": "https://live.staticflickr.com/65535/49622335793_fb5deaba65_o.jpg",
    "id_image": "KAWAII050320202195",
    "count_view": 0
  },
  {
    "link_thumb": "https://live.staticflickr.com/65535/49742922581_d0b3e956a5_n.jpg",
    "id_album": "-316663319",
    "description": "KAWAII06042021491251",
    "title": "KAWAII06042021491251",
    "link_img": "https://live.staticflickr.com/65535/49742922581_95c1951bc4_o.jpg",
    "id_image": "KAWAII06042021491251",
    "count_view": 0
  },
  {
    "link_thumb": "https://live.staticflickr.com/65535/49742955191_ec5217740a_n.jpg",
    "id_album": "-1431786825",
    "description": "KAWAII06042021491270",
    "title": "KAWAII06042021491270",
    "link_img": "https://live.staticflickr.com/65535/49742955191_f64c7952b5_o.jpg",
    "id_image": "KAWAII06042021491270",
    "count_view": 0
  },
  {
    "link_thumb": "https://live.staticflickr.com/65535/49622827431_3bd790c494_n.jpg",
    "id_album": "-316663319",
    "description": "KAWAII0503202021249",
    "title": "KAWAII0503202021249",
    "link_img": "https://live.staticflickr.com/65535/49622827431_1ff409f254_o.jpg",
    "id_image": "KAWAII0503202021249",
    "count_view": 0
  },
  {
    "link_thumb": "https://live.staticflickr.com/65535/49694402042_b3356c643e_n.jpg",
    "id_album": "1201366373",
    "description": "KAWAII12091830",
    "title": "KAWAII12091830",
    "link_img": "https://live.staticflickr.com/65535/49694402042_887efc8fbe_o.jpg",
    "id_image": "KAWAII12091830",
    "count_view": 0
  },
  {
    "link_thumb": "https://live.staticflickr.com/65535/49743252732_c485ed0a5b_n.jpg",
    "id_album": "-316663319",
    "description": "KAWAII060420214915259",
    "title": "KAWAII060420214915259",
    "link_img": "https://live.staticflickr.com/65535/49743252732_68d6e0a7e8_o.jpg",
    "id_image": "KAWAII060420214915259",
    "count_view": 0
  },
  {
    "link_thumb": "https://live.staticflickr.com/65535/49694115256_2cb04d6c80_n.jpg",
    "id_album": "-643980979",
    "description": "KAWAII170220234611",
    "title": "KAWAII170220234611",
    "link_img": "https://live.staticflickr.com/65535/49694115256_299f262f28_o.jpg",
    "id_image": "KAWAII170220234611",
    "count_view": 0
  },
  {
    "link_thumb": "https://live.staticflickr.com/65535/49548774506_5e5205fcd8_n.jpg",
    "id_album": "-316663319",
    "description": "KAWAII17091856",
    "title": "KAWAII17091856",
    "link_img": "https://live.staticflickr.com/65535/49548774506_33ee29b511_o.jpg",
    "id_image": "KAWAII17091856",
    "count_view": 0
  },
  {
    "link_thumb": "https://live.staticflickr.com/65535/49548761011_a854ffae56_n.jpg",
    "id_album": "-1741487325",
    "description": "KAWAII17091812",
    "title": "KAWAII17091812",
    "link_img": "https://live.staticflickr.com/65535/49548761011_2a9b4eef60_o.jpg",
    "id_image": "KAWAII17091812",
    "count_view": 0
  },
  {
    "link_thumb": "https://live.staticflickr.com/65535/49548836412_02acd675ab_n.jpg",
    "id_album": "-1741487325",
    "description": "KAWAII120918376",
    "title": "KAWAII120918376",
    "link_img": "https://live.staticflickr.com/65535/49548836412_e605c89512_o.jpg",
    "id_image": "KAWAII120918376",
    "count_view": 0
  },
  {
    "link_thumb": "https://live.staticflickr.com/65535/49710288343_35989a4741_n.jpg",
    "id_album": "-1599896063",
    "description": "LITTLEMONK29032012063911",
    "title": "LITTLEMONK29032012063911",
    "link_img": "https://live.staticflickr.com/65535/49710288343_460d3b1dbb_o.jpg",
    "id_image": "LITTLEMONK29032012063911",
    "count_view": 0
  },
  {
    "link_thumb": "https://live.staticflickr.com/65535/49694429272_8f48347926_n.jpg",
    "id_album": "1563362783",
    "description": "KAWAII1209182518022020594",
    "title": "KAWAII1209182518022020594",
    "link_img": "https://live.staticflickr.com/65535/49694429272_744e12888f_o.jpg",
    "id_image": "KAWAII1209182518022020594",
    "count_view": 0
  },
  {
    "link_thumb": "https://live.staticflickr.com/65535/49623116602_110b090b4c_n.jpg",
    "id_album": "-406350429",
    "description": "KAWAII0503202021206",
    "title": "KAWAII0503202021206",
    "link_img": "https://live.staticflickr.com/65535/49623116602_271373667e_o.jpg",
    "id_image": "KAWAII0503202021206",
    "count_view": 0
  },
  {
    "link_thumb": "https://live.staticflickr.com/65535/49548681796_a26cc947ba_n.jpg",
    "id_album": "-422187261",
    "description": "KAWAII1702202236299",
    "title": "KAWAII1702202236299",
    "link_img": "https://live.staticflickr.com/65535/49548681796_cb8451079e_o.jpg",
    "id_image": "KAWAII1702202236299",
    "count_view": 0
  },
  {
    "link_thumb": "https://live.staticflickr.com/65535/49592734571_e7317aa3f2_n.jpg",
    "id_album": "949200594",
    "description": "KAWAII270220235193",
    "title": "KAWAII270220235193",
    "link_img": "https://live.staticflickr.com/65535/49592734571_d36286450a_o.jpg",
    "id_image": "KAWAII270220235193",
    "count_view": 0
  },
  {
    "link_thumb": "https://live.staticflickr.com/65535/49693676418_9c8e1de302_n.jpg",
    "id_album": "-643980979",
    "description": "KAWAII24032022050239",
    "title": "KAWAII24032022050239",
    "link_img": "https://live.staticflickr.com/65535/49693676418_5a3f922bbf_o.jpg",
    "id_image": "KAWAII24032022050239",
    "count_view": 0
  },
  {
    "link_thumb": "https://live.staticflickr.com/65535/49693585133_e5463d6e2c_n.jpg",
    "id_album": "405170427",
    "description": "KAWAII170220223324",
    "title": "KAWAII170220223324",
    "link_img": "https://live.staticflickr.com/65535/49693585133_9a145701e5_o.jpg",
    "id_image": "KAWAII170220223324",
    "count_view": 0
  },
  {
    "link_thumb": "https://live.staticflickr.com/65535/49727786952_77262a7d00_n.jpg",
    "id_album": "-1862561193",
    "description": "KAWAII02042019451490",
    "title": "KAWAII02042019451490",
    "link_img": "https://live.staticflickr.com/65535/49727786952_31e95d88f2_o.jpg",
    "id_image": "KAWAII02042019451490",
    "count_view": 0
  },
  {
    "link_thumb": "https://live.staticflickr.com/65535/49693527958_5451a2d822_n.jpg",
    "id_album": "-643980979",
    "description": "KAWAII0503202021179",
    "title": "KAWAII0503202021179",
    "link_img": "https://live.staticflickr.com/65535/49693527958_ce1a1d65b4_o.jpg",
    "id_image": "KAWAII0503202021179",
    "count_view": 0
  },
  {
    "link_thumb": "https://live.staticflickr.com/65535/49548853587_31b76275ee_n.jpg",
    "id_album": "-1099943053",
    "description": "KAWAII170220223326",
    "title": "KAWAII170220223326",
    "link_img": "https://live.staticflickr.com/65535/49548853587_0dcdd11637_o.jpg",
    "id_image": "KAWAII170220223326",
    "count_view": 0
  },
  {
    "link_thumb": "https://live.staticflickr.com/65535/49742941541_605e14273e_n.jpg",
    "id_album": "-1473448477",
    "description": "KAWAII06042021491725",
    "title": "KAWAII06042021491725",
    "link_img": "https://live.staticflickr.com/65535/49742941541_72682c9681_o.jpg",
    "id_image": "KAWAII06042021491725",
    "count_view": 0
  },
  {
    "link_thumb": "https://live.staticflickr.com/65535/49742408543_f5f39b9b01_n.jpg",
    "id_album": "-1431786825",
    "description": "KAWAII060420214915193",
    "title": "KAWAII060420214915193",
    "link_img": "https://live.staticflickr.com/65535/49742408543_e1cc061ec5_o.jpg",
    "id_image": "KAWAII060420214915193",
    "count_view": 0
  },
  {
    "link_thumb": "https://live.staticflickr.com/65535/49727464601_e44b37d61b_n.jpg",
    "id_album": "1396902986",
    "description": "KAWAII02042019451047",
    "title": "KAWAII02042019451047",
    "link_img": "https://live.staticflickr.com/65535/49727464601_5672fec016_o.jpg",
    "id_image": "KAWAII02042019451047",
    "count_view": 0
  },
  {
    "link_thumb": "https://live.staticflickr.com/65535/49743240962_68aa6de7b9_n.jpg",
    "id_album": "-1432180061",
    "description": "KAWAII06042021491889",
    "title": "KAWAII06042021491889",
    "link_img": "https://live.staticflickr.com/65535/49743240962_2d9f67db5f_o.jpg",
    "id_image": "KAWAII06042021491889",
    "count_view": 0
  },
  {
    "link_thumb": "https://live.staticflickr.com/65535/49548864507_d9e6437c8d_n.jpg",
    "id_album": "431597977",
    "description": "KAWAII170220223455",
    "title": "KAWAII170220223455",
    "link_img": "https://live.staticflickr.com/65535/49548864507_100df156a5_o.jpg",
    "id_image": "KAWAII170220223455",
    "count_view": 0
  },
  {
    "link_thumb": "https://live.staticflickr.com/65535/49743281817_2825112c88_n.jpg",
    "id_album": "1226948986",
    "description": "KAWAII060420214918133",
    "title": "KAWAII060420214918133",
    "link_img": "https://live.staticflickr.com/65535/49743281817_0d8a529dd2_o.jpg",
    "id_image": "KAWAII060420214918133",
    "count_view": 0
  },
  {
    "link_thumb": "https://live.staticflickr.com/65535/49548627951_1abdc4fe57_n.jpg",
    "id_album": "-316663319",
    "description": "KAWAII170220223335",
    "title": "KAWAII170220223335",
    "link_img": "https://live.staticflickr.com/65535/49548627951_b5dc7ff754_o.jpg",
    "id_image": "KAWAII170220223335",
    "count_view": 0
  },
  {
    "link_thumb": "https://live.staticflickr.com/65535/49592730316_ed0a33a677_n.jpg",
    "id_album": "949200594",
    "description": "KAWAII2702202351125",
    "title": "KAWAII2702202351125",
    "link_img": "https://live.staticflickr.com/65535/49592730316_b1b244bfb2_o.jpg",
    "id_image": "KAWAII2702202351125",
    "count_view": 0
  },
  {
    "link_thumb": "https://live.staticflickr.com/65535/49742907191_c80bc106d2_n.jpg",
    "id_album": "-422187261",
    "description": "KAWAII060420214912152",
    "title": "KAWAII060420214912152",
    "link_img": "https://live.staticflickr.com/65535/49742907191_9b5e9d3445_o.jpg",
    "id_image": "KAWAII060420214912152",
    "count_view": 0
  },
  {
    "link_thumb": "https://live.staticflickr.com/65535/49742397923_5400472641_n.jpg",
    "id_album": "-1779286820",
    "description": "KAWAII060420214918235",
    "title": "KAWAII060420214918235",
    "link_img": "https://live.staticflickr.com/65535/49742397923_43c8a44628_o.jpg",
    "id_image": "KAWAII060420214918235",
    "count_view": 0
  },
  {
    "link_thumb": "https://live.staticflickr.com/65535/49694396762_e664b34e90_n.jpg",
    "id_album": "1201366373",
    "description": "KAWAII120918244",
    "title": "KAWAII120918244",
    "link_img": "https://live.staticflickr.com/65535/49694396762_f82715b938_o.jpg",
    "id_image": "KAWAII120918244",
    "count_view": 0
  },
  {
    "link_thumb": "https://live.staticflickr.com/65535/49548214718_71dbf76d31_n.jpg",
    "id_album": "-1099943053",
    "description": "KAWAII1702202238437",
    "title": "KAWAII1702202238437",
    "link_img": "https://live.staticflickr.com/65535/49548214718_d4af29ef99_o.jpg",
    "id_image": "KAWAII1702202238437",
    "count_view": 0
  },
  {
    "link_thumb": "https://live.staticflickr.com/65535/49592975592_8580a8b7c2_n.jpg",
    "id_album": "949200594",
    "description": "KAWAII270220235171",
    "title": "KAWAII270220235171",
    "link_img": "https://live.staticflickr.com/65535/49592975592_fa4d0e2041_o.jpg",
    "id_image": "KAWAII270220235171",
    "count_view": 0
  },
  {
    "link_thumb": "https://live.staticflickr.com/65535/49694070736_42d8ae7b56_n.jpg",
    "id_album": "-643980979",
    "description": "KAWAII0503202021144",
    "title": "KAWAII0503202021144",
    "link_img": "https://live.staticflickr.com/65535/49694070736_3b7f15c311_o.jpg",
    "id_image": "KAWAII0503202021144",
    "count_view": 0
  },
  {
    "link_thumb": "https://live.staticflickr.com/65535/49548146233_188fafd02f_n.jpg",
    "id_album": "-1694302085",
    "description": "KAWAII1702202235127",
    "title": "KAWAII1702202235127",
    "link_img": "https://live.staticflickr.com/65535/49548146233_e99c3e4208_o.jpg",
    "id_image": "KAWAII1702202235127",
    "count_view": 0
  },
  {
    "link_thumb": "https://live.staticflickr.com/65535/49694419002_e65fc5005a_n.jpg",
    "id_album": "-643980979",
    "description": "KAWAII170220234618",
    "title": "KAWAII170220234618",
    "link_img": "https://live.staticflickr.com/65535/49694419002_8ab9b82634_o.jpg",
    "id_image": "KAWAII170220234618",
    "count_view": 0
  },
  {
    "link_thumb": "https://live.staticflickr.com/65535/49592708121_d3b90ed4e7_n.jpg",
    "id_album": "1396902986",
    "description": "KAWAII270220235137",
    "title": "KAWAII270220235137",
    "link_img": "https://live.staticflickr.com/65535/49592708121_c87e16771c_o.jpg",
    "id_image": "KAWAII270220235137",
    "count_view": 0
  },
  {
    "link_thumb": "https://live.staticflickr.com/65535/49743263517_83166ec652_n.jpg",
    "id_album": "-1473448477",
    "description": "KAWAII06042021491574",
    "title": "KAWAII06042021491574",
    "link_img": "https://live.staticflickr.com/65535/49743263517_0ddfb92706_o.jpg",
    "id_image": "KAWAII06042021491574",
    "count_view": 0
  },
  {
    "link_thumb": "https://live.staticflickr.com/65535/49592214838_890bcf4f6d_n.jpg",
    "id_album": "-316663319",
    "description": "KAWAII270220235129",
    "title": "KAWAII270220235129",
    "link_img": "https://live.staticflickr.com/65535/49592214838_713a6a5106_o.jpg",
    "id_image": "KAWAII270220235129",
    "count_view": 0
  },
  {
    "link_thumb": "https://live.staticflickr.com/65535/49726895823_7197f25723_n.jpg",
    "id_album": "742877173",
    "description": "KAWAII02042019450860",
    "title": "KAWAII02042019450860",
    "link_img": "https://live.staticflickr.com/65535/49726895823_b23a068759_o.jpg",
    "id_image": "KAWAII02042019450860",
    "count_view": 0
  },
  {
    "link_thumb": "https://live.staticflickr.com/65535/49742954641_b73e14ecc3_n.jpg",
    "id_album": "-1431786825",
    "description": "KAWAII060420214912321",
    "title": "KAWAII060420214912321",
    "link_img": "https://live.staticflickr.com/65535/49742954641_468d595548_o.jpg",
    "id_image": "KAWAII060420214912321",
    "count_view": 0
  },
  {
    "link_thumb": "https://live.staticflickr.com/65535/49548575331_8576900620_n.jpg",
    "id_album": "-316663319",
    "description": "KAWAII120918231",
    "title": "KAWAII120918231",
    "link_img": "https://live.staticflickr.com/65535/49548575331_cc77fbf7e5_o.jpg",
    "id_image": "KAWAII120918231",
    "count_view": 0
  },
  {
    "link_thumb": "https://live.staticflickr.com/65535/49548771156_3f52ac3eba_n.jpg",
    "id_album": "-316663319",
    "description": "KAWAII17091845",
    "title": "KAWAII17091845",
    "link_img": "https://live.staticflickr.com/65535/49548771156_4ddeb425f3_o.jpg",
    "id_image": "KAWAII17091845",
    "count_view": 0
  },
  {
    "link_thumb": "https://live.staticflickr.com/65535/49742409188_22e72030a2_n.jpg",
    "id_album": "-1431786825",
    "description": "KAWAII060420214917183",
    "title": "KAWAII060420214917183",
    "link_img": "https://live.staticflickr.com/65535/49742409188_e13fbcc783_o.jpg",
    "id_image": "KAWAII060420214917183",
    "count_view": 0
  },
  {
    "link_thumb": "https://live.staticflickr.com/65535/49693562268_2210e22661_n.jpg",
    "id_album": "1201366373",
    "description": "KAWAII12091899",
    "title": "KAWAII12091899",
    "link_img": "https://live.staticflickr.com/65535/49693562268_e18dd1bf79_o.jpg",
    "id_image": "KAWAII12091899",
    "count_view": 0
  },
  {
    "link_thumb": "https://live.staticflickr.com/65535/49726928948_b01828fda9_n.jpg",
    "id_album": "431597977",
    "description": "KAWAII020420194512247",
    "title": "KAWAII020420194512247",
    "link_img": "https://live.staticflickr.com/65535/49726928948_ddd06fd232_o.jpg",
    "id_image": "KAWAII020420194512247",
    "count_view": 0
  },
  {
    "link_thumb": "https://live.staticflickr.com/65535/49548737551_2f086c7e66_n.jpg",
    "id_album": "-422187261",
    "description": "KAWAII1702202239519",
    "title": "KAWAII1702202239519",
    "link_img": "https://live.staticflickr.com/65535/49548737551_38212a738e_o.jpg",
    "id_image": "KAWAII1702202239519",
    "count_view": 0
  },
  {
    "link_thumb": "https://live.staticflickr.com/65535/49694114441_d96d2de253_n.jpg",
    "id_album": "1201366373",
    "description": "KAWAII1702202239573",
    "title": "KAWAII1702202239573",
    "link_img": "https://live.staticflickr.com/65535/49694114441_404a9beed8_o.jpg",
    "id_image": "KAWAII1702202239573",
    "count_view": 0
  },
  {
    "link_thumb": "https://live.staticflickr.com/65535/49727745862_fe5f0d562c_n.jpg",
    "id_album": "-1497779911",
    "description": "KAWAII0503202021189",
    "title": "KAWAII0503202021189",
    "link_img": "https://live.staticflickr.com/65535/49727745862_a8cb1b0243_o.jpg",
    "id_image": "KAWAII0503202021189",
    "count_view": 0
  },
  {
    "link_thumb": "https://live.staticflickr.com/65535/49742354413_6dc8252d9d_n.jpg",
    "id_album": "-1913845949",
    "description": "KAWAII060420214914280",
    "title": "KAWAII060420214914280",
    "link_img": "https://live.staticflickr.com/65535/49742354413_e00fcae2fc_o.jpg",
    "id_image": "KAWAII060420214914280",
    "count_view": 0
  },
  {
    "link_thumb": "https://live.staticflickr.com/65535/49743251342_f5abde3d17_n.jpg",
    "id_album": "-316663319",
    "description": "KAWAII060420214915168",
    "title": "KAWAII060420214915168",
    "link_img": "https://live.staticflickr.com/65535/49743251342_3c5a096da3_o.jpg",
    "id_image": "KAWAII060420214915168",
    "count_view": 0
  },
  {
    "link_thumb": "https://live.staticflickr.com/65535/49693681758_be15069edc_n.jpg",
    "id_album": "-1862561193",
    "description": "KAWAII24032022050266",
    "title": "KAWAII24032022050266",
    "link_img": "https://live.staticflickr.com/65535/49693681758_6d430e3652_o.jpg",
    "id_image": "KAWAII24032022050266",
    "count_view": 0
  },
  {
    "link_thumb": "https://live.staticflickr.com/65535/49693543518_7f415ef2a6_n.jpg",
    "id_album": "1201366373",
    "description": "KAWAII120918174",
    "title": "KAWAII120918174",
    "link_img": "https://live.staticflickr.com/65535/49693543518_017f9c514a_o.jpg",
    "id_image": "KAWAII120918174",
    "count_view": 0
  },
  {
    "link_thumb": "https://live.staticflickr.com/65535/49743260607_18448666e8_n.jpg",
    "id_album": "-1473448477",
    "description": "KAWAII060420214915228",
    "title": "KAWAII060420214915228",
    "link_img": "https://live.staticflickr.com/65535/49743260607_b7e23e9d31_o.jpg",
    "id_image": "KAWAII060420214915228",
    "count_view": 0
  },
  {
    "link_thumb": "https://live.staticflickr.com/65535/49743236517_585777528f_n.jpg",
    "id_album": "-1741487325",
    "description": "KAWAII060420214918140",
    "title": "KAWAII060420214918140",
    "link_img": "https://live.staticflickr.com/65535/49743236517_c67a517862_o.jpg",
    "id_image": "KAWAII060420214918140",
    "count_view": 0
  },
  {
    "link_thumb": "https://live.staticflickr.com/65535/49694387352_27923845d9_n.jpg",
    "id_album": "1201366373",
    "description": "KAWAII120918153",
    "title": "KAWAII120918153",
    "link_img": "https://live.staticflickr.com/65535/49694387352_611f10838a_o.jpg",
    "id_image": "KAWAII120918153",
    "count_view": 0
  },
  {
    "link_thumb": "https://live.staticflickr.com/65535/49693559363_a9940126b2_n.jpg",
    "id_album": "1201366373",
    "description": "KAWAII12091847",
    "title": "KAWAII12091847",
    "link_img": "https://live.staticflickr.com/65535/49693559363_9714b1daf8_o.jpg",
    "id_image": "KAWAII12091847",
    "count_view": 0
  },
  {
    "link_thumb": "https://live.staticflickr.com/65535/49742403943_8f329e56f9_n.jpg",
    "id_album": "-1862561193",
    "description": "KAWAII0604202149145",
    "title": "KAWAII0604202149145",
    "link_img": "https://live.staticflickr.com/65535/49742403943_b30a019b05_o.jpg",
    "id_image": "KAWAII0604202149145",
    "count_view": 0
  },
  {
    "link_thumb": "https://live.staticflickr.com/65535/49726917798_4ee746e417_n.jpg",
    "id_album": "1396902986",
    "description": "KAWAII02042019451145",
    "title": "KAWAII02042019451145",
    "link_img": "https://live.staticflickr.com/65535/49726917798_a2127fae77_o.jpg",
    "id_image": "KAWAII02042019451145",
    "count_view": 0
  },
  {
    "link_thumb": "https://live.staticflickr.com/65535/49693540278_b933210b26_n.jpg",
    "id_album": "1201366373",
    "description": "KAWAII120918145",
    "title": "KAWAII120918145",
    "link_img": "https://live.staticflickr.com/65535/49693540278_94af89bb91_o.jpg",
    "id_image": "KAWAII120918145",
    "count_view": 0
  },
  {
    "link_thumb": "https://live.staticflickr.com/65535/49548107723_a6803ce39d_n.jpg",
    "id_album": "-422187261",
    "description": "KAWAII12091839",
    "title": "KAWAII12091839",
    "link_img": "https://live.staticflickr.com/65535/49548107723_3fc0b3dfa7_o.jpg",
    "id_image": "KAWAII12091839",
    "count_view": 0
  },
  {
    "link_thumb": "https://live.staticflickr.com/65535/49727453971_8255094961_n.jpg",
    "id_album": "742877173",
    "description": "KAWAII02042019451497",
    "title": "KAWAII02042019451497",
    "link_img": "https://live.staticflickr.com/65535/49727453971_f333015350_o.jpg",
    "id_image": "KAWAII02042019451497",
    "count_view": 0
  },
  {
    "link_thumb": "https://live.staticflickr.com/65535/49742389923_e272274913_n.jpg",
    "id_album": "-1473448477",
    "description": "KAWAII060420214915240",
    "title": "KAWAII060420214915240",
    "link_img": "https://live.staticflickr.com/65535/49742389923_3c886ac146_o.jpg",
    "id_image": "KAWAII060420214915240",
    "count_view": 0
  },
  {
    "link_thumb": "https://live.staticflickr.com/65535/49693681963_54f345268e_n.jpg",
    "id_album": "46674803",
    "description": "KAWAII24032022050224",
    "title": "KAWAII24032022050224",
    "link_img": "https://live.staticflickr.com/65535/49693681963_82e07e92be_o.jpg",
    "id_image": "KAWAII24032022050224",
    "count_view": 0
  },
  {
    "link_thumb": "https://live.staticflickr.com/65535/49742395988_a59f5d3f3d_n.jpg",
    "id_album": "-1779286820",
    "description": "KAWAII060420214914257",
    "title": "KAWAII060420214914257",
    "link_img": "https://live.staticflickr.com/65535/49742395988_e3017805e1_o.jpg",
    "id_image": "KAWAII060420214914257",
    "count_view": 0
  },
  {
    "link_thumb": "https://live.staticflickr.com/65535/49578248238_c02e450583_n.jpg",
    "id_album": "-1099943053",
    "description": "KAWAII19022021116",
    "title": "KAWAII19022021116",
    "link_img": "https://live.staticflickr.com/65535/49578248238_266350c32d_o.jpg",
    "id_image": "KAWAII19022021116",
    "count_view": 0
  },
  {
    "link_thumb": "https://live.staticflickr.com/65535/49622334648_8e2060c468_n.jpg",
    "id_album": "-406350429",
    "description": "KAWAII050320202169",
    "title": "KAWAII050320202169",
    "link_img": "https://live.staticflickr.com/65535/49622334648_69137388a7_o.jpg",
    "id_image": "KAWAII050320202169",
    "count_view": 0
  },
  {
    "link_thumb": "https://live.staticflickr.com/65535/49727474271_07d32936da_n.jpg",
    "id_album": "1563362783",
    "description": "KAWAII1702202237328",
    "title": "KAWAII1702202237328",
    "link_img": "https://live.staticflickr.com/65535/49727474271_1ab324c88b_o.jpg",
    "id_image": "KAWAII1702202237328",
    "count_view": 0
  },
  {
    "link_thumb": "https://live.staticflickr.com/65535/49742901901_b734d0d065_n.jpg",
    "id_album": "-1913845949",
    "description": "KAWAII06042021491348",
    "title": "KAWAII06042021491348",
    "link_img": "https://live.staticflickr.com/65535/49742901901_d8d816ca1b_o.jpg",
    "id_image": "KAWAII06042021491348",
    "count_view": 0
  },
  {
    "link_thumb": "https://live.staticflickr.com/65535/49548645296_9dcffe9684_n.jpg",
    "id_album": "-1432180061",
    "description": "KAWAII170220223492",
    "title": "KAWAII170220223492",
    "link_img": "https://live.staticflickr.com/65535/49548645296_0a4dc82c12_o.jpg",
    "id_image": "KAWAII170220223492",
    "count_view": 0
  },
  {
    "link_thumb": "https://live.staticflickr.com/65535/49622286478_3e670975d2_n.jpg",
    "id_album": "1396902986",
    "description": "KAWAII0503202021217",
    "title": "KAWAII0503202021217",
    "link_img": "https://live.staticflickr.com/65535/49622286478_b504a41004_o.jpg",
    "id_image": "KAWAII0503202021217",
    "count_view": 0
  },
  {
    "link_thumb": "https://live.staticflickr.com/65535/49552022683_2c3037ec3c_n.jpg",
    "id_album": "431597977",
    "description": "KAWAII1209182518022020593",
    "title": "KAWAII1209182518022020593",
    "link_img": "https://live.staticflickr.com/65535/49552022683_e8585838e2_o.jpg",
    "id_image": "KAWAII1209182518022020593",
    "count_view": 0
  }
]