[
  {
    "link_thumb": "https://live.staticflickr.com/65535/49694110991_1c3a41c632_n.jpg",
    "id_album": "-643980979",
    "description": "KAWAII1702202237374",
    "title": "KAWAII1702202237374",
    "link_img": "https://live.staticflickr.com/65535/49694110991_6fd8867659_o.jpg",
    "id_image": "KAWAII1702202237374",
    "count_view": 0
  },
  {
    "link_thumb": "https://live.staticflickr.com/65535/49694378392_d94a66076d_n.jpg",
    "id_album": "-643980979",
    "description": "KAWAII050320202136",
    "title": "KAWAII050320202136",
    "link_img": "https://live.staticflickr.com/65535/49694378392_9321ddde90_o.jpg",
    "id_image": "KAWAII050320202136",
    "count_view": 0
  },
  {
    "link_thumb": "https://live.staticflickr.com/65535/49622805916_8b212f9d03_n.jpg",
    "id_album": "-1741487325",
    "description": "KAWAII050320202112",
    "title": "KAWAII050320202112",
    "link_img": "https://live.staticflickr.com/65535/49622805916_76f712a3f8_o.jpg",
    "id_image": "KAWAII050320202112",
    "count_view": 0
  },
  {
    "link_thumb": "https://live.staticflickr.com/65535/49694412777_2edfee1cdb_n.jpg",
    "id_album": "-643980979",
    "description": "KAWAII1702202236290",
    "title": "KAWAII1702202236290",
    "link_img": "https://live.staticflickr.com/65535/49694412777_7acf31a874_o.jpg",
    "id_image": "KAWAII1702202236290",
    "count_view": 0
  },
  {
    "link_thumb": "https://live.staticflickr.com/65535/49548925197_9c7158b9c0_n.jpg",
    "id_album": "-316663319",
    "description": "KAWAII1702202237368",
    "title": "KAWAII1702202237368",
    "link_img": "https://live.staticflickr.com/65535/49548925197_f0ba9aa5b0_o.jpg",
    "id_image": "KAWAII1702202237368",
    "count_view": 0
  },
  {
    "link_thumb": "https://live.staticflickr.com/65535/49548274513_407c2b8a2f_n.jpg",
    "id_album": "949200594",
    "description": "KAWAII17091857",
    "title": "KAWAII17091857",
    "link_img": "https://live.staticflickr.com/65535/49548274513_201e71fcd3_o.jpg",
    "id_image": "KAWAII17091857",
    "count_view": 0
  },
  {
    "link_thumb": "https://live.staticflickr.com/65535/49548178683_c280d6555e_n.jpg",
    "id_album": "1396902986",
    "description": "KAWAII1702202236288",
    "title": "KAWAII1702202236288",
    "link_img": "https://live.staticflickr.com/65535/49548178683_ec0acac767_o.jpg",
    "id_image": "KAWAII1702202236288",
    "count_view": 0
  },
  {
    "link_thumb": "https://live.staticflickr.com/65535/49622329373_ee5b1507ff_n.jpg",
    "id_album": "-406350429",
    "description": "KAWAII0503202021196",
    "title": "KAWAII0503202021196",
    "link_img": "https://live.staticflickr.com/65535/49622329373_3d1c00cf08_o.jpg",
    "id_image": "KAWAII0503202021196",
    "count_view": 0
  },
  {
    "link_thumb": "https://live.staticflickr.com/65535/49592230628_c6e755e674_n.jpg",
    "id_album": "949200594",
    "description": "KAWAII270220235176",
    "title": "KAWAII270220235176",
    "link_img": "https://live.staticflickr.com/65535/49592230628_149dc42680_o.jpg",
    "id_image": "KAWAII270220235176",
    "count_view": 0
  },
  {
    "link_thumb": "https://live.staticflickr.com/65535/49727433661_9a7b17c68b_n.jpg",
    "id_album": "-1497779911",
    "description": "KAWAII120918274",
    "title": "KAWAII120918274",
    "link_img": "https://live.staticflickr.com/65535/49727433661_6a4aa19005_o.jpg",
    "id_image": "KAWAII120918274",
    "count_view": 0
  },
  {
    "link_thumb": "https://live.staticflickr.com/65535/49693530168_bb9c66d336_n.jpg",
    "id_album": "-643980979",
    "description": "KAWAII0503202021265",
    "title": "KAWAII0503202021265",
    "link_img": "https://live.staticflickr.com/65535/49693530168_ccdea627fe_o.jpg",
    "id_image": "KAWAII0503202021265",
    "count_view": 0
  },
  {
    "link_thumb": "https://live.staticflickr.com/65535/49694400712_56391747d5_n.jpg",
    "id_album": "1201366373",
    "description": "KAWAII120918277",
    "title": "KAWAII120918277",
    "link_img": "https://live.staticflickr.com/65535/49694400712_8c7d1ee6bb_o.jpg",
    "id_image": "KAWAII120918277",
    "count_view": 0
  },
  {
    "link_thumb": "https://live.staticflickr.com/65535/49693540278_b933210b26_n.jpg",
    "id_album": "1201366373",
    "description": "KAWAII120918145",
    "title": "KAWAII120918145",
    "link_img": "https://live.staticflickr.com/65535/49693540278_94af89bb91_o.jpg",
    "id_image": "KAWAII120918145",
    "count_view": 0
  },
  {
    "link_thumb": "https://live.staticflickr.com/65535/49622828946_a3ec03670c_n.jpg",
    "id_album": "-316663319",
    "description": "KAWAII0503202021276",
    "title": "KAWAII0503202021276",
    "link_img": "https://live.staticflickr.com/65535/49622828946_b9f0ca563d_o.jpg",
    "id_image": "KAWAII0503202021276",
    "count_view": 0
  },
  {
    "link_thumb": "https://live.staticflickr.com/65535/49693551533_3204e11952_n.jpg",
    "id_album": "1201366373",
    "description": "KAWAII120918247",
    "title": "KAWAII120918247",
    "link_img": "https://live.staticflickr.com/65535/49693551533_e00c35ceea_o.jpg",
    "id_image": "KAWAII120918247",
    "count_view": 0
  },
  {
    "link_thumb": "https://live.staticflickr.com/65535/49726901483_c516a361ae_n.jpg",
    "id_album": "742877173",
    "description": "KAWAII020420194512151",
    "title": "KAWAII020420194512151",
    "link_img": "https://live.staticflickr.com/65535/49726901483_e39374deff_o.jpg",
    "id_image": "KAWAII020420194512151",
    "count_view": 0
  },
  {
    "link_thumb": "https://live.staticflickr.com/65535/49548904132_d7952a7245_n.jpg",
    "id_album": "-1432180061",
    "description": "KAWAII1702202236274",
    "title": "KAWAII1702202236274",
    "link_img": "https://live.staticflickr.com/65535/49548904132_0e885dabcf_o.jpg",
    "id_image": "KAWAII1702202236274",
    "count_view": 0
  },
  {
    "link_thumb": "https://live.staticflickr.com/65535/49548993507_d5f98f1ded_n.jpg",
    "id_album": "-1741487325",
    "description": "KAWAII1709183",
    "title": "KAWAII1709183",
    "link_img": "https://live.staticflickr.com/65535/49548993507_a7333853ac_o.jpg",
    "id_image": "KAWAII1709183",
    "count_view": 0
  },
  {
    "link_thumb": "https://live.staticflickr.com/65535/49548056578_4ebb66f297_n.jpg",
    "id_album": "-1741487325",
    "description": "KAWAII120918159",
    "title": "KAWAII120918159",
    "link_img": "https://live.staticflickr.com/65535/49548056578_89ae5d8390_o.jpg",
    "id_image": "KAWAII120918159",
    "count_view": 0
  },
  {
    "link_thumb": "https://live.staticflickr.com/65535/49548704591_00653c5e83_n.jpg",
    "id_album": "-1741487325",
    "description": "KAWAII1702202237397",
    "title": "KAWAII1702202237397",
    "link_img": "https://live.staticflickr.com/65535/49548704591_e08e358b04_o.jpg",
    "id_image": "KAWAII1702202237397",
    "count_view": 0
  },
  {
    "link_thumb": "https://live.staticflickr.com/65535/49726888268_378c11866f_n.jpg",
    "id_album": "-316663319",
    "description": "KAWAII020420194507136",
    "title": "KAWAII020420194507136",
    "link_img": "https://live.staticflickr.com/65535/49726888268_6343a99482_o.jpg",
    "id_image": "KAWAII020420194507136",
    "count_view": 0
  },
  {
    "link_thumb": "https://live.staticflickr.com/65535/49623101327_a4ea561390_n.jpg",
    "id_album": "-316663319",
    "description": "KAWAII0503202021283",
    "title": "KAWAII0503202021283",
    "link_img": "https://live.staticflickr.com/65535/49623101327_b84e9853b2_o.jpg",
    "id_image": "KAWAII0503202021283",
    "count_view": 0
  },
  {
    "link_thumb": "https://live.staticflickr.com/65535/49622289598_80c7699f69_n.jpg",
    "id_album": "1396902986",
    "description": "KAWAII050320202159",
    "title": "KAWAII050320202159",
    "link_img": "https://live.staticflickr.com/65535/49622289598_97aba19210_o.jpg",
    "id_image": "KAWAII050320202159",
    "count_view": 0
  },
  {
    "link_thumb": "https://live.staticflickr.com/65535/49727452366_a4211e3486_n.jpg",
    "id_album": "742877173",
    "description": "KAWAII020420194514200",
    "title": "KAWAII020420194514200",
    "link_img": "https://live.staticflickr.com/65535/49727452366_78405656a3_o.jpg",
    "id_image": "KAWAII020420194514200",
    "count_view": 0
  },
  {
    "link_thumb": "https://live.staticflickr.com/65535/49623115017_ddf91e3224_n.jpg",
    "id_album": "-406350429",
    "description": "KAWAII0503202021149",
    "title": "KAWAII0503202021149",
    "link_img": "https://live.staticflickr.com/65535/49623115017_21835e7cd3_o.jpg",
    "id_image": "KAWAII0503202021149",
    "count_view": 0
  },
  {
    "link_thumb": "https://live.staticflickr.com/65535/49622802611_b07e2b1953_n.jpg",
    "id_album": "1396902986",
    "description": "KAWAII0503202021257",
    "title": "KAWAII0503202021257",
    "link_img": "https://live.staticflickr.com/65535/49622802611_93a828d3ae_o.jpg",
    "id_image": "KAWAII0503202021257",
    "count_view": 0
  },
  {
    "link_thumb": "https://live.staticflickr.com/65535/49592716031_e0d6182500_n.jpg",
    "id_album": "-316663319",
    "description": "KAWAII2702202351153",
    "title": "KAWAII2702202351153",
    "link_img": "https://live.staticflickr.com/65535/49592716031_f22e33cbe3_o.jpg",
    "id_image": "KAWAII2702202351153",
    "count_view": 0
  },
  {
    "link_thumb": "https://live.staticflickr.com/65535/49694522697_6334960ba2_n.jpg",
    "id_album": "-643980979",
    "description": "KAWAII24032022050234",
    "title": "KAWAII24032022050234",
    "link_img": "https://live.staticflickr.com/65535/49694522697_71a3a9111e_o.jpg",
    "id_image": "KAWAII24032022050234",
    "count_view": 0
  },
  {
    "link_thumb": "https://live.staticflickr.com/65535/49622334453_e7acc9cfeb_n.jpg",
    "id_album": "-406350429",
    "description": "KAWAII050320202160",
    "title": "KAWAII050320202160",
    "link_img": "https://live.staticflickr.com/65535/49622334453_db673f5e89_o.jpg",
    "id_image": "KAWAII050320202160",
    "count_view": 0
  },
  {
    "link_thumb": "https://live.staticflickr.com/65535/49592956927_6b707f4644_n.jpg",
    "id_album": "-316663319",
    "description": "KAWAII2702202351130",
    "title": "KAWAII2702202351130",
    "link_img": "https://live.staticflickr.com/65535/49592956927_b063070251_o.jpg",
    "id_image": "KAWAII2702202351130",
    "count_view": 0
  },
  {
    "link_thumb": "https://live.staticflickr.com/65535/49548608146_9fe9c57e70_n.jpg",
    "id_album": "-1741487325",
    "description": "KAWAII120918373",
    "title": "KAWAII120918373",
    "link_img": "https://live.staticflickr.com/65535/49548608146_ba1314391a_o.jpg",
    "id_image": "KAWAII120918373",
    "count_view": 0
  },
  {
    "link_thumb": "https://live.staticflickr.com/65535/49592977222_f58e952b9d_n.jpg",
    "id_album": "-1431786825",
    "description": "KAWAII270220235120",
    "title": "KAWAII270220235120",
    "link_img": "https://live.staticflickr.com/65535/49592977222_7328a342df_o.jpg",
    "id_image": "KAWAII270220235120",
    "count_view": 0
  },
  {
    "link_thumb": "https://live.staticflickr.com/65535/49743244182_a033f0a672_n.jpg",
    "id_album": "-316663319",
    "description": "KAWAII060420214912107",
    "title": "KAWAII060420214912107",
    "link_img": "https://live.staticflickr.com/65535/49743244182_71f8f98f08_o.jpg",
    "id_image": "KAWAII060420214912107",
    "count_view": 0
  },
  {
    "link_thumb": "https://live.staticflickr.com/65535/49694418432_bbcce21390_n.jpg",
    "id_album": "-643980979",
    "description": "KAWAII170220234615",
    "title": "KAWAII170220234615",
    "link_img": "https://live.staticflickr.com/65535/49694418432_8fa6f8d931_o.jpg",
    "id_image": "KAWAII170220234615",
    "count_view": 0
  },
  {
    "link_thumb": "https://live.staticflickr.com/65535/49727453971_8255094961_n.jpg",
    "id_album": "742877173",
    "description": "KAWAII02042019451497",
    "title": "KAWAII02042019451497",
    "link_img": "https://live.staticflickr.com/65535/49727453971_f333015350_o.jpg",
    "id_image": "KAWAII02042019451497",
    "count_view": 0
  },
  {
    "link_thumb": "https://live.staticflickr.com/65535/49742906736_e96c174ea1_n.jpg",
    "id_album": "1699819648",
    "description": "KAWAII060420214914299",
    "title": "KAWAII060420214914299",
    "link_img": "https://live.staticflickr.com/65535/49742906736_034e0f4e56_o.jpg",
    "id_image": "KAWAII060420214914299",
    "count_view": 0
  },
  {
    "link_thumb": "https://live.staticflickr.com/65535/49694064926_e7c66077c3_n.jpg",
    "id_album": "1699819648",
    "description": "KAWAII0503202021297",
    "title": "KAWAII0503202021297",
    "link_img": "https://live.staticflickr.com/65535/49694064926_6c9622cecc_o.jpg",
    "id_image": "KAWAII0503202021297",
    "count_view": 0
  },
  {
    "link_thumb": "https://live.staticflickr.com/65535/49693574928_79d3589446_n.jpg",
    "id_album": "-643980979",
    "description": "KAWAII17022023467",
    "title": "KAWAII17022023467",
    "link_img": "https://live.staticflickr.com/65535/49693574928_f5cb637a76_o.jpg",
    "id_image": "KAWAII17022023467",
    "count_view": 0
  },
  {
    "link_thumb": "https://live.staticflickr.com/65535/49727434201_b958ba799d_n.jpg",
    "id_album": "-1497779911",
    "description": "KAWAII12091873",
    "title": "KAWAII12091873",
    "link_img": "https://live.staticflickr.com/65535/49727434201_26f90b0b2a_o.jpg",
    "id_image": "KAWAII12091873",
    "count_view": 0
  },
  {
    "link_thumb": "https://live.staticflickr.com/65535/49742406163_cc276c784d_n.jpg",
    "id_album": "-1431786825",
    "description": "KAWAII060420214912210",
    "title": "KAWAII060420214912210",
    "link_img": "https://live.staticflickr.com/65535/49742406163_ba45b9011d_o.jpg",
    "id_image": "KAWAII060420214912210",
    "count_view": 0
  },
  {
    "link_thumb": "https://live.staticflickr.com/65535/49694083526_00a9cdf340_n.jpg",
    "id_album": "1201366373",
    "description": "KAWAII120918135",
    "title": "KAWAII120918135",
    "link_img": "https://live.staticflickr.com/65535/49694083526_3f7a46c882_o.jpg",
    "id_image": "KAWAII120918135",
    "count_view": 0
  },
  {
    "link_thumb": "https://live.staticflickr.com/65535/49742356068_9a5b2b97e1_n.jpg",
    "id_album": "-1913845949",
    "description": "KAWAII060420214915285",
    "title": "KAWAII060420214915285",
    "link_img": "https://live.staticflickr.com/65535/49742356068_001339ef2a_o.jpg",
    "id_image": "KAWAII060420214915285",
    "count_view": 0
  },
  {
    "link_thumb": "https://live.staticflickr.com/65535/49694526187_c1cb44a107_n.jpg",
    "id_album": "-406350429",
    "description": "KAWAII270220235188",
    "title": "KAWAII270220235188",
    "link_img": "https://live.staticflickr.com/65535/49694526187_0d229d72ef_o.jpg",
    "id_image": "KAWAII270220235188",
    "count_view": 0
  },
  {
    "link_thumb": "https://live.staticflickr.com/65535/49694387482_6e6cd0b89a_n.jpg",
    "id_album": "1201366373",
    "description": "KAWAII120918156",
    "title": "KAWAII120918156",
    "link_img": "https://live.staticflickr.com/65535/49694387482_748bc789cc_o.jpg",
    "id_image": "KAWAII120918156",
    "count_view": 0
  },
  {
    "link_thumb": "https://live.staticflickr.com/65535/49726894163_b411a85f1f_n.jpg",
    "id_album": "742877173",
    "description": "KAWAII020420194508123",
    "title": "KAWAII020420194508123",
    "link_img": "https://live.staticflickr.com/65535/49726894163_5942702466_o.jpg",
    "id_image": "KAWAII020420194508123",
    "count_view": 0
  },
  {
    "link_thumb": "https://live.staticflickr.com/65535/49711146947_2b7b494f19_n.jpg",
    "id_album": "-1599896063",
    "description": "LITTLEMONK29032012064226",
    "title": "LITTLEMONK29032012064226",
    "link_img": "https://live.staticflickr.com/65535/49711146947_1ee772217a_o.jpg",
    "id_image": "LITTLEMONK29032012064226",
    "count_view": 0
  },
  {
    "link_thumb": "https://live.staticflickr.com/65535/49694220881_4301aa3dea_n.jpg",
    "id_album": "-1432180061",
    "description": "KAWAII1702202237315",
    "title": "KAWAII1702202237315",
    "link_img": "https://live.staticflickr.com/65535/49694220881_2fa35d596c_o.jpg",
    "id_image": "KAWAII1702202237315",
    "count_view": 0
  },
  {
    "link_thumb": "https://live.staticflickr.com/65535/49727738072_e0b319797c_n.jpg",
    "id_album": "-1694302085",
    "description": "KAWAII020420194508100",
    "title": "KAWAII020420194508100",
    "link_img": "https://live.staticflickr.com/65535/49727738072_5cb5e421e0_o.jpg",
    "id_image": "KAWAII020420194508100",
    "count_view": 0
  },
  {
    "link_thumb": "https://live.staticflickr.com/65535/49592209938_f62c424820_n.jpg",
    "id_album": "-1432180061",
    "description": "KAWAII270220235185",
    "title": "KAWAII270220235185",
    "link_img": "https://live.staticflickr.com/65535/49592209938_780f1ea26a_o.jpg",
    "id_image": "KAWAII270220235185",
    "count_view": 0
  },
  {
    "link_thumb": "https://live.staticflickr.com/65535/49623098177_593ccafa87_n.jpg",
    "id_album": "-316663319",
    "description": "KAWAII0503202021239",
    "title": "KAWAII0503202021239",
    "link_img": "https://live.staticflickr.com/65535/49623098177_df7a844bd6_o.jpg",
    "id_image": "KAWAII0503202021239",
    "count_view": 0
  },
  {
    "link_thumb": "https://live.staticflickr.com/65535/49548247368_c984c30ec9_n.jpg",
    "id_album": "1396902986",
    "description": "KAWAII1702202239560",
    "title": "KAWAII1702202239560",
    "link_img": "https://live.staticflickr.com/65535/49548247368_84baf8d586_o.jpg",
    "id_image": "KAWAII1702202239560",
    "count_view": 0
  },
  {
    "link_thumb": "https://live.staticflickr.com/65535/49694229501_481ee8738a_n.jpg",
    "id_album": "1226948986",
    "description": "KAWAII2403202205026",
    "title": "KAWAII2403202205026",
    "link_img": "https://live.staticflickr.com/65535/49694229501_6240dacd6f_o.jpg",
    "id_image": "KAWAII2403202205026",
    "count_view": 0
  },
  {
    "link_thumb": "https://live.staticflickr.com/65535/49743253067_585dfdc469_n.jpg",
    "id_album": "-316663319",
    "description": "KAWAII060420214915301",
    "title": "KAWAII060420214915301",
    "link_img": "https://live.staticflickr.com/65535/49743253067_6eea8fa353_o.jpg",
    "id_image": "KAWAII060420214915301",
    "count_view": 0
  },
  {
    "link_thumb": "https://live.staticflickr.com/65535/49548866597_0cfb98f563_n.jpg",
    "id_album": "-316663319",
    "description": "KAWAII170220223464",
    "title": "KAWAII170220223464",
    "link_img": "https://live.staticflickr.com/65535/49548866597_a1088b00c9_o.jpg",
    "id_image": "KAWAII170220223464",
    "count_view": 0
  },
  {
    "link_thumb": "https://live.staticflickr.com/65535/49694400207_221b958100_n.jpg",
    "id_album": "1201366373",
    "description": "KAWAII120918272",
    "title": "KAWAII120918272",
    "link_img": "https://live.staticflickr.com/65535/49694400207_0a7b2cc9b0_o.jpg",
    "id_image": "KAWAII120918272",
    "count_view": 0
  },
  {
    "link_thumb": "https://live.staticflickr.com/65535/49548577646_2773c3c0fa_n.jpg",
    "id_album": "-316663319",
    "description": "KAWAII120918245",
    "title": "KAWAII120918245",
    "link_img": "https://live.staticflickr.com/65535/49548577646_e55c07aff1_o.jpg",
    "id_image": "KAWAII120918245",
    "count_view": 0
  },
  {
    "link_thumb": "https://live.staticflickr.com/65535/49548180778_6e380c3a9f_n.jpg",
    "id_album": "-1432180061",
    "description": "KAWAII1702202236298",
    "title": "KAWAII1702202236298",
    "link_img": "https://live.staticflickr.com/65535/49548180778_5d7d573817_o.jpg",
    "id_image": "KAWAII1702202236298",
    "count_view": 0
  },
  {
    "link_thumb": "https://live.staticflickr.com/65535/49693548538_9dba595413_n.jpg",
    "id_album": "1201366373",
    "description": "KAWAII12091822",
    "title": "KAWAII12091822",
    "link_img": "https://live.staticflickr.com/65535/49693548538_28b68d2128_o.jpg",
    "id_image": "KAWAII12091822",
    "count_view": 0
  },
  {
    "link_thumb": "https://live.staticflickr.com/65535/49726918223_14efc09ef8_n.jpg",
    "id_album": "1396902986",
    "description": "KAWAII1702202237334",
    "title": "KAWAII1702202237334",
    "link_img": "https://live.staticflickr.com/65535/49726918223_fe3aa519d5_o.jpg",
    "id_image": "KAWAII1702202237334",
    "count_view": 0
  },
  {
    "link_thumb": "https://live.staticflickr.com/65535/49592729676_51ee2d2792_n.jpg",
    "id_album": "949200594",
    "description": "KAWAII2702202351121",
    "title": "KAWAII2702202351121",
    "link_img": "https://live.staticflickr.com/65535/49592729676_4bae3275f4_o.jpg",
    "id_image": "KAWAII2702202351121",
    "count_view": 0
  },
  {
    "link_thumb": "https://live.staticflickr.com/65535/49743240127_a27ab55489_n.jpg",
    "id_album": "-643980979",
    "description": "KAWAII060420214915151",
    "title": "KAWAII060420214915151",
    "link_img": "https://live.staticflickr.com/65535/49743240127_0e1c01ba4a_o.jpg",
    "id_image": "KAWAII060420214915151",
    "count_view": 0
  },
  {
    "link_thumb": "https://live.staticflickr.com/65535/49548045533_0e77f46a71_n.jpg",
    "id_album": "-422187261",
    "description": "KAWAII120918114",
    "title": "KAWAII120918114",
    "link_img": "https://live.staticflickr.com/65535/49548045533_09119d7bc6_o.jpg",
    "id_image": "KAWAII120918114",
    "count_view": 0
  },
  {
    "link_thumb": "https://live.staticflickr.com/65535/49727441211_3a0d701017_n.jpg",
    "id_album": "742877173",
    "description": "KAWAII020420194508105",
    "title": "KAWAII020420194508105",
    "link_img": "https://live.staticflickr.com/65535/49727441211_8f9d2e417f_o.jpg",
    "id_image": "KAWAII020420194508105",
    "count_view": 0
  },
  {
    "link_thumb": "https://live.staticflickr.com/65535/49726916708_7e4a7f8d8c_n.jpg",
    "id_album": "1201366373",
    "description": "KAWAII120918300",
    "title": "KAWAII120918300",
    "link_img": "https://live.staticflickr.com/65535/49726916708_d4a00a2a6a_o.jpg",
    "id_image": "KAWAII120918300",
    "count_view": 0
  },
  {
    "link_thumb": "https://live.staticflickr.com/65535/49727442071_a7c0d8a3f0_n.jpg",
    "id_album": "742877173",
    "description": "KAWAII020420194508171",
    "title": "KAWAII020420194508171",
    "link_img": "https://live.staticflickr.com/65535/49727442071_7a61685d45_o.jpg",
    "id_image": "KAWAII020420194508171",
    "count_view": 0
  },
  {
    "link_thumb": "https://live.staticflickr.com/65535/49742409188_22e72030a2_n.jpg",
    "id_album": "-1431786825",
    "description": "KAWAII060420214917183",
    "title": "KAWAII060420214917183",
    "link_img": "https://live.staticflickr.com/65535/49742409188_e13fbcc783_o.jpg",
    "id_image": "KAWAII060420214917183",
    "count_view": 0
  },
  {
    "link_thumb": "https://live.staticflickr.com/65535/49742356873_a75b1528ac_n.jpg",
    "id_album": "-1913845949",
    "description": "KAWAII06042021491565",
    "title": "KAWAII06042021491565",
    "link_img": "https://live.staticflickr.com/65535/49742356873_ab7a02cb9b_o.jpg",
    "id_image": "KAWAII06042021491565",
    "count_view": 0
  },
  {
    "link_thumb": "https://live.staticflickr.com/65535/49743268247_7e9591e74a_n.jpg",
    "id_album": "-1779286820",
    "description": "KAWAII060420214916207",
    "title": "KAWAII060420214916207",
    "link_img": "https://live.staticflickr.com/65535/49743268247_0a5aa914a6_o.jpg",
    "id_image": "KAWAII060420214916207",
    "count_view": 0
  },
  {
    "link_thumb": "https://live.staticflickr.com/65535/49548910507_30b6984d2f_n.jpg",
    "id_album": "-316663319",
    "description": "KAWAII1702202236304",
    "title": "KAWAII1702202236304",
    "link_img": "https://live.staticflickr.com/65535/49548910507_619db8d005_o.jpg",
    "id_image": "KAWAII1702202236304",
    "count_view": 0
  },
  {
    "link_thumb": "https://live.staticflickr.com/65535/49693587498_ae99d125d9_n.jpg",
    "id_album": "1226948986",
    "description": "TOTORO22032015428",
    "title": "TOTORO22032015428",
    "link_img": "https://live.staticflickr.com/65535/49693587498_8001c33ca7_o.jpg",
    "id_image": "TOTORO22032015428",
    "count_view": 0
  },
  {
    "link_thumb": "https://live.staticflickr.com/65535/49694224271_5cd931b908_n.jpg",
    "id_album": "-1862561193",
    "description": "KAWAII24032022050161",
    "title": "KAWAII24032022050161",
    "link_img": "https://live.staticflickr.com/65535/49694224271_c277df7afc_o.jpg",
    "id_image": "KAWAII24032022050161",
    "count_view": 0
  },
  {
    "link_thumb": "https://live.staticflickr.com/65535/49548771772_cbd24e262d_n.jpg",
    "id_album": "-1432180061",
    "description": "KAWAII120918102",
    "title": "KAWAII120918102",
    "link_img": "https://live.staticflickr.com/65535/49548771772_8fa695a0dc_o.jpg",
    "id_image": "KAWAII120918102",
    "count_view": 0
  },
  {
    "link_thumb": "https://live.staticflickr.com/65535/49727767512_205497106d_n.jpg",
    "id_album": "742877173",
    "description": "KAWAII02042019451463",
    "title": "KAWAII02042019451463",
    "link_img": "https://live.staticflickr.com/65535/49727767512_7e3dc89614_o.jpg",
    "id_image": "KAWAII02042019451463",
    "count_view": 0
  },
  {
    "link_thumb": "https://live.staticflickr.com/65535/49548274998_71e86743fb_n.jpg",
    "id_album": "-316663319",
    "description": "KAWAII17091859",
    "title": "KAWAII17091859",
    "link_img": "https://live.staticflickr.com/65535/49548274998_3834e0f3a6_o.jpg",
    "id_image": "KAWAII17091859",
    "count_view": 0
  },
  {
    "link_thumb": "https://live.staticflickr.com/65535/49548866362_12816ef6b5_n.jpg",
    "id_album": "-1432180061",
    "description": "KAWAII170220223463",
    "title": "KAWAII170220223463",
    "link_img": "https://live.staticflickr.com/65535/49548866362_4041334eae_o.jpg",
    "id_image": "KAWAII170220223463",
    "count_view": 0
  },
  {
    "link_thumb": "https://live.staticflickr.com/65535/49592954677_18103c624d_n.jpg",
    "id_album": "-1741487325",
    "description": "KAWAII270220235170",
    "title": "KAWAII270220235170",
    "link_img": "https://live.staticflickr.com/65535/49592954677_c4b8f4783a_o.jpg",
    "id_image": "KAWAII270220235170",
    "count_view": 0
  },
  {
    "link_thumb": "https://live.staticflickr.com/65535/49578750876_bea642f332_n.jpg",
    "id_album": "-1694302085",
    "description": "KAWAII190220211135",
    "title": "KAWAII190220211135",
    "link_img": "https://live.staticflickr.com/65535/49578750876_721cb6ccf2_o.jpg",
    "id_image": "KAWAII190220211135",
    "count_view": 0
  },
  {
    "link_thumb": "https://live.staticflickr.com/65535/49548589441_a5fe42b307_n.jpg",
    "id_album": "-316663319",
    "description": "KAWAII120918298",
    "title": "KAWAII120918298",
    "link_img": "https://live.staticflickr.com/65535/49548589441_7894d2d0f6_o.jpg",
    "id_image": "KAWAII120918298",
    "count_view": 0
  },
  {
    "link_thumb": "https://live.staticflickr.com/65535/49743264657_6b99584462_n.jpg",
    "id_album": "-1473448477",
    "description": "KAWAII06042021491622",
    "title": "KAWAII06042021491622",
    "link_img": "https://live.staticflickr.com/65535/49743264657_4a600af82d_o.jpg",
    "id_image": "KAWAII06042021491622",
    "count_view": 0
  },
  {
    "link_thumb": "https://live.staticflickr.com/65535/49592231873_ddb759420f_n.jpg",
    "id_album": "-1431786825",
    "description": "KAWAII270220235123",
    "title": "KAWAII270220235123",
    "link_img": "https://live.staticflickr.com/65535/49592231873_cbc9d93ce9_o.jpg",
    "id_image": "KAWAII270220235123",
    "count_view": 0
  },
  {
    "link_thumb": "https://live.staticflickr.com/65535/49548571991_37274a1e5f_n.jpg",
    "id_album": "-316663319",
    "description": "KAWAII120918217",
    "title": "KAWAII120918217",
    "link_img": "https://live.staticflickr.com/65535/49548571991_6ea344d13f_o.jpg",
    "id_image": "KAWAII120918217",
    "count_view": 0
  },
  {
    "link_thumb": "https://live.staticflickr.com/65535/49693561393_32242b0474_n.jpg",
    "id_album": "1201366373",
    "description": "KAWAII12091886",
    "title": "KAWAII12091886",
    "link_img": "https://live.staticflickr.com/65535/49693561393_bb7b7c09f6_o.jpg",
    "id_image": "KAWAII12091886",
    "count_view": 0
  },
  {
    "link_thumb": "https://live.staticflickr.com/65535/49727767037_44e8788115_n.jpg",
    "id_album": "742877173",
    "description": "KAWAII020420194514246",
    "title": "KAWAII020420194514246",
    "link_img": "https://live.staticflickr.com/65535/49727767037_c005c78e27_o.jpg",
    "id_image": "KAWAII020420194514246",
    "count_view": 0
  },
  {
    "link_thumb": "https://live.staticflickr.com/65535/49592728911_575c675ae4_n.jpg",
    "id_album": "949200594",
    "description": "KAWAII2702202351109",
    "title": "KAWAII2702202351109",
    "link_img": "https://live.staticflickr.com/65535/49592728911_b42aca2802_o.jpg",
    "id_image": "KAWAII2702202351109",
    "count_view": 0
  },
  {
    "link_thumb": "https://live.staticflickr.com/65535/49743279152_b89231f4a4_n.jpg",
    "id_album": "-1431786825",
    "description": "KAWAII060420214915144",
    "title": "KAWAII060420214915144",
    "link_img": "https://live.staticflickr.com/65535/49743279152_27e97c5915_o.jpg",
    "id_image": "KAWAII060420214915144",
    "count_view": 0
  },
  {
    "link_thumb": "https://live.staticflickr.com/65535/49548563691_39a2cdd7bd_n.jpg",
    "id_album": "-316663319",
    "description": "KAWAII12091818",
    "title": "KAWAII12091818",
    "link_img": "https://live.staticflickr.com/65535/49548563691_93ee2a0ac1_o.jpg",
    "id_image": "KAWAII12091818",
    "count_view": 0
  },
  {
    "link_thumb": "https://live.staticflickr.com/65535/49548157168_2631bc68a8_n.jpg",
    "id_album": "-1099943053",
    "description": "KAWAII1702202235180",
    "title": "KAWAII1702202235180",
    "link_img": "https://live.staticflickr.com/65535/49548157168_858f7d729f_o.jpg",
    "id_image": "KAWAII1702202235180",
    "count_view": 0
  },
  {
    "link_thumb": "https://live.staticflickr.com/65535/49694099321_b2d6dd6665_n.jpg",
    "id_album": "1201366373",
    "description": "KAWAII120918286",
    "title": "KAWAII120918286",
    "link_img": "https://live.staticflickr.com/65535/49694099321_fd4a1d1871_o.jpg",
    "id_image": "KAWAII120918286",
    "count_view": 0
  },
  {
    "link_thumb": "https://live.staticflickr.com/65535/49693565083_f554226746_n.jpg",
    "id_album": "-643980979",
    "description": "KAWAII170220223495",
    "title": "KAWAII170220223495",
    "link_img": "https://live.staticflickr.com/65535/49693565083_32ab5df91c_o.jpg",
    "id_image": "KAWAII170220223495",
    "count_view": 0
  },
  {
    "link_thumb": "https://live.staticflickr.com/65535/49548910797_f739431fdb_n.jpg",
    "id_album": "1396902986",
    "description": "KAWAII1702202236305",
    "title": "KAWAII1702202236305",
    "link_img": "https://live.staticflickr.com/65535/49548910797_893b16401f_o.jpg",
    "id_image": "KAWAII1702202236305",
    "count_view": 0
  },
  {
    "link_thumb": "https://live.staticflickr.com/65535/49592716656_46e8dcfc3d_n.jpg",
    "id_album": "-316663319",
    "description": "KAWAII2702202351159",
    "title": "KAWAII2702202351159",
    "link_img": "https://live.staticflickr.com/65535/49592716656_1469b0be81_o.jpg",
    "id_image": "KAWAII2702202351159",
    "count_view": 0
  },
  {
    "link_thumb": "https://live.staticflickr.com/65535/49727453196_7151bc12f8_n.jpg",
    "id_album": "742877173",
    "description": "KAWAII02042019451430",
    "title": "KAWAII02042019451430",
    "link_img": "https://live.staticflickr.com/65535/49727453196_a3fe118243_o.jpg",
    "id_image": "KAWAII02042019451430",
    "count_view": 0
  },
  {
    "link_thumb": "https://live.staticflickr.com/65535/49693572278_c69dba307a_n.jpg",
    "id_album": "-643980979",
    "description": "KAWAII170220234610",
    "title": "KAWAII170220234610",
    "link_img": "https://live.staticflickr.com/65535/49693572278_b2cf9a09b1_o.jpg",
    "id_image": "KAWAII170220234610",
    "count_view": 0
  },
  {
    "link_thumb": "https://live.staticflickr.com/65535/49694388417_0823b76ba4_n.jpg",
    "id_album": "1201366373",
    "description": "KAWAII120918162",
    "title": "KAWAII120918162",
    "link_img": "https://live.staticflickr.com/65535/49694388417_d1d490b578_o.jpg",
    "id_image": "KAWAII120918162",
    "count_view": 0
  },
  {
    "link_thumb": "https://live.staticflickr.com/65535/49726920793_d5f069a07f_n.jpg",
    "id_album": "-1862561193",
    "description": "KAWAII0204201945111",
    "title": "KAWAII0204201945111",
    "link_img": "https://live.staticflickr.com/65535/49726920793_d6b6f36c3f_o.jpg",
    "id_image": "KAWAII0204201945111",
    "count_view": 0
  },
  {
    "link_thumb": "https://live.staticflickr.com/65535/49727755567_e026722fca_n.jpg",
    "id_album": "742877173",
    "description": "KAWAII020420194507150",
    "title": "KAWAII020420194507150",
    "link_img": "https://live.staticflickr.com/65535/49727755567_dcb40c249f_o.jpg",
    "id_image": "KAWAII020420194507150",
    "count_view": 0
  },
  {
    "link_thumb": "https://live.staticflickr.com/65535/49548633176_6ac21f02a2_n.jpg",
    "id_album": "1396902986",
    "description": "KAWAII1702202234124",
    "title": "KAWAII1702202234124",
    "link_img": "https://live.staticflickr.com/65535/49548633176_1d50f4508e_o.jpg",
    "id_image": "KAWAII1702202234124",
    "count_view": 0
  },
  {
    "link_thumb": "https://live.staticflickr.com/65535/49693543258_a0562319da_n.jpg",
    "id_album": "1201366373",
    "description": "KAWAII120918170",
    "title": "KAWAII120918170",
    "link_img": "https://live.staticflickr.com/65535/49693543258_81c88d8bb9_o.jpg",
    "id_image": "KAWAII120918170",
    "count_view": 0
  },
  {
    "link_thumb": "https://live.staticflickr.com/65535/49727471006_043647b0e6_n.jpg",
    "id_album": "-1862561193",
    "description": "KAWAII020420194512159",
    "title": "KAWAII020420194512159",
    "link_img": "https://live.staticflickr.com/65535/49727471006_f15fc868e5_o.jpg",
    "id_image": "KAWAII020420194512159",
    "count_view": 0
  },
  {
    "link_thumb": "https://live.staticflickr.com/65535/49693556048_0c840bf754_n.jpg",
    "id_album": "1201366373",
    "description": "KAWAII120918284",
    "title": "KAWAII120918284",
    "link_img": "https://live.staticflickr.com/65535/49693556048_4db1d42147_o.jpg",
    "id_image": "KAWAII120918284",
    "count_view": 0
  },
  {
    "link_thumb": "https://live.staticflickr.com/65535/49548867492_3d9cb6c0b4_n.jpg",
    "id_album": "-316663319",
    "description": "KAWAII170220223468",
    "title": "KAWAII170220223468",
    "link_img": "https://live.staticflickr.com/65535/49548867492_84aca2cf5a_o.jpg",
    "id_image": "KAWAII170220223468",
    "count_view": 0
  },
  {
    "link_thumb": "https://live.staticflickr.com/65535/49711145002_f14f038e7f_n.jpg",
    "id_album": "-1599896063",
    "description": "LITTLEMONK29032012063620",
    "title": "LITTLEMONK29032012063620",
    "link_img": "https://live.staticflickr.com/65535/49711145002_e6a404b8bf_o.jpg",
    "id_image": "LITTLEMONK29032012063620",
    "count_view": 0
  },
  {
    "link_thumb": "https://live.staticflickr.com/65535/49727451646_d29dca58c3_n.jpg",
    "id_album": "742877173",
    "description": "KAWAII020420194513249",
    "title": "KAWAII020420194513249",
    "link_img": "https://live.staticflickr.com/65535/49727451646_721bcf3e35_o.jpg",
    "id_image": "KAWAII020420194513249",
    "count_view": 0
  },
  {
    "link_thumb": "https://live.staticflickr.com/65535/49548596946_8b990ae9b8_n.jpg",
    "id_album": "1396902986",
    "description": "KAWAII120918327",
    "title": "KAWAII120918327",
    "link_img": "https://live.staticflickr.com/65535/49548596946_df4eb020d8_o.jpg",
    "id_image": "KAWAII120918327",
    "count_view": 0
  },
  {
    "link_thumb": "https://live.staticflickr.com/65535/49693526753_b1d2803960_n.jpg",
    "id_album": "-643980979",
    "description": "KAWAII0503202021140",
    "title": "KAWAII0503202021140",
    "link_img": "https://live.staticflickr.com/65535/49693526753_3f30c097d4_o.jpg",
    "id_image": "KAWAII0503202021140",
    "count_view": 0
  },
  {
    "link_thumb": "https://live.staticflickr.com/65535/49694092836_c5f7363490_n.jpg",
    "id_album": "1201366373",
    "description": "KAWAII120918225",
    "title": "KAWAII120918225",
    "link_img": "https://live.staticflickr.com/65535/49694092836_31f5c3c766_o.jpg",
    "id_image": "KAWAII120918225",
    "count_view": 0
  },
  {
    "link_thumb": "https://live.staticflickr.com/65535/49548950137_20fe5592c7_n.jpg",
    "id_album": "-422187261",
    "description": "KAWAII1702202238466",
    "title": "KAWAII1702202238466",
    "link_img": "https://live.staticflickr.com/65535/49548950137_9c34f5805d_o.jpg",
    "id_image": "KAWAII1702202238466",
    "count_view": 0
  },
  {
    "link_thumb": "https://live.staticflickr.com/65535/49727754157_91cc09de26_n.jpg",
    "id_album": "-316663319",
    "description": "KAWAII020420194512160",
    "title": "KAWAII020420194512160",
    "link_img": "https://live.staticflickr.com/65535/49727754157_1ab4982a2a_o.jpg",
    "id_image": "KAWAII020420194512160",
    "count_view": 0
  },
  {
    "link_thumb": "https://live.staticflickr.com/65535/49743258527_6ff605826d_n.jpg",
    "id_album": "-1473448477",
    "description": "KAWAII06042021491512",
    "title": "KAWAII06042021491512",
    "link_img": "https://live.staticflickr.com/65535/49743258527_ff528a6d5a_o.jpg",
    "id_image": "KAWAII06042021491512",
    "count_view": 0
  },
  {
    "link_thumb": "https://live.staticflickr.com/65535/49742921921_e2658fe21e_n.jpg",
    "id_album": "-316663319",
    "description": "KAWAII060420214912248",
    "title": "KAWAII060420214912248",
    "link_img": "https://live.staticflickr.com/65535/49742921921_ddb4a7c89b_o.jpg",
    "id_image": "KAWAII060420214912248",
    "count_view": 0
  },
  {
    "link_thumb": "https://live.staticflickr.com/65535/49622329693_8ebeaafc84_n.jpg",
    "id_album": "-406350429",
    "description": "KAWAII050320202120",
    "title": "KAWAII050320202120",
    "link_img": "https://live.staticflickr.com/65535/49622329693_4feecd972a_o.jpg",
    "id_image": "KAWAII050320202120",
    "count_view": 0
  },
  {
    "link_thumb": "https://live.staticflickr.com/65535/49548148413_9f880630fd_n.jpg",
    "id_album": "-1099943053",
    "description": "KAWAII1702202235139",
    "title": "KAWAII1702202235139",
    "link_img": "https://live.staticflickr.com/65535/49548148413_aeba333ae7_o.jpg",
    "id_image": "KAWAII1702202235139",
    "count_view": 0
  },
  {
    "link_thumb": "https://live.staticflickr.com/65535/49694371987_aff287f26d_n.jpg",
    "id_album": "-643980979",
    "description": "KAWAII0503202021106",
    "title": "KAWAII0503202021106",
    "link_img": "https://live.staticflickr.com/65535/49694371987_c04ff20047_o.jpg",
    "id_image": "KAWAII0503202021106",
    "count_view": 0
  },
  {
    "link_thumb": "https://live.staticflickr.com/65535/49592735741_eb5276fb92_n.jpg",
    "id_album": "431597977",
    "description": "KAWAII270220235149",
    "title": "KAWAII270220235149",
    "link_img": "https://live.staticflickr.com/65535/49592735741_b088e9398f_o.jpg",
    "id_image": "KAWAII270220235149",
    "count_view": 0
  },
  {
    "link_thumb": "https://live.staticflickr.com/65535/49742949391_a17e6cf09d_n.jpg",
    "id_album": "1396902986",
    "description": "KAWAII06042021491579",
    "title": "KAWAII06042021491579",
    "link_img": "https://live.staticflickr.com/65535/49742949391_50884158ac_o.jpg",
    "id_image": "KAWAII06042021491579",
    "count_view": 0
  },
  {
    "link_thumb": "https://live.staticflickr.com/65535/49727741362_aa4939b53a_n.jpg",
    "id_album": "-1694302085",
    "description": "KAWAII1702202238438",
    "title": "KAWAII1702202238438",
    "link_img": "https://live.staticflickr.com/65535/49727741362_428eb0275b_o.jpg",
    "id_image": "KAWAII1702202238438",
    "count_view": 0
  },
  {
    "link_thumb": "https://live.staticflickr.com/65535/49548102943_1427b14e8f_n.jpg",
    "id_album": "-1741487325",
    "description": "KAWAII12091836",
    "title": "KAWAII12091836",
    "link_img": "https://live.staticflickr.com/65535/49548102943_505ac71255_o.jpg",
    "id_image": "KAWAII12091836",
    "count_view": 0
  },
  {
    "link_thumb": "https://live.staticflickr.com/65535/49693678043_28ff5f0824_n.jpg",
    "id_album": "-1432180061",
    "description": "KAWAII1702202237331",
    "title": "KAWAII1702202237331",
    "link_img": "https://live.staticflickr.com/65535/49693678043_e1f98b1124_o.jpg",
    "id_image": "KAWAII1702202237331",
    "count_view": 0
  },
  {
    "link_thumb": "https://live.staticflickr.com/65535/49592204528_636523a09a_n.jpg",
    "id_album": "1396902986",
    "description": "KAWAII2702202351149",
    "title": "KAWAII2702202351149",
    "link_img": "https://live.staticflickr.com/65535/49592204528_f30129f846_o.jpg",
    "id_image": "KAWAII2702202351149",
    "count_view": 0
  },
  {
    "link_thumb": "https://live.staticflickr.com/65535/49726877388_a4e361fe15_n.jpg",
    "id_album": "-1694302085",
    "description": "KAWAII020420194508186",
    "title": "KAWAII020420194508186",
    "link_img": "https://live.staticflickr.com/65535/49726877388_5fefe1e036_o.jpg",
    "id_image": "KAWAII020420194508186",
    "count_view": 0
  },
  {
    "link_thumb": "https://live.staticflickr.com/65535/49727450881_7c7958f382_n.jpg",
    "id_album": "742877173",
    "description": "KAWAII020420194513138",
    "title": "KAWAII020420194513138",
    "link_img": "https://live.staticflickr.com/65535/49727450881_916c922e16_o.jpg",
    "id_image": "KAWAII020420194513138",
    "count_view": 0
  },
  {
    "link_thumb": "https://live.staticflickr.com/65535/49726919558_77af99ea8a_n.jpg",
    "id_album": "-1862561193",
    "description": "KAWAII020420194509207",
    "title": "KAWAII020420194509207",
    "link_img": "https://live.staticflickr.com/65535/49726919558_1fdcf5da62_o.jpg",
    "id_image": "KAWAII020420194509207",
    "count_view": 0
  },
  {
    "link_thumb": "https://live.staticflickr.com/65535/49548671831_2681909ac7_n.jpg",
    "id_album": "1396902986",
    "description": "KAWAII1702202236248",
    "title": "KAWAII1702202236248",
    "link_img": "https://live.staticflickr.com/65535/49548671831_386af457d9_o.jpg",
    "id_image": "KAWAII1702202236248",
    "count_view": 0
  },
  {
    "link_thumb": "https://live.staticflickr.com/65535/49726880213_be43e8f94b_n.jpg",
    "id_album": "-1694302085",
    "description": "KAWAII190220211124",
    "title": "KAWAII190220211124",
    "link_img": "https://live.staticflickr.com/65535/49726880213_20aab8a60f_o.jpg",
    "id_image": "KAWAII190220211124",
    "count_view": 0
  },
  {
    "link_thumb": "https://live.staticflickr.com/65535/49694428222_2c96ddc16f_n.jpg",
    "id_album": "-358592519",
    "description": "KAWAII1702202237329",
    "title": "KAWAII1702202237329",
    "link_img": "https://live.staticflickr.com/65535/49694428222_2f534c562f_o.jpg",
    "id_image": "KAWAII1702202237329",
    "count_view": 0
  },
  {
    "link_thumb": "https://live.staticflickr.com/65535/49548907182_b3a4f4155d_n.jpg",
    "id_album": "-422187261",
    "description": "KAWAII1702202236289",
    "title": "KAWAII1702202236289",
    "link_img": "https://live.staticflickr.com/65535/49548907182_832a2bdfc9_o.jpg",
    "id_image": "KAWAII1702202236289",
    "count_view": 0
  },
  {
    "link_thumb": "https://live.staticflickr.com/65535/49548242938_e9f62ba1e8_n.jpg",
    "id_album": "-1694302085",
    "description": "KAWAII1702202239542",
    "title": "KAWAII1702202239542",
    "link_img": "https://live.staticflickr.com/65535/49548242938_e930b45106_o.jpg",
    "id_image": "KAWAII1702202239542",
    "count_view": 0
  },
  {
    "link_thumb": "https://live.staticflickr.com/65535/49548662521_495fec0c6f_n.jpg",
    "id_album": "1396902986",
    "description": "KAWAII1702202235199",
    "title": "KAWAII1702202235199",
    "link_img": "https://live.staticflickr.com/65535/49548662521_41402ffbc9_o.jpg",
    "id_image": "KAWAII1702202235199",
    "count_view": 0
  },
  {
    "link_thumb": "https://live.staticflickr.com/65535/49623079617_1afe6fdccf_n.jpg",
    "id_album": "-1741487325",
    "description": "KAWAII0503202021174",
    "title": "KAWAII0503202021174",
    "link_img": "https://live.staticflickr.com/65535/49623079617_de337d40a0_o.jpg",
    "id_image": "KAWAII0503202021174",
    "count_view": 0
  },
  {
    "link_thumb": "https://live.staticflickr.com/65535/49622809301_6b0684800f_n.jpg",
    "id_album": "-1694302085",
    "description": "KAWAII0503202021105",
    "title": "KAWAII0503202021105",
    "link_img": "https://live.staticflickr.com/65535/49622809301_e17339301c_o.jpg",
    "id_image": "KAWAII0503202021105",
    "count_view": 0
  },
  {
    "link_thumb": "https://live.staticflickr.com/65535/49693528313_e2a2db57d1_n.jpg",
    "id_album": "-643980979",
    "description": "KAWAII0503202021188",
    "title": "KAWAII0503202021188",
    "link_img": "https://live.staticflickr.com/65535/49693528313_4748d2da47_o.jpg",
    "id_image": "KAWAII0503202021188",
    "count_view": 0
  },
  {
    "link_thumb": "https://live.staticflickr.com/65535/49693527218_5bce209935_n.jpg",
    "id_album": "1201366373",
    "description": "KAWAII050320202116",
    "title": "KAWAII050320202116",
    "link_img": "https://live.staticflickr.com/65535/49693527218_3359fd468d_o.jpg",
    "id_image": "KAWAII050320202116",
    "count_view": 0
  },
  {
    "link_thumb": "https://live.staticflickr.com/65535/49548898952_07f6c9e509_n.jpg",
    "id_album": "1396902986",
    "description": "KAWAII1702202236246",
    "title": "KAWAII1702202236246",
    "link_img": "https://live.staticflickr.com/65535/49548898952_b34c40a11f_o.jpg",
    "id_image": "KAWAII1702202236246",
    "count_view": 0
  },
  {
    "link_thumb": "https://live.staticflickr.com/65535/49693534803_6fd2b6ce19_n.jpg",
    "id_album": "-643980979",
    "description": "KAWAII050320202181",
    "title": "KAWAII050320202181",
    "link_img": "https://live.staticflickr.com/65535/49693534803_d4a668e179_o.jpg",
    "id_image": "KAWAII050320202181",
    "count_view": 0
  },
  {
    "link_thumb": "https://live.staticflickr.com/65535/49727452801_b9eb6a96fd_n.jpg",
    "id_album": "742877173",
    "description": "KAWAII02042019451424",
    "title": "KAWAII02042019451424",
    "link_img": "https://live.staticflickr.com/65535/49727452801_8e28368279_o.jpg",
    "id_image": "KAWAII02042019451424",
    "count_view": 0
  },
  {
    "link_thumb": "https://live.staticflickr.com/65535/49726898053_d8f0c3bca1_n.jpg",
    "id_album": "742877173",
    "description": "KAWAII020420194510148",
    "title": "KAWAII020420194510148",
    "link_img": "https://live.staticflickr.com/65535/49726898053_a28a9c24da_o.jpg",
    "id_image": "KAWAII020420194510148",
    "count_view": 0
  },
  {
    "link_thumb": "https://live.staticflickr.com/65535/49622830626_266953618e_n.jpg",
    "id_album": "-316663319",
    "description": "KAWAII0503202021296",
    "title": "KAWAII0503202021296",
    "link_img": "https://live.staticflickr.com/65535/49622830626_87f88097db_o.jpg",
    "id_image": "KAWAII0503202021296",
    "count_view": 0
  },
  {
    "link_thumb": "https://live.staticflickr.com/65535/49548692246_e33c44dc92_n.jpg",
    "id_album": "-1431786825",
    "description": "KAWAII1702202237347",
    "title": "KAWAII1702202237347",
    "link_img": "https://live.staticflickr.com/65535/49548692246_38e5e82e1a_o.jpg",
    "id_image": "KAWAII1702202237347",
    "count_view": 0
  },
  {
    "link_thumb": "https://live.staticflickr.com/65535/49548862102_8b2351b5b6_n.jpg",
    "id_album": "-1099943053",
    "description": "KAWAII170220223442",
    "title": "KAWAII170220223442",
    "link_img": "https://live.staticflickr.com/65535/49548862102_248811aa32_o.jpg",
    "id_image": "KAWAII170220223442",
    "count_view": 0
  },
  {
    "link_thumb": "https://live.staticflickr.com/65535/49548899667_0f20a993bd_n.jpg",
    "id_album": "-316663319",
    "description": "KAWAII1702202236250",
    "title": "KAWAII1702202236250",
    "link_img": "https://live.staticflickr.com/65535/49548899667_56709fc432_o.jpg",
    "id_image": "KAWAII1702202236250",
    "count_view": 0
  },
  {
    "link_thumb": "https://live.staticflickr.com/65535/49694070736_42d8ae7b56_n.jpg",
    "id_album": "-643980979",
    "description": "KAWAII0503202021144",
    "title": "KAWAII0503202021144",
    "link_img": "https://live.staticflickr.com/65535/49694070736_3b7f15c311_o.jpg",
    "id_image": "KAWAII0503202021144",
    "count_view": 0
  },
  {
    "link_thumb": "https://live.staticflickr.com/65535/49623071782_a7599b790b_n.jpg",
    "id_album": "1396902986",
    "description": "KAWAII0503202021122",
    "title": "KAWAII0503202021122",
    "link_img": "https://live.staticflickr.com/65535/49623071782_ea285afbfa_o.jpg",
    "id_image": "KAWAII0503202021122",
    "count_view": 0
  },
  {
    "link_thumb": "https://live.staticflickr.com/65535/49726924648_f134b6b07e_n.jpg",
    "id_album": "-1862561193",
    "description": "KAWAII020420194513163",
    "title": "KAWAII020420194513163",
    "link_img": "https://live.staticflickr.com/65535/49726924648_a98d7f9529_o.jpg",
    "id_image": "KAWAII020420194513163",
    "count_view": 0
  },
  {
    "link_thumb": "https://live.staticflickr.com/65535/49548617406_84aee99d48_n.jpg",
    "id_album": "-316663319",
    "description": "KAWAII12091877",
    "title": "KAWAII12091877",
    "link_img": "https://live.staticflickr.com/65535/49548617406_6cbf2fa379_o.jpg",
    "id_image": "KAWAII12091877",
    "count_view": 0
  },
  {
    "link_thumb": "https://live.staticflickr.com/65535/49548139298_6e5456530b_n.jpg",
    "id_album": "-422187261",
    "description": "KAWAII170220223471",
    "title": "KAWAII170220223471",
    "link_img": "https://live.staticflickr.com/65535/49548139298_ba29e127e1_o.jpg",
    "id_image": "KAWAII170220223471",
    "count_view": 0
  },
  {
    "link_thumb": "https://live.staticflickr.com/65535/49548230953_8ac345f2c0_n.jpg",
    "id_album": "-1741487325",
    "description": "KAWAII1702202238497",
    "title": "KAWAII1702202238497",
    "link_img": "https://live.staticflickr.com/65535/49548230953_f32cb29135_o.jpg",
    "id_image": "KAWAII1702202238497",
    "count_view": 0
  },
  {
    "link_thumb": "https://live.staticflickr.com/65535/49727784842_cbc255ac83_n.jpg",
    "id_album": "-1862561193",
    "description": "KAWAII02042019451180",
    "title": "KAWAII02042019451180",
    "link_img": "https://live.staticflickr.com/65535/49727784842_13f09cf695_o.jpg",
    "id_image": "KAWAII02042019451180",
    "count_view": 0
  },
  {
    "link_thumb": "https://live.staticflickr.com/65535/49578751021_24517b2d60_n.jpg",
    "id_album": "-316663319",
    "description": "KAWAII19022021119",
    "title": "KAWAII19022021119",
    "link_img": "https://live.staticflickr.com/65535/49578751021_dc150cfc10_o.jpg",
    "id_image": "KAWAII19022021119",
    "count_view": 0
  },
  {
    "link_thumb": "https://live.staticflickr.com/65535/49727743857_0937fd0b71_n.jpg",
    "id_album": "-1741487325",
    "description": "KAWAII020420194513254",
    "title": "KAWAII020420194513254",
    "link_img": "https://live.staticflickr.com/65535/49727743857_36fd5a4ba1_o.jpg",
    "id_image": "KAWAII020420194513254",
    "count_view": 0
  },
  {
    "link_thumb": "https://live.staticflickr.com/65535/49694077156_c5fd24ec02_n.jpg",
    "id_album": "1201366373",
    "description": "KAWAII050320202157",
    "title": "KAWAII050320202157",
    "link_img": "https://live.staticflickr.com/65535/49694077156_9f3764fdb2_o.jpg",
    "id_image": "KAWAII050320202157",
    "count_view": 0
  },
  {
    "link_thumb": "https://live.staticflickr.com/65535/49693672398_86aafaeca7_n.jpg",
    "id_album": "-1694302085",
    "description": "KAWAII120918201",
    "title": "KAWAII120918201",
    "link_img": "https://live.staticflickr.com/65535/49693672398_cb7e8c4cdb_o.jpg",
    "id_image": "KAWAII120918201",
    "count_view": 0
  },
  {
    "link_thumb": "https://live.staticflickr.com/65535/49742907191_c80bc106d2_n.jpg",
    "id_album": "-422187261",
    "description": "KAWAII060420214912152",
    "title": "KAWAII060420214912152",
    "link_img": "https://live.staticflickr.com/65535/49742907191_9b5e9d3445_o.jpg",
    "id_image": "KAWAII060420214912152",
    "count_view": 0
  },
  {
    "link_thumb": "https://live.staticflickr.com/65535/49694398037_e0da415dea_n.jpg",
    "id_album": "1201366373",
    "description": "KAWAII120918251",
    "title": "KAWAII120918251",
    "link_img": "https://live.staticflickr.com/65535/49694398037_a82ac6fb46_o.jpg",
    "id_image": "KAWAII120918251",
    "count_view": 0
  },
  {
    "link_thumb": "https://live.staticflickr.com/65535/49694219401_04e4444cf2_n.jpg",
    "id_album": "-643980979",
    "description": "KAWAII24032022050238",
    "title": "KAWAII24032022050238",
    "link_img": "https://live.staticflickr.com/65535/49694219401_863f4476c1_o.jpg",
    "id_image": "KAWAII24032022050238",
    "count_view": 0
  },
  {
    "link_thumb": "https://live.staticflickr.com/65535/49694109831_34a1bbd234_n.jpg",
    "id_album": "-643980979",
    "description": "KAWAII1702202236281",
    "title": "KAWAII1702202236281",
    "link_img": "https://live.staticflickr.com/65535/49694109831_78a373918d_o.jpg",
    "id_image": "KAWAII1702202236281",
    "count_view": 0
  },
  {
    "link_thumb": "https://live.staticflickr.com/65535/49622806251_53961a8dca_n.jpg",
    "id_album": "-1741487325",
    "description": "KAWAII0503202021158",
    "title": "KAWAII0503202021158",
    "link_img": "https://live.staticflickr.com/65535/49622806251_a997a54bbd_o.jpg",
    "id_image": "KAWAII0503202021158",
    "count_view": 0
  },
  {
    "link_thumb": "https://live.staticflickr.com/65535/49548669546_d864b4cec1_n.jpg",
    "id_album": "-1741487325",
    "description": "KAWAII1702202236234",
    "title": "KAWAII1702202236234",
    "link_img": "https://live.staticflickr.com/65535/49548669546_02a854cb7a_o.jpg",
    "id_image": "KAWAII1702202236234",
    "count_view": 0
  },
  {
    "link_thumb": "https://live.staticflickr.com/65535/49693562268_2210e22661_n.jpg",
    "id_album": "1201366373",
    "description": "KAWAII12091899",
    "title": "KAWAII12091899",
    "link_img": "https://live.staticflickr.com/65535/49693562268_e18dd1bf79_o.jpg",
    "id_image": "KAWAII12091899",
    "count_view": 0
  },
  {
    "link_thumb": "https://live.staticflickr.com/65535/49727757637_721191975f_n.jpg",
    "id_album": "742877173",
    "description": "KAWAII0204201945085",
    "title": "KAWAII0204201945085",
    "link_img": "https://live.staticflickr.com/65535/49727757637_2281b4fa3d_o.jpg",
    "id_image": "KAWAII0204201945085",
    "count_view": 0
  },
  {
    "link_thumb": "https://live.staticflickr.com/65535/49694100931_1484c44f33_n.jpg",
    "id_album": "1201366373",
    "description": "KAWAII12091835",
    "title": "KAWAII12091835",
    "link_img": "https://live.staticflickr.com/65535/49694100931_6e938afa04_o.jpg",
    "id_image": "KAWAII12091835",
    "count_view": 0
  },
  {
    "link_thumb": "https://live.staticflickr.com/65535/49548835222_2433b1acd6_n.jpg",
    "id_album": "-1741487325",
    "description": "KAWAII120918370",
    "title": "KAWAII120918370",
    "link_img": "https://live.staticflickr.com/65535/49548835222_33e1fa10d3_o.jpg",
    "id_image": "KAWAII120918370",
    "count_view": 0
  },
  {
    "link_thumb": "https://live.staticflickr.com/65535/49622335358_4018292f11_n.jpg",
    "id_album": "-406350429",
    "description": "KAWAII050320202192",
    "title": "KAWAII050320202192",
    "link_img": "https://live.staticflickr.com/65535/49622335358_2c13717142_o.jpg",
    "id_image": "KAWAII050320202192",
    "count_view": 0
  },
  {
    "link_thumb": "https://live.staticflickr.com/65535/49694125931_f8f3987c14_n.jpg",
    "id_album": "-358592519",
    "description": "KAWAII1702202239568",
    "title": "KAWAII1702202239568",
    "link_img": "https://live.staticflickr.com/65535/49694125931_361e3743c3_o.jpg",
    "id_image": "KAWAII1702202239568",
    "count_view": 0
  },
  {
    "link_thumb": "https://live.staticflickr.com/65535/49726917948_a6d0a8d51e_n.jpg",
    "id_album": "1396902986",
    "description": "KAWAII02042019451182",
    "title": "KAWAII02042019451182",
    "link_img": "https://live.staticflickr.com/65535/49726917948_aff8c25539_o.jpg",
    "id_image": "KAWAII02042019451182",
    "count_view": 0
  },
  {
    "link_thumb": "https://live.staticflickr.com/65535/49552517241_cfe1185bd3_n.jpg",
    "id_album": "-1694302085",
    "description": "KAWAII12091825180220205911",
    "title": "KAWAII12091825180220205911",
    "link_img": "https://live.staticflickr.com/65535/49552517241_e6d0dcecb0_o.jpg",
    "id_image": "KAWAII12091825180220205911",
    "count_view": 0
  },
  {
    "link_thumb": "https://live.staticflickr.com/65535/49622846951_ea92c7b8a6_n.jpg",
    "id_album": "-406350429",
    "description": "KAWAII0503202021266",
    "title": "KAWAII0503202021266",
    "link_img": "https://live.staticflickr.com/65535/49622846951_8c7fc8cfa4_o.jpg",
    "id_image": "KAWAII0503202021266",
    "count_view": 0
  },
  {
    "link_thumb": "https://live.staticflickr.com/65535/49548681796_a26cc947ba_n.jpg",
    "id_album": "-422187261",
    "description": "KAWAII1702202236299",
    "title": "KAWAII1702202236299",
    "link_img": "https://live.staticflickr.com/65535/49548681796_cb8451079e_o.jpg",
    "id_image": "KAWAII1702202236299",
    "count_view": 0
  },
  {
    "link_thumb": "https://live.staticflickr.com/65535/49742372378_b321335988_n.jpg",
    "id_album": "-316663319",
    "description": "KAWAII060420214911200",
    "title": "KAWAII060420214911200",
    "link_img": "https://live.staticflickr.com/65535/49742372378_b68612c725_o.jpg",
    "id_image": "KAWAII060420214911200",
    "count_view": 0
  },
  {
    "link_thumb": "https://live.staticflickr.com/65535/49694091671_e2c80b25ac_n.jpg",
    "id_album": "1201366373",
    "description": "KAWAII120918213",
    "title": "KAWAII120918213",
    "link_img": "https://live.staticflickr.com/65535/49694091671_f396e77508_o.jpg",
    "id_image": "KAWAII120918213",
    "count_view": 0
  },
  {
    "link_thumb": "https://live.staticflickr.com/65535/49742917981_a8d3c240ea_n.jpg",
    "id_album": "-128218148",
    "description": "KAWAII060420214912136",
    "title": "KAWAII060420214912136",
    "link_img": "https://live.staticflickr.com/65535/49742917981_7f929be06c_o.jpg",
    "id_image": "KAWAII060420214912136",
    "count_view": 0
  },
  {
    "link_thumb": "https://live.staticflickr.com/65535/49548902602_37f1bda9c7_n.jpg",
    "id_album": "-1432180061",
    "description": "KAWAII1702202236265",
    "title": "KAWAII1702202236265",
    "link_img": "https://live.staticflickr.com/65535/49548902602_fa5273a1dc_o.jpg",
    "id_image": "KAWAII1702202236265",
    "count_view": 0
  },
  {
    "link_thumb": "https://live.staticflickr.com/65535/49694086796_2038f4e37a_n.jpg",
    "id_album": "-643980979",
    "description": "KAWAII12091817",
    "title": "KAWAII12091817",
    "link_img": "https://live.staticflickr.com/65535/49694086796_46b9dc535b_o.jpg",
    "id_image": "KAWAII12091817",
    "count_view": 0
  },
  {
    "link_thumb": "https://live.staticflickr.com/65535/49742950846_26970047b4_n.jpg",
    "id_album": "-1862561193",
    "description": "KAWAII060420214914236",
    "title": "KAWAII060420214914236",
    "link_img": "https://live.staticflickr.com/65535/49742950846_f89017c778_o.jpg",
    "id_image": "KAWAII060420214914236",
    "count_view": 0
  },
  {
    "link_thumb": "https://live.staticflickr.com/65535/49548212393_f1c2106459_n.jpg",
    "id_album": "-1099943053",
    "description": "KAWAII1702202238429",
    "title": "KAWAII1702202238429",
    "link_img": "https://live.staticflickr.com/65535/49548212393_fdd789fe68_o.jpg",
    "id_image": "KAWAII1702202238429",
    "count_view": 0
  },
  {
    "link_thumb": "https://live.staticflickr.com/65535/49726889313_269c56d408_n.jpg",
    "id_album": "-316663319",
    "description": "KAWAII02042019451011",
    "title": "KAWAII02042019451011",
    "link_img": "https://live.staticflickr.com/65535/49726889313_5411c0b820_o.jpg",
    "id_image": "KAWAII02042019451011",
    "count_view": 0
  },
  {
    "link_thumb": "https://live.staticflickr.com/65535/49694525352_e0861033b7_n.jpg",
    "id_album": "-1432180061",
    "description": "KAWAII17022023464",
    "title": "KAWAII17022023464",
    "link_img": "https://live.staticflickr.com/65535/49694525352_07bed07793_o.jpg",
    "id_image": "KAWAII17022023464",
    "count_view": 0
  },
  {
    "link_thumb": "https://live.staticflickr.com/65535/49548136443_3c8305ec75_n.jpg",
    "id_album": "-422187261",
    "description": "KAWAII170220223459",
    "title": "KAWAII170220223459",
    "link_img": "https://live.staticflickr.com/65535/49548136443_bc360510ea_o.jpg",
    "id_image": "KAWAII170220223459",
    "count_view": 0
  },
  {
    "link_thumb": "https://live.staticflickr.com/65535/49742369103_b35dcc7e8f_n.jpg",
    "id_album": "-643980979",
    "description": "KAWAII270220235134",
    "title": "KAWAII270220235134",
    "link_img": "https://live.staticflickr.com/65535/49742369103_90c86aa867_o.jpg",
    "id_image": "KAWAII270220235134",
    "count_view": 0
  },
  {
    "link_thumb": "https://live.staticflickr.com/65535/49592975792_8d5c9b8fa7_n.jpg",
    "id_album": "949200594",
    "description": "KAWAII270220235173",
    "title": "KAWAII270220235173",
    "link_img": "https://live.staticflickr.com/65535/49592975792_a991967fea_o.jpg",
    "id_image": "KAWAII270220235173",
    "count_view": 0
  },
  {
    "link_thumb": "https://live.staticflickr.com/65535/49727467276_137a88c6e2_n.jpg",
    "id_album": "-1862561193",
    "description": "KAWAII02042019450946",
    "title": "KAWAII02042019450946",
    "link_img": "https://live.staticflickr.com/65535/49727467276_743828d5f8_o.jpg",
    "id_image": "KAWAII02042019450946",
    "count_view": 0
  },
  {
    "link_thumb": "https://live.staticflickr.com/65535/49548628346_91796a04ee_n.jpg",
    "id_album": "1396902986",
    "description": "KAWAII17022022335",
    "title": "KAWAII17022022335",
    "link_img": "https://live.staticflickr.com/65535/49548628346_1a0f884a26_o.jpg",
    "id_image": "KAWAII17022022335",
    "count_view": 0
  },
  {
    "link_thumb": "https://live.staticflickr.com/65535/49742352313_f78cb67432_n.jpg",
    "id_album": "-1913845949",
    "description": "KAWAII060420214911172",
    "title": "KAWAII060420214911172",
    "link_img": "https://live.staticflickr.com/65535/49742352313_0846d8bdda_o.jpg",
    "id_image": "KAWAII060420214911172",
    "count_view": 0
  },
  {
    "link_thumb": "https://live.staticflickr.com/65535/49727745242_30f5689fc8_n.jpg",
    "id_album": "-1497779911",
    "description": "KAWAII0503202021111",
    "title": "KAWAII0503202021111",
    "link_img": "https://live.staticflickr.com/65535/49727745242_eabb43d373_o.jpg",
    "id_image": "KAWAII0503202021111",
    "count_view": 0
  },
  {
    "link_thumb": "https://live.staticflickr.com/65535/49743233112_a052b832b6_n.jpg",
    "id_album": "-1694302085",
    "description": "KAWAII060420214913279",
    "title": "KAWAII060420214913279",
    "link_img": "https://live.staticflickr.com/65535/49743233112_74409ce0b3_o.jpg",
    "id_image": "KAWAII060420214913279",
    "count_view": 0
  },
  {
    "link_thumb": "https://live.staticflickr.com/65535/49592720141_be59d30f5f_n.jpg",
    "id_album": "-316663319",
    "description": "KAWAII270220235184",
    "title": "KAWAII270220235184",
    "link_img": "https://live.staticflickr.com/65535/49592720141_398f2513cf_o.jpg",
    "id_image": "KAWAII270220235184",
    "count_view": 0
  },
  {
    "link_thumb": "https://live.staticflickr.com/65535/49743248487_2470e7d2eb_n.jpg",
    "id_album": "-316663319",
    "description": "KAWAII060420214913307",
    "title": "KAWAII060420214913307",
    "link_img": "https://live.staticflickr.com/65535/49743248487_0739556b42_o.jpg",
    "id_image": "KAWAII060420214913307",
    "count_view": 0
  },
  {
    "link_thumb": "https://live.staticflickr.com/65535/49742948926_f541e3c9a1_n.jpg",
    "id_album": "1396902986",
    "description": "KAWAII060420214915178",
    "title": "KAWAII060420214915178",
    "link_img": "https://live.staticflickr.com/65535/49742948926_8094f27500_o.jpg",
    "id_image": "KAWAII060420214915178",
    "count_view": 0
  },
  {
    "link_thumb": "https://live.staticflickr.com/65535/49548588306_49c128b1de_n.jpg",
    "id_album": "-316663319",
    "description": "KAWAII120918293",
    "title": "KAWAII120918293",
    "link_img": "https://live.staticflickr.com/65535/49548588306_9ec38513ff_o.jpg",
    "id_image": "KAWAII120918293",
    "count_view": 0
  },
  {
    "link_thumb": "https://live.staticflickr.com/65535/49693527838_7bdcd4883d_n.jpg",
    "id_album": "1201366373",
    "description": "KAWAII0503202021176",
    "title": "KAWAII0503202021176",
    "link_img": "https://live.staticflickr.com/65535/49693527838_aa7f7f9d82_o.jpg",
    "id_image": "KAWAII0503202021176",
    "count_view": 0
  },
  {
    "link_thumb": "https://live.staticflickr.com/65535/49742940636_d8143ca171_n.jpg",
    "id_album": "-1473448477",
    "description": "KAWAII06042021491592",
    "title": "KAWAII06042021491592",
    "link_img": "https://live.staticflickr.com/65535/49742940636_f6647df838_o.jpg",
    "id_image": "KAWAII06042021491592",
    "count_view": 0
  },
  {
    "link_thumb": "https://live.staticflickr.com/65535/49694521192_97b4274123_n.jpg",
    "id_album": "-643980979",
    "description": "KAWAII24032022050125",
    "title": "KAWAII24032022050125",
    "link_img": "https://live.staticflickr.com/65535/49694521192_64c2887938_o.jpg",
    "id_image": "KAWAII24032022050125",
    "count_view": 0
  },
  {
    "link_thumb": "https://live.staticflickr.com/65535/49742900706_1b37181690_n.jpg",
    "id_album": "-1913845949",
    "description": "KAWAII060420214912227",
    "title": "KAWAII060420214912227",
    "link_img": "https://live.staticflickr.com/65535/49742900706_25e8c5e60f_o.jpg",
    "id_image": "KAWAII060420214912227",
    "count_view": 0
  },
  {
    "link_thumb": "https://live.staticflickr.com/65535/49694421527_9cc44a6831_n.jpg",
    "id_album": "1201366373",
    "description": "KAWAII17022023508",
    "title": "KAWAII17022023508",
    "link_img": "https://live.staticflickr.com/65535/49694421527_8a84d85d98_o.jpg",
    "id_image": "KAWAII17022023508",
    "count_view": 0
  },
  {
    "link_thumb": "https://live.staticflickr.com/65535/49622318298_c76690c0d0_n.jpg",
    "id_album": "-316663319",
    "description": "KAWAII0503202021318",
    "title": "KAWAII0503202021318",
    "link_img": "https://live.staticflickr.com/65535/49622318298_b27af57c0d_o.jpg",
    "id_image": "KAWAII0503202021318",
    "count_view": 0
  },
  {
    "link_thumb": "https://live.staticflickr.com/65535/49693533863_24f57dd157_n.jpg",
    "id_album": "1201366373",
    "description": "KAWAII050320202172",
    "title": "KAWAII050320202172",
    "link_img": "https://live.staticflickr.com/65535/49693533863_6a9820385c_o.jpg",
    "id_image": "KAWAII050320202172",
    "count_view": 0
  },
  {
    "link_thumb": "https://live.staticflickr.com/65535/49548695406_17fe377f76_n.jpg",
    "id_album": "-316663319",
    "description": "KAWAII1702202237360",
    "title": "KAWAII1702202237360",
    "link_img": "https://live.staticflickr.com/65535/49548695406_09b8ea5888_o.jpg",
    "id_image": "KAWAII1702202237360",
    "count_view": 0
  },
  {
    "link_thumb": "https://live.staticflickr.com/65535/49622334648_8e2060c468_n.jpg",
    "id_album": "-406350429",
    "description": "KAWAII050320202169",
    "title": "KAWAII050320202169",
    "link_img": "https://live.staticflickr.com/65535/49622334648_69137388a7_o.jpg",
    "id_image": "KAWAII050320202169",
    "count_view": 0
  },
  {
    "link_thumb": "https://live.staticflickr.com/65535/49743237037_f8b55e401d_n.jpg",
    "id_album": "-1497779911",
    "description": "KAWAII060420214912104",
    "title": "KAWAII060420214912104",
    "link_img": "https://live.staticflickr.com/65535/49743237037_7d4cda70dd_o.jpg",
    "id_image": "KAWAII060420214912104",
    "count_view": 0
  },
  {
    "link_thumb": "https://live.staticflickr.com/65535/49548816602_c6a68a7362_n.jpg",
    "id_album": "-1741487325",
    "description": "KAWAII120918299",
    "title": "KAWAII120918299",
    "link_img": "https://live.staticflickr.com/65535/49548816602_315f899cbd_o.jpg",
    "id_image": "KAWAII120918299",
    "count_view": 0
  },
  {
    "link_thumb": "https://live.staticflickr.com/65535/49726902843_0b4e5de194_n.jpg",
    "id_album": "742877173",
    "description": "KAWAII02042019451244",
    "title": "KAWAII02042019451244",
    "link_img": "https://live.staticflickr.com/65535/49726902843_ce66e3eb60_o.jpg",
    "id_image": "KAWAII02042019451244",
    "count_view": 0
  },
  {
    "link_thumb": "https://live.staticflickr.com/65535/49727434816_02b27db2b0_n.jpg",
    "id_album": "-1497779911",
    "description": "KAWAII1702202238476",
    "title": "KAWAII1702202238476",
    "link_img": "https://live.staticflickr.com/65535/49727434816_7c2163c581_o.jpg",
    "id_image": "KAWAII1702202238476",
    "count_view": 0
  },
  {
    "link_thumb": "https://live.staticflickr.com/65535/49711146092_0f18776a20_n.jpg",
    "id_album": "-1599896063",
    "description": "LITTLEMONK2903201206391",
    "title": "LITTLEMONK2903201206391",
    "link_img": "https://live.staticflickr.com/65535/49711146092_80cafb6a23_o.jpg",
    "id_image": "LITTLEMONK2903201206391",
    "count_view": 0
  },
  {
    "link_thumb": "https://live.staticflickr.com/65535/49693564098_3a86af7d55_n.jpg",
    "id_album": "1201366373",
    "description": "KAWAII170220223439",
    "title": "KAWAII170220223439",
    "link_img": "https://live.staticflickr.com/65535/49693564098_c448ab54f0_o.jpg",
    "id_image": "KAWAII170220223439",
    "count_view": 0
  },
  {
    "link_thumb": "https://live.staticflickr.com/65535/49624020033_40a24b60dc_n.jpg",
    "id_album": "-406350429",
    "description": "KAWAII0503202021293",
    "title": "KAWAII0503202021293",
    "link_img": "https://live.staticflickr.com/65535/49624020033_5c1f61c9d3_o.jpg",
    "id_image": "KAWAII0503202021293",
    "count_view": 0
  },
  {
    "link_thumb": "https://live.staticflickr.com/65535/49694228911_22e5202745_n.jpg",
    "id_album": "1226948986",
    "description": "KAWAII24032022050252",
    "title": "KAWAII24032022050252",
    "link_img": "https://live.staticflickr.com/65535/49694228911_fae9953d61_o.jpg",
    "id_image": "KAWAII24032022050252",
    "count_view": 0
  },
  {
    "link_thumb": "https://live.staticflickr.com/65535/49548836022_9aaa929a07_n.jpg",
    "id_album": "-422187261",
    "description": "KAWAII120918374",
    "title": "KAWAII120918374",
    "link_img": "https://live.staticflickr.com/65535/49548836022_bb62d6afac_o.jpg",
    "id_image": "KAWAII120918374",
    "count_view": 0
  },
  {
    "link_thumb": "https://live.staticflickr.com/65535/49548883037_90f47a531b_n.jpg",
    "id_album": "-1099943053",
    "description": "KAWAII1702202235167",
    "title": "KAWAII1702202235167",
    "link_img": "https://live.staticflickr.com/65535/49548883037_5000aae354_o.jpg",
    "id_image": "KAWAII1702202235167",
    "count_view": 0
  },
  {
    "link_thumb": "https://live.staticflickr.com/65535/49693548643_f895171502_n.jpg",
    "id_album": "-643980979",
    "description": "KAWAII120918221",
    "title": "KAWAII120918221",
    "link_img": "https://live.staticflickr.com/65535/49693548643_4a459079ff_o.jpg",
    "id_image": "KAWAII120918221",
    "count_view": 0
  },
  {
    "link_thumb": "https://live.staticflickr.com/65535/49743275962_48012dd7d3_n.jpg",
    "id_album": "-1862561193",
    "description": "KAWAII060420214917269",
    "title": "KAWAII060420214917269",
    "link_img": "https://live.staticflickr.com/65535/49743275962_ff52811d6c_o.jpg",
    "id_image": "KAWAII060420214917269",
    "count_view": 0
  },
  {
    "link_thumb": "https://live.staticflickr.com/65535/49548911892_ae57db85f4_n.jpg",
    "id_album": "-422187261",
    "description": "KAWAII1702202237309",
    "title": "KAWAII1702202237309",
    "link_img": "https://live.staticflickr.com/65535/49548911892_342fb1ff70_o.jpg",
    "id_image": "KAWAII1702202237309",
    "count_view": 0
  },
  {
    "link_thumb": "https://live.staticflickr.com/65535/49727424266_231be909f8_n.jpg",
    "id_album": "-1694302085",
    "description": "KAWAII020420194508115",
    "title": "KAWAII020420194508115",
    "link_img": "https://live.staticflickr.com/65535/49727424266_7d82170298_o.jpg",
    "id_image": "KAWAII020420194508115",
    "count_view": 0
  },
  {
    "link_thumb": "https://live.staticflickr.com/65535/49694217036_df3cfa0601_n.jpg",
    "id_album": "-1741487325",
    "description": "KAWAII1702202239533",
    "title": "KAWAII1702202239533",
    "link_img": "https://live.staticflickr.com/65535/49694217036_282e1f4953_o.jpg",
    "id_image": "KAWAII1702202239533",
    "count_view": 0
  },
  {
    "link_thumb": "https://live.staticflickr.com/65535/49727745482_f382fce553_n.jpg",
    "id_album": "-1497779911",
    "description": "KAWAII0503202021126",
    "title": "KAWAII0503202021126",
    "link_img": "https://live.staticflickr.com/65535/49727745482_731a05e64f_o.jpg",
    "id_image": "KAWAII0503202021126",
    "count_view": 0
  },
  {
    "link_thumb": "https://live.staticflickr.com/65535/49727763682_55f3936388_n.jpg",
    "id_album": "742877173",
    "description": "KAWAII020420194512206",
    "title": "KAWAII020420194512206",
    "link_img": "https://live.staticflickr.com/65535/49727763682_6017d5924b_o.jpg",
    "id_image": "KAWAII020420194512206",
    "count_view": 0
  },
  {
    "link_thumb": "https://live.staticflickr.com/65535/49548973157_f1d3995a25_n.jpg",
    "id_album": "-1099943053",
    "description": "KAWAII1702202239553",
    "title": "KAWAII1702202239553",
    "link_img": "https://live.staticflickr.com/65535/49548973157_eff501397b_o.jpg",
    "id_image": "KAWAII1702202239553",
    "count_view": 0
  },
  {
    "link_thumb": "https://live.staticflickr.com/65535/49548829712_507eb00ccd_n.jpg",
    "id_album": "-1099943053",
    "description": "KAWAII120918349",
    "title": "KAWAII120918349",
    "link_img": "https://live.staticflickr.com/65535/49548829712_07620e2619_o.jpg",
    "id_image": "KAWAII120918349",
    "count_view": 0
  },
  {
    "link_thumb": "https://live.staticflickr.com/65535/49742906436_89f93e8695_n.jpg",
    "id_album": "1699819648",
    "description": "KAWAII02042019450858",
    "title": "KAWAII02042019450858",
    "link_img": "https://live.staticflickr.com/65535/49742906436_63f0d7b2be_o.jpg",
    "id_image": "KAWAII02042019450858",
    "count_view": 0
  },
  {
    "link_thumb": "https://live.staticflickr.com/65535/49956925207_e3e14a24a6_n.jpg",
    "id_album": "-358592519",
    "description": "KAWAII060420214911229",
    "title": "KAWAII060420214911229",
    "link_img": "https://live.staticflickr.com/65535/49956925207_72f10c8219_o.jpg",
    "id_image": "KAWAII060420214911229",
    "count_view": 0
  },
  {
    "link_thumb": "https://live.staticflickr.com/65535/49694374632_2933d986eb_n.jpg",
    "id_album": "-643980979",
    "description": "KAWAII0503202021195",
    "title": "KAWAII0503202021195",
    "link_img": "https://live.staticflickr.com/65535/49694374632_8924106525_o.jpg",
    "id_image": "KAWAII0503202021195",
    "count_view": 0
  },
  {
    "link_thumb": "https://live.staticflickr.com/65535/49693672713_f0ae745203_n.jpg",
    "id_album": "-1694302085",
    "description": "KAWAII2403202205022",
    "title": "KAWAII2403202205022",
    "link_img": "https://live.staticflickr.com/65535/49693672713_486f4578a4_o.jpg",
    "id_image": "KAWAII2403202205022",
    "count_view": 0
  },
  {
    "link_thumb": "https://live.staticflickr.com/65535/49548771156_3f52ac3eba_n.jpg",
    "id_album": "-316663319",
    "description": "KAWAII17091845",
    "title": "KAWAII17091845",
    "link_img": "https://live.staticflickr.com/65535/49548771156_4ddeb425f3_o.jpg",
    "id_image": "KAWAII17091845",
    "count_view": 0
  },
  {
    "link_thumb": "https://live.staticflickr.com/65535/49742923161_2d7e175f84_n.jpg",
    "id_album": "-316663319",
    "description": "KAWAII060420214913120",
    "title": "KAWAII060420214913120",
    "link_img": "https://live.staticflickr.com/65535/49742923161_e4af605f0b_o.jpg",
    "id_image": "KAWAII060420214913120",
    "count_view": 0
  },
  {
    "link_thumb": "https://live.staticflickr.com/65535/49548710401_22754bc4f3_n.jpg",
    "id_album": "-1431786825",
    "description": "KAWAII1702202238418",
    "title": "KAWAII1702202238418",
    "link_img": "https://live.staticflickr.com/65535/49548710401_ea72394ece_o.jpg",
    "id_image": "KAWAII1702202238418",
    "count_view": 0
  },
  {
    "link_thumb": "https://live.staticflickr.com/65535/49548825167_030b74dbd6_n.jpg",
    "id_album": "-316663319",
    "description": "KAWAII120918330",
    "title": "KAWAII120918330",
    "link_img": "https://live.staticflickr.com/65535/49548825167_4c814af17e_o.jpg",
    "id_image": "KAWAII120918330",
    "count_view": 0
  },
  {
    "link_thumb": "https://live.staticflickr.com/65535/49548925972_dd3fa62419_n.jpg",
    "id_album": "-1694302085",
    "description": "KAWAII1702202237371",
    "title": "KAWAII1702202237371",
    "link_img": "https://live.staticflickr.com/65535/49548925972_2d9bcc6478_o.jpg",
    "id_image": "KAWAII1702202237371",
    "count_view": 0
  },
  {
    "link_thumb": "https://live.staticflickr.com/65535/49694398557_2e6c415fed_n.jpg",
    "id_album": "1201366373",
    "description": "KAWAII120918254",
    "title": "KAWAII120918254",
    "link_img": "https://live.staticflickr.com/65535/49694398557_78605a80fc_o.jpg",
    "id_image": "KAWAII120918254",
    "count_view": 0
  },
  {
    "link_thumb": "https://live.staticflickr.com/65535/49727778152_25a2634b3b_n.jpg",
    "id_album": "1396902986",
    "description": "KAWAII020420194508226",
    "title": "KAWAII020420194508226",
    "link_img": "https://live.staticflickr.com/65535/49727778152_52f8951d06_o.jpg",
    "id_image": "KAWAII020420194508226",
    "count_view": 0
  },
  {
    "link_thumb": "https://live.staticflickr.com/65535/49694216611_d0f7c86d52_n.jpg",
    "id_album": "-1741487325",
    "description": "KAWAII120918249",
    "title": "KAWAII120918249",
    "link_img": "https://live.staticflickr.com/65535/49694216611_86a098ca41_o.jpg",
    "id_image": "KAWAII120918249",
    "count_view": 0
  },
  {
    "link_thumb": "https://live.staticflickr.com/65535/49622292623_9d30ed3033_n.jpg",
    "id_album": "-1432180061",
    "description": "KAWAII0503202021260",
    "title": "KAWAII0503202021260",
    "link_img": "https://live.staticflickr.com/65535/49622292623_f523661a1b_o.jpg",
    "id_image": "KAWAII0503202021260",
    "count_view": 0
  },
  {
    "link_thumb": "https://live.staticflickr.com/65535/49693545028_4fcace62e2_n.jpg",
    "id_album": "1201366373",
    "description": "KAWAII120918187",
    "title": "KAWAII120918187",
    "link_img": "https://live.staticflickr.com/65535/49693545028_31b8221788_o.jpg",
    "id_image": "KAWAII120918187",
    "count_view": 0
  },
  {
    "link_thumb": "https://live.staticflickr.com/65535/49693682353_8b39a5992c_n.jpg",
    "id_album": "46674803",
    "description": "KAWAII24032022050233",
    "title": "KAWAII24032022050233",
    "link_img": "https://live.staticflickr.com/65535/49693682353_ffce88a729_o.jpg",
    "id_image": "KAWAII24032022050233",
    "count_view": 0
  },
  {
    "link_thumb": "https://live.staticflickr.com/65535/49727429106_9a2929dfd7_n.jpg",
    "id_album": "-1741487325",
    "description": "KAWAII020420194511153",
    "title": "KAWAII020420194511153",
    "link_img": "https://live.staticflickr.com/65535/49727429106_bf7d7df1fe_o.jpg",
    "id_image": "KAWAII020420194511153",
    "count_view": 0
  },
  {
    "link_thumb": "https://live.staticflickr.com/65535/49622830401_d62c77434b_n.jpg",
    "id_album": "-316663319",
    "description": "KAWAII0503202021295",
    "title": "KAWAII0503202021295",
    "link_img": "https://live.staticflickr.com/65535/49622830401_1e3e6a8697_o.jpg",
    "id_image": "KAWAII0503202021295",
    "count_view": 0
  },
  {
    "link_thumb": "https://live.staticflickr.com/65535/49726897378_ef4f0cc21d_n.jpg",
    "id_album": "742877173",
    "description": "KAWAII0204201945096",
    "title": "KAWAII0204201945096",
    "link_img": "https://live.staticflickr.com/65535/49726897378_9d1edc6688_o.jpg",
    "id_image": "KAWAII0204201945096",
    "count_view": 0
  },
  {
    "link_thumb": "https://live.staticflickr.com/65535/49622317858_5497f31501_n.jpg",
    "id_album": "-316663319",
    "description": "KAWAII0503202021315",
    "title": "KAWAII0503202021315",
    "link_img": "https://live.staticflickr.com/65535/49622317858_0ecf191dcd_o.jpg",
    "id_image": "KAWAII0503202021315",
    "count_view": 0
  },
  {
    "link_thumb": "https://live.staticflickr.com/65535/49742920946_83d0686ccb_n.jpg",
    "id_album": "-316663319",
    "description": "KAWAII060420214912142",
    "title": "KAWAII060420214912142",
    "link_img": "https://live.staticflickr.com/65535/49742920946_b4f8cbc8e9_o.jpg",
    "id_image": "KAWAII060420214912142",
    "count_view": 0
  },
  {
    "link_thumb": "https://live.staticflickr.com/65535/49623078737_e12156ab87_n.jpg",
    "id_album": "-1432180061",
    "description": "KAWAII0503202021159",
    "title": "KAWAII0503202021159",
    "link_img": "https://live.staticflickr.com/65535/49623078737_ee4fde345c_o.jpg",
    "id_image": "KAWAII0503202021159",
    "count_view": 0
  },
  {
    "link_thumb": "https://live.staticflickr.com/65535/49592951792_516da0925f_n.jpg",
    "id_album": "-1741487325",
    "description": "KAWAII170220223325",
    "title": "KAWAII170220223325",
    "link_img": "https://live.staticflickr.com/65535/49592951792_b284ba8523_o.jpg",
    "id_image": "KAWAII170220223325",
    "count_view": 0
  },
  {
    "link_thumb": "https://live.staticflickr.com/65535/49694411672_12889a3713_n.jpg",
    "id_album": "1201366373",
    "description": "KAWAII1702202235205",
    "title": "KAWAII1702202235205",
    "link_img": "https://live.staticflickr.com/65535/49694411672_18fc847755_o.jpg",
    "id_image": "KAWAII1702202235205",
    "count_view": 0
  },
  {
    "link_thumb": "https://live.staticflickr.com/65535/49548694021_aac1a408ab_n.jpg",
    "id_album": "-422187261",
    "description": "KAWAII1702202237355",
    "title": "KAWAII1702202237355",
    "link_img": "https://live.staticflickr.com/65535/49548694021_8570f5a361_o.jpg",
    "id_image": "KAWAII1702202237355",
    "count_view": 0
  },
  {
    "link_thumb": "https://live.staticflickr.com/65535/49548927977_c4b7791b97_n.jpg",
    "id_album": "-422187261",
    "description": "KAWAII1702202237381",
    "title": "KAWAII1702202237381",
    "link_img": "https://live.staticflickr.com/65535/49548927977_03f5048ee0_o.jpg",
    "id_image": "KAWAII1702202237381",
    "count_view": 0
  },
  {
    "link_thumb": "https://live.staticflickr.com/65535/49548560621_51602de8fb_n.jpg",
    "id_album": "-1741487325",
    "description": "KAWAII120918165",
    "title": "KAWAII120918165",
    "link_img": "https://live.staticflickr.com/65535/49548560621_5f6ce9a1d9_o.jpg",
    "id_image": "KAWAII120918165",
    "count_view": 0
  },
  {
    "link_thumb": "https://live.staticflickr.com/65535/49548885487_672752375d_n.jpg",
    "id_album": "431597977",
    "description": "KAWAII1702202235178",
    "title": "KAWAII1702202235178",
    "link_img": "https://live.staticflickr.com/65535/49548885487_3e60b2de35_o.jpg",
    "id_image": "KAWAII1702202235178",
    "count_view": 0
  },
  {
    "link_thumb": "https://live.staticflickr.com/65535/49742950221_4312b49a6a_n.jpg",
    "id_album": "-1862561193",
    "description": "KAWAII060420214912115",
    "title": "KAWAII060420214912115",
    "link_img": "https://live.staticflickr.com/65535/49742950221_7ea92642e8_o.jpg",
    "id_image": "KAWAII060420214912115",
    "count_view": 0
  },
  {
    "link_thumb": "https://live.staticflickr.com/65535/49726903053_00683872c3_n.jpg",
    "id_album": "742877173",
    "description": "KAWAII020420194513108",
    "title": "KAWAII020420194513108",
    "link_img": "https://live.staticflickr.com/65535/49726903053_5fe085c133_o.jpg",
    "id_image": "KAWAII020420194513108",
    "count_view": 0
  },
  {
    "link_thumb": "https://live.staticflickr.com/65535/49622306623_94c8e08c1d_n.jpg",
    "id_album": "-316663319",
    "description": "KAWAII0503202021192",
    "title": "KAWAII0503202021192",
    "link_img": "https://live.staticflickr.com/65535/49622306623_572c1ca42c_o.jpg",
    "id_image": "KAWAII0503202021192",
    "count_view": 0
  },
  {
    "link_thumb": "https://live.staticflickr.com/65535/49727468541_66b6234f0a_n.jpg",
    "id_album": "-1862561193",
    "description": "KAWAII020420194511110",
    "title": "KAWAII020420194511110",
    "link_img": "https://live.staticflickr.com/65535/49727468541_15d5512306_o.jpg",
    "id_image": "KAWAII020420194511110",
    "count_view": 0
  },
  {
    "link_thumb": "https://live.staticflickr.com/65535/49548780792_9b7e4af362_n.jpg",
    "id_album": "-422187261",
    "description": "KAWAII120918137",
    "title": "KAWAII120918137",
    "link_img": "https://live.staticflickr.com/65535/49548780792_3a9fd6b134_o.jpg",
    "id_image": "KAWAII120918137",
    "count_view": 0
  },
  {
    "link_thumb": "https://live.staticflickr.com/65535/49726888853_b3dbe268ea_n.jpg",
    "id_album": "-316663319",
    "description": "KAWAII02042019450894",
    "title": "KAWAII02042019450894",
    "link_img": "https://live.staticflickr.com/65535/49726888853_11a6296c9a_o.jpg",
    "id_image": "KAWAII02042019450894",
    "count_view": 0
  },
  {
    "link_thumb": "https://live.staticflickr.com/65535/49693686563_02b03fcd19_n.jpg",
    "id_album": "1226948986",
    "description": "KAWAII24032022050259",
    "title": "KAWAII24032022050259",
    "link_img": "https://live.staticflickr.com/65535/49693686563_edfd6d82e3_o.jpg",
    "id_image": "KAWAII24032022050259",
    "count_view": 0
  }
]