[
  {
    "link_thumb": "https://live.staticflickr.com/65535/49727765352_0869067462_n.jpg",
    "id_album": "742877173",
    "description": "KAWAII02042019451320",
    "title": "KAWAII02042019451320",
    "link_img": "https://live.staticflickr.com/65535/49727765352_8bb5a36140_o.jpg",
    "id_image": "KAWAII02042019451320",
    "count_view": 0
  },
  {
    "link_thumb": "https://live.staticflickr.com/65535/49743246732_2d10fc3bb7_n.jpg",
    "id_album": "-316663319",
    "description": "KAWAII06042021491261",
    "title": "KAWAII06042021491261",
    "link_img": "https://live.staticflickr.com/65535/49743246732_5b45f39239_o.jpg",
    "id_image": "KAWAII06042021491261",
    "count_view": 0
  },
  {
    "link_thumb": "https://live.staticflickr.com/65535/49548107723_a6803ce39d_n.jpg",
    "id_album": "-422187261",
    "description": "KAWAII12091839",
    "title": "KAWAII12091839",
    "link_img": "https://live.staticflickr.com/65535/49548107723_3fc0b3dfa7_o.jpg",
    "id_image": "KAWAII12091839",
    "count_view": 0
  },
  {
    "link_thumb": "https://live.staticflickr.com/65535/49694385017_b791a594e0_n.jpg",
    "id_album": "1201366373",
    "description": "KAWAII12091812",
    "title": "KAWAII12091812",
    "link_img": "https://live.staticflickr.com/65535/49694385017_dd00ae1d86_o.jpg",
    "id_image": "KAWAII12091812",
    "count_view": 0
  },
  {
    "link_thumb": "https://live.staticflickr.com/65535/49742915941_883ca8ddcd_n.jpg",
    "id_album": "-1497779911",
    "description": "KAWAII060420214918276",
    "title": "KAWAII060420214918276",
    "link_img": "https://live.staticflickr.com/65535/49742915941_86224c14f7_o.jpg",
    "id_image": "KAWAII060420214918276",
    "count_view": 0
  },
  {
    "link_thumb": "https://live.staticflickr.com/65535/49622831141_40b5253569_n.jpg",
    "id_album": "-1694302085",
    "description": "KAWAII050320202130",
    "title": "KAWAII050320202130",
    "link_img": "https://live.staticflickr.com/65535/49622831141_39b6005f93_o.jpg",
    "id_image": "KAWAII050320202130",
    "count_view": 0
  },
  {
    "link_thumb": "https://live.staticflickr.com/65535/49548935857_227d1e92ef_n.jpg",
    "id_album": "-422187261",
    "description": "KAWAII1702202238411",
    "title": "KAWAII1702202238411",
    "link_img": "https://live.staticflickr.com/65535/49548935857_20b73201c8_o.jpg",
    "id_image": "KAWAII1702202238411",
    "count_view": 0
  },
  {
    "link_thumb": "https://live.staticflickr.com/65535/49727443351_559cf78630_n.jpg",
    "id_album": "742877173",
    "description": "KAWAII02042019450867",
    "title": "KAWAII02042019450867",
    "link_img": "https://live.staticflickr.com/65535/49727443351_48a92a949e_o.jpg",
    "id_image": "KAWAII02042019450867",
    "count_view": 0
  },
  {
    "link_thumb": "https://live.staticflickr.com/65535/49694070071_dde1f6737b_n.jpg",
    "id_album": "-643980979",
    "description": "KAWAII0503202021118",
    "title": "KAWAII0503202021118",
    "link_img": "https://live.staticflickr.com/65535/49694070071_8aebd40329_o.jpg",
    "id_image": "KAWAII0503202021118",
    "count_view": 0
  },
  {
    "link_thumb": "https://live.staticflickr.com/65535/49726903053_00683872c3_n.jpg",
    "id_album": "742877173",
    "description": "KAWAII020420194513108",
    "title": "KAWAII020420194513108",
    "link_img": "https://live.staticflickr.com/65535/49726903053_5fe085c133_o.jpg",
    "id_image": "KAWAII020420194513108",
    "count_view": 0
  },
  {
    "link_thumb": "https://live.staticflickr.com/65535/49693548538_9dba595413_n.jpg",
    "id_album": "1201366373",
    "description": "KAWAII12091822",
    "title": "KAWAII12091822",
    "link_img": "https://live.staticflickr.com/65535/49693548538_28b68d2128_o.jpg",
    "id_image": "KAWAII12091822",
    "count_view": 0
  },
  {
    "link_thumb": "https://live.staticflickr.com/65535/49742407823_323f75a2aa_n.jpg",
    "id_album": "-1431786825",
    "description": "KAWAII060420214914275",
    "title": "KAWAII060420214914275",
    "link_img": "https://live.staticflickr.com/65535/49742407823_2e8d533bf4_o.jpg",
    "id_image": "KAWAII060420214914275",
    "count_view": 0
  },
  {
    "link_thumb": "https://live.staticflickr.com/65535/49693565083_f554226746_n.jpg",
    "id_album": "-643980979",
    "description": "KAWAII170220223495",
    "title": "KAWAII170220223495",
    "link_img": "https://live.staticflickr.com/65535/49693565083_32ab5df91c_o.jpg",
    "id_image": "KAWAII170220223495",
    "count_view": 0
  },
  {
    "link_thumb": "https://live.staticflickr.com/65535/49694519607_e4b83724e6_n.jpg",
    "id_album": "-1694302085",
    "description": "KAWAII24032022050240",
    "title": "KAWAII24032022050240",
    "link_img": "https://live.staticflickr.com/65535/49694519607_620c1d6101_o.jpg",
    "id_image": "KAWAII24032022050240",
    "count_view": 0
  },
  {
    "link_thumb": "https://live.staticflickr.com/65535/49727763412_a8a509b1fd_n.jpg",
    "id_album": "742877173",
    "description": "KAWAII020420194512174",
    "title": "KAWAII020420194512174",
    "link_img": "https://live.staticflickr.com/65535/49727763412_45efa3caa1_o.jpg",
    "id_image": "KAWAII020420194512174",
    "count_view": 0
  },
  {
    "link_thumb": "https://live.staticflickr.com/65535/49694370822_2deb15b120_n.jpg",
    "id_album": "-1432180061",
    "description": "KAWAII120918222",
    "title": "KAWAII120918222",
    "link_img": "https://live.staticflickr.com/65535/49694370822_b592161bf5_o.jpg",
    "id_image": "KAWAII120918222",
    "count_view": 0
  },
  {
    "link_thumb": "https://live.staticflickr.com/65535/49548885487_672752375d_n.jpg",
    "id_album": "431597977",
    "description": "KAWAII1702202235178",
    "title": "KAWAII1702202235178",
    "link_img": "https://live.staticflickr.com/65535/49548885487_3e60b2de35_o.jpg",
    "id_image": "KAWAII1702202235178",
    "count_view": 0
  },
  {
    "link_thumb": "https://live.staticflickr.com/65535/49548830407_1885e519e1_n.jpg",
    "id_album": "-1099943053",
    "description": "KAWAII120918351",
    "title": "KAWAII120918351",
    "link_img": "https://live.staticflickr.com/65535/49548830407_e3d8f85daa_o.jpg",
    "id_image": "KAWAII120918351",
    "count_view": 0
  },
  {
    "link_thumb": "https://live.staticflickr.com/65535/49726897213_1c815472a8_n.jpg",
    "id_album": "742877173",
    "description": "KAWAII02042019450943",
    "title": "KAWAII02042019450943",
    "link_img": "https://live.staticflickr.com/65535/49726897213_f82e89b21d_o.jpg",
    "id_image": "KAWAII02042019450943",
    "count_view": 0
  },
  {
    "link_thumb": "https://live.staticflickr.com/65535/49622833516_ae393cdda7_n.jpg",
    "id_album": "-316663319",
    "description": "KAWAII0503202021325",
    "title": "KAWAII0503202021325",
    "link_img": "https://live.staticflickr.com/65535/49622833516_076f9d9752_o.jpg",
    "id_image": "KAWAII0503202021325",
    "count_view": 0
  },
  {
    "link_thumb": "https://live.staticflickr.com/65535/49548674331_ec9a153fe8_n.jpg",
    "id_album": "-422187261",
    "description": "KAWAII1702202236260",
    "title": "KAWAII1702202236260",
    "link_img": "https://live.staticflickr.com/65535/49548674331_014171d2dd_o.jpg",
    "id_image": "KAWAII1702202236260",
    "count_view": 0
  },
  {
    "link_thumb": "https://live.staticflickr.com/65535/49548173768_b0c339bbb9_n.jpg",
    "id_album": "1396902986",
    "description": "KAWAII1702202236263",
    "title": "KAWAII1702202236263",
    "link_img": "https://live.staticflickr.com/65535/49548173768_00ebf4e24e_o.jpg",
    "id_image": "KAWAII1702202236263",
    "count_view": 0
  },
  {
    "link_thumb": "https://live.staticflickr.com/65535/49548635651_3666feeb14_n.jpg",
    "id_album": "1396902986",
    "description": "KAWAII170220223448",
    "title": "KAWAII170220223448",
    "link_img": "https://live.staticflickr.com/65535/49548635651_1d233f666d_o.jpg",
    "id_image": "KAWAII170220223448",
    "count_view": 0
  },
  {
    "link_thumb": "https://live.staticflickr.com/65535/49742947631_d1ebfe6c19_n.jpg",
    "id_album": "1396902986",
    "description": "KAWAII060420214913286",
    "title": "KAWAII060420214913286",
    "link_img": "https://live.staticflickr.com/65535/49742947631_f819898538_o.jpg",
    "id_image": "KAWAII060420214913286",
    "count_view": 0
  },
  {
    "link_thumb": "https://live.staticflickr.com/65535/49693568638_859062b459_n.jpg",
    "id_album": "1201366373",
    "description": "KAWAII1702202237389",
    "title": "KAWAII1702202237389",
    "link_img": "https://live.staticflickr.com/65535/49693568638_23620a4415_o.jpg",
    "id_image": "KAWAII1702202237389",
    "count_view": 0
  },
  {
    "link_thumb": "https://live.staticflickr.com/65535/49727448281_b4ec788374_n.jpg",
    "id_album": "742877173",
    "description": "KAWAII020420194511265",
    "title": "KAWAII020420194511265",
    "link_img": "https://live.staticflickr.com/65535/49727448281_40f223619f_o.jpg",
    "id_image": "KAWAII020420194511265",
    "count_view": 0
  },
  {
    "link_thumb": "https://live.staticflickr.com/65535/49694420347_b57abdc279_n.jpg",
    "id_album": "-643980979",
    "description": "KAWAII17022023468",
    "title": "KAWAII17022023468",
    "link_img": "https://live.staticflickr.com/65535/49694420347_5af6f65a0f_o.jpg",
    "id_image": "KAWAII17022023468",
    "count_view": 0
  },
  {
    "link_thumb": "https://live.staticflickr.com/65535/49693578178_f5f851143b_n.jpg",
    "id_album": "-643980979",
    "description": "KAWAII2702202351144",
    "title": "KAWAII2702202351144",
    "link_img": "https://live.staticflickr.com/65535/49693578178_f2df832e5c_o.jpg",
    "id_image": "KAWAII2702202351144",
    "count_view": 0
  },
  {
    "link_thumb": "https://live.staticflickr.com/65535/49743253787_13d6aba4d4_n.jpg",
    "id_album": "-316663319",
    "description": "KAWAII06042021491559",
    "title": "KAWAII06042021491559",
    "link_img": "https://live.staticflickr.com/65535/49743253787_9168c4f110_o.jpg",
    "id_image": "KAWAII06042021491559",
    "count_view": 0
  },
  {
    "link_thumb": "https://live.staticflickr.com/65535/49710820856_27331632e1_n.jpg",
    "id_album": "-1599896063",
    "description": "LITTLEMONK2903201206345",
    "title": "LITTLEMONK2903201206345",
    "link_img": "https://live.staticflickr.com/65535/49710820856_873a5f0ae1_o.jpg",
    "id_image": "LITTLEMONK2903201206345",
    "count_view": 0
  },
  {
    "link_thumb": "https://live.staticflickr.com/65535/49694113176_4998b08d75_n.jpg",
    "id_album": "-643980979",
    "description": "KAWAII1702202238496",
    "title": "KAWAII1702202238496",
    "link_img": "https://live.staticflickr.com/65535/49694113176_0a4c515e09_o.jpg",
    "id_image": "KAWAII1702202238496",
    "count_view": 0
  },
  {
    "link_thumb": "https://live.staticflickr.com/65535/49592207698_9b9319dfcf_n.jpg",
    "id_album": "-1741487325",
    "description": "KAWAII1702202238422",
    "title": "KAWAII1702202238422",
    "link_img": "https://live.staticflickr.com/65535/49592207698_6744df8991_o.jpg",
    "id_image": "KAWAII1702202238422",
    "count_view": 0
  },
  {
    "link_thumb": "https://live.staticflickr.com/65535/49592228118_d708974308_n.jpg",
    "id_album": "949200594",
    "description": "KAWAII2702202351134",
    "title": "KAWAII2702202351134",
    "link_img": "https://live.staticflickr.com/65535/49592228118_c90b3e7973_o.jpg",
    "id_image": "KAWAII2702202351134",
    "count_view": 0
  },
  {
    "link_thumb": "https://live.staticflickr.com/65535/49548699601_ca3c47dd25_n.jpg",
    "id_album": "-422187261",
    "description": "KAWAII1702202237376",
    "title": "KAWAII1702202237376",
    "link_img": "https://live.staticflickr.com/65535/49548699601_7c11111924_o.jpg",
    "id_image": "KAWAII1702202237376",
    "count_view": 0
  },
  {
    "link_thumb": "https://live.staticflickr.com/65535/49622303833_10c06cfc6a_n.jpg",
    "id_album": "-316663319",
    "description": "KAWAII0503202021153",
    "title": "KAWAII0503202021153",
    "link_img": "https://live.staticflickr.com/65535/49622303833_e829c0ab56_o.jpg",
    "id_image": "KAWAII0503202021153",
    "count_view": 0
  },
  {
    "link_thumb": "https://live.staticflickr.com/65535/49694220881_4301aa3dea_n.jpg",
    "id_album": "-1432180061",
    "description": "KAWAII1702202237315",
    "title": "KAWAII1702202237315",
    "link_img": "https://live.staticflickr.com/65535/49694220881_2fa35d596c_o.jpg",
    "id_image": "KAWAII1702202237315",
    "count_view": 0
  },
  {
    "link_thumb": "https://live.staticflickr.com/65535/49727784842_cbc255ac83_n.jpg",
    "id_album": "-1862561193",
    "description": "KAWAII02042019451180",
    "title": "KAWAII02042019451180",
    "link_img": "https://live.staticflickr.com/65535/49727784842_13f09cf695_o.jpg",
    "id_image": "KAWAII02042019451180",
    "count_view": 0
  },
  {
    "link_thumb": "https://live.staticflickr.com/65535/49548801802_c5eeb19bf0_n.jpg",
    "id_album": "-422187261",
    "description": "KAWAII12091823",
    "title": "KAWAII12091823",
    "link_img": "https://live.staticflickr.com/65535/49548801802_b1f6c4d5de_o.jpg",
    "id_image": "KAWAII12091823",
    "count_view": 0
  },
  {
    "link_thumb": "https://live.staticflickr.com/65535/49694102456_7180e81e0c_n.jpg",
    "id_album": "1201366373",
    "description": "KAWAII12091850",
    "title": "KAWAII12091850",
    "link_img": "https://live.staticflickr.com/65535/49694102456_a37abb310b_o.jpg",
    "id_image": "KAWAII12091850",
    "count_view": 0
  },
  {
    "link_thumb": "https://live.staticflickr.com/65535/49622307308_3576589ac7_n.jpg",
    "id_album": "-316663319",
    "description": "KAWAII0503202021198",
    "title": "KAWAII0503202021198",
    "link_img": "https://live.staticflickr.com/65535/49622307308_652f5de480_o.jpg",
    "id_image": "KAWAII0503202021198",
    "count_view": 0
  },
  {
    "link_thumb": "https://live.staticflickr.com/65535/49742354763_4f8e3fc9e6_n.jpg",
    "id_album": "-1913845949",
    "description": "KAWAII06042021491432",
    "title": "KAWAII06042021491432",
    "link_img": "https://live.staticflickr.com/65535/49742354763_a1c9206fa6_o.jpg",
    "id_image": "KAWAII06042021491432",
    "count_view": 0
  },
  {
    "link_thumb": "https://live.staticflickr.com/65535/49592206198_a695eda715_n.jpg",
    "id_album": "1396902986",
    "description": "KAWAII27022023517",
    "title": "KAWAII27022023517",
    "link_img": "https://live.staticflickr.com/65535/49592206198_a184daf249_o.jpg",
    "id_image": "KAWAII27022023517",
    "count_view": 0
  },
  {
    "link_thumb": "https://live.staticflickr.com/65535/49549724838_49f72f0e2b_n.jpg",
    "id_album": "-1694302085",
    "description": "KAWAII12091834",
    "title": "KAWAII12091834",
    "link_img": "https://live.staticflickr.com/65535/49549724838_77a3d2a921_o.jpg",
    "id_image": "KAWAII12091834",
    "count_view": 0
  },
  {
    "link_thumb": "https://live.staticflickr.com/65535/49592721721_e06e36db65_n.jpg",
    "id_album": "-316663319",
    "description": "KAWAII270220235191",
    "title": "KAWAII270220235191",
    "link_img": "https://live.staticflickr.com/65535/49592721721_5b0f60168c_o.jpg",
    "id_image": "KAWAII270220235191",
    "count_view": 0
  },
  {
    "link_thumb": "https://live.staticflickr.com/65535/49592722066_77739185e0_n.jpg",
    "id_album": "-316663319",
    "description": "KAWAII270220235194",
    "title": "KAWAII270220235194",
    "link_img": "https://live.staticflickr.com/65535/49592722066_a13ae2d18a_o.jpg",
    "id_image": "KAWAII270220235194",
    "count_view": 0
  },
  {
    "link_thumb": "https://live.staticflickr.com/65535/49727435321_745f69d1d7_n.jpg",
    "id_album": "-1497779911",
    "description": "KAWAII17091851",
    "title": "KAWAII17091851",
    "link_img": "https://live.staticflickr.com/65535/49727435321_421dab3039_o.jpg",
    "id_image": "KAWAII17091851",
    "count_view": 0
  },
  {
    "link_thumb": "https://live.staticflickr.com/65535/49742395988_a59f5d3f3d_n.jpg",
    "id_album": "-1779286820",
    "description": "KAWAII060420214914257",
    "title": "KAWAII060420214914257",
    "link_img": "https://live.staticflickr.com/65535/49742395988_e3017805e1_o.jpg",
    "id_image": "KAWAII060420214914257",
    "count_view": 0
  },
  {
    "link_thumb": "https://live.staticflickr.com/65535/49548119988_4e6f381ed7_n.jpg",
    "id_album": "-316663319",
    "description": "KAWAII12091898",
    "title": "KAWAII12091898",
    "link_img": "https://live.staticflickr.com/65535/49548119988_638fe1d01a_o.jpg",
    "id_image": "KAWAII12091898",
    "count_view": 0
  },
  {
    "link_thumb": "https://live.staticflickr.com/65535/49592961902_36a60df5c5_n.jpg",
    "id_album": "-316663319",
    "description": "KAWAII270220235167",
    "title": "KAWAII270220235167",
    "link_img": "https://live.staticflickr.com/65535/49592961902_d801422df7_o.jpg",
    "id_image": "KAWAII270220235167",
    "count_view": 0
  },
  {
    "link_thumb": "https://live.staticflickr.com/65535/49742376258_e2dfae3b26_n.jpg",
    "id_album": "-316663319",
    "description": "KAWAII06042021491321",
    "title": "KAWAII06042021491321",
    "link_img": "https://live.staticflickr.com/65535/49742376258_131657c0c2_o.jpg",
    "id_image": "KAWAII06042021491321",
    "count_view": 0
  },
  {
    "link_thumb": "https://live.staticflickr.com/65535/49742944306_1e3a76d28c_n.jpg",
    "id_album": "-1779286820",
    "description": "KAWAII060420214915255",
    "title": "KAWAII060420214915255",
    "link_img": "https://live.staticflickr.com/65535/49742944306_e0b574dd6a_o.jpg",
    "id_image": "KAWAII060420214915255",
    "count_view": 0
  },
  {
    "link_thumb": "https://live.staticflickr.com/65535/49727787807_becb0d173f_n.jpg",
    "id_album": "-1099943053",
    "description": "KAWAII020420194508203",
    "title": "KAWAII020420194508203",
    "link_img": "https://live.staticflickr.com/65535/49727787807_d91e1c9be7_o.jpg",
    "id_image": "KAWAII020420194508203",
    "count_view": 0
  },
  {
    "link_thumb": "https://live.staticflickr.com/65535/49726894163_b411a85f1f_n.jpg",
    "id_album": "742877173",
    "description": "KAWAII020420194508123",
    "title": "KAWAII020420194508123",
    "link_img": "https://live.staticflickr.com/65535/49726894163_5942702466_o.jpg",
    "id_image": "KAWAII020420194508123",
    "count_view": 0
  },
  {
    "link_thumb": "https://live.staticflickr.com/65535/49548623586_f55e5b16ef_n.jpg",
    "id_album": "-316663319",
    "description": "KAWAII170220223315",
    "title": "KAWAII170220223315",
    "link_img": "https://live.staticflickr.com/65535/49548623586_c374067c56_o.jpg",
    "id_image": "KAWAII170220223315",
    "count_view": 0
  },
  {
    "link_thumb": "https://live.staticflickr.com/65535/49694219401_04e4444cf2_n.jpg",
    "id_album": "-643980979",
    "description": "KAWAII24032022050238",
    "title": "KAWAII24032022050238",
    "link_img": "https://live.staticflickr.com/65535/49694219401_863f4476c1_o.jpg",
    "id_image": "KAWAII24032022050238",
    "count_view": 0
  },
  {
    "link_thumb": "https://live.staticflickr.com/65535/49742362603_1a5c03cb89_n.jpg",
    "id_album": "-1694302085",
    "description": "KAWAII060420214913294",
    "title": "KAWAII060420214913294",
    "link_img": "https://live.staticflickr.com/65535/49742362603_df8428ccb2_o.jpg",
    "id_image": "KAWAII060420214913294",
    "count_view": 0
  },
  {
    "link_thumb": "https://live.staticflickr.com/65535/49552523746_a8b4097645_n.jpg",
    "id_album": "1396902986",
    "description": "KAWAII1209182518022020599",
    "title": "KAWAII1209182518022020599",
    "link_img": "https://live.staticflickr.com/65535/49552523746_1566cd17a8_o.jpg",
    "id_image": "KAWAII1209182518022020599",
    "count_view": 0
  },
  {
    "link_thumb": "https://live.staticflickr.com/65535/49694400712_56391747d5_n.jpg",
    "id_album": "1201366373",
    "description": "KAWAII120918277",
    "title": "KAWAII120918277",
    "link_img": "https://live.staticflickr.com/65535/49694400712_8c7d1ee6bb_o.jpg",
    "id_image": "KAWAII120918277",
    "count_view": 0
  },
  {
    "link_thumb": "https://live.staticflickr.com/65535/49743236852_27bb7c199f_n.jpg",
    "id_album": "-1497779911",
    "description": "KAWAII060420214911124",
    "title": "KAWAII060420214911124",
    "link_img": "https://live.staticflickr.com/65535/49743236852_719f1ee19a_o.jpg",
    "id_image": "KAWAII060420214911124",
    "count_view": 0
  },
  {
    "link_thumb": "https://live.staticflickr.com/65535/49694115256_2cb04d6c80_n.jpg",
    "id_album": "-643980979",
    "description": "KAWAII170220234611",
    "title": "KAWAII170220234611",
    "link_img": "https://live.staticflickr.com/65535/49694115256_299f262f28_o.jpg",
    "id_image": "KAWAII170220234611",
    "count_view": 0
  },
  {
    "link_thumb": "https://live.staticflickr.com/65535/49694378102_b34904131f_n.jpg",
    "id_album": "-643980979",
    "description": "KAWAII050320202133",
    "title": "KAWAII050320202133",
    "link_img": "https://live.staticflickr.com/65535/49694378102_8fa954c923_o.jpg",
    "id_image": "KAWAII050320202133",
    "count_view": 0
  },
  {
    "link_thumb": "https://live.staticflickr.com/65535/49548271533_25e62fa621_n.jpg",
    "id_album": "-1741487325",
    "description": "KAWAII17091848",
    "title": "KAWAII17091848",
    "link_img": "https://live.staticflickr.com/65535/49548271533_37461da76b_o.jpg",
    "id_image": "KAWAII17091848",
    "count_view": 0
  },
  {
    "link_thumb": "https://live.staticflickr.com/65535/49694223711_9936d6d2f6_n.jpg",
    "id_album": "-1862561193",
    "description": "KAWAII24032022050147",
    "title": "KAWAII24032022050147",
    "link_img": "https://live.staticflickr.com/65535/49694223711_6553dda6a5_o.jpg",
    "id_image": "KAWAII24032022050147",
    "count_view": 0
  },
  {
    "link_thumb": "https://live.staticflickr.com/65535/49548991617_4db3ec9d8e_n.jpg",
    "id_album": "-422187261",
    "description": "KAWAII17091824",
    "title": "KAWAII17091824",
    "link_img": "https://live.staticflickr.com/65535/49548991617_f9fd738220_o.jpg",
    "id_image": "KAWAII17091824",
    "count_view": 0
  },
  {
    "link_thumb": "https://live.staticflickr.com/65535/49592713936_1da375d6a3_n.jpg",
    "id_album": "-316663319",
    "description": "KAWAII2702202351115",
    "title": "KAWAII2702202351115",
    "link_img": "https://live.staticflickr.com/65535/49592713936_b7d3481be7_o.jpg",
    "id_image": "KAWAII2702202351115",
    "count_view": 0
  },
  {
    "link_thumb": "https://live.staticflickr.com/65535/49694079036_c5b22da7ce_n.jpg",
    "id_album": "-643980979",
    "description": "KAWAII050320202184",
    "title": "KAWAII050320202184",
    "link_img": "https://live.staticflickr.com/65535/49694079036_5552a877d7_o.jpg",
    "id_image": "KAWAII050320202184",
    "count_view": 0
  },
  {
    "link_thumb": "https://live.staticflickr.com/65535/49727428046_1b7b2dda83_n.jpg",
    "id_album": "-1694302085",
    "description": "KAWAII190220211134",
    "title": "KAWAII190220211134",
    "link_img": "https://live.staticflickr.com/65535/49727428046_06fc7fe4d0_o.jpg",
    "id_image": "KAWAII190220211134",
    "count_view": 0
  },
  {
    "link_thumb": "https://live.staticflickr.com/65535/49742408543_f5f39b9b01_n.jpg",
    "id_album": "-1431786825",
    "description": "KAWAII060420214915193",
    "title": "KAWAII060420214915193",
    "link_img": "https://live.staticflickr.com/65535/49742408543_e1cc061ec5_o.jpg",
    "id_image": "KAWAII060420214915193",
    "count_view": 0
  },
  {
    "link_thumb": "https://live.staticflickr.com/65535/49743281657_9e4050ddeb_n.jpg",
    "id_album": "1226948986",
    "description": "KAWAII060420214918100",
    "title": "KAWAII060420214918100",
    "link_img": "https://live.staticflickr.com/65535/49743281657_b5d2110d32_o.jpg",
    "id_image": "KAWAII060420214918100",
    "count_view": 0
  },
  {
    "link_thumb": "https://live.staticflickr.com/65535/49548681796_a26cc947ba_n.jpg",
    "id_album": "-422187261",
    "description": "KAWAII1702202236299",
    "title": "KAWAII1702202236299",
    "link_img": "https://live.staticflickr.com/65535/49548681796_cb8451079e_o.jpg",
    "id_image": "KAWAII1702202236299",
    "count_view": 0
  },
  {
    "link_thumb": "https://live.staticflickr.com/65535/49548916167_7193644414_n.jpg",
    "id_album": "1396902986",
    "description": "KAWAII1702202237330",
    "title": "KAWAII1702202237330",
    "link_img": "https://live.staticflickr.com/65535/49548916167_ee64254e9d_o.jpg",
    "id_image": "KAWAII1702202237330",
    "count_view": 0
  },
  {
    "link_thumb": "https://live.staticflickr.com/65535/49622841731_293aeeafdf_n.jpg",
    "id_album": "-406350429",
    "description": "KAWAII0503202021110",
    "title": "KAWAII0503202021110",
    "link_img": "https://live.staticflickr.com/65535/49622841731_32a943eaf2_o.jpg",
    "id_image": "KAWAII0503202021110",
    "count_view": 0
  },
  {
    "link_thumb": "https://live.staticflickr.com/65535/49742949226_03384e63de_n.jpg",
    "id_album": "1396902986",
    "description": "KAWAII06042021491527",
    "title": "KAWAII06042021491527",
    "link_img": "https://live.staticflickr.com/65535/49742949226_a8176444e2_o.jpg",
    "id_image": "KAWAII06042021491527",
    "count_view": 0
  },
  {
    "link_thumb": "https://live.staticflickr.com/65535/49742356873_a75b1528ac_n.jpg",
    "id_album": "-1913845949",
    "description": "KAWAII06042021491565",
    "title": "KAWAII06042021491565",
    "link_img": "https://live.staticflickr.com/65535/49742356873_ab7a02cb9b_o.jpg",
    "id_image": "KAWAII06042021491565",
    "count_view": 0
  },
  {
    "link_thumb": "https://live.staticflickr.com/65535/49693552923_f17c02dde2_n.jpg",
    "id_album": "1201366373",
    "description": "KAWAII12091825180220205943",
    "title": "KAWAII12091825180220205943",
    "link_img": "https://live.staticflickr.com/65535/49693552923_0114e008e9_o.jpg",
    "id_image": "KAWAII12091825180220205943",
    "count_view": 0
  },
  {
    "link_thumb": "https://live.staticflickr.com/65535/49742409188_22e72030a2_n.jpg",
    "id_album": "-1431786825",
    "description": "KAWAII060420214917183",
    "title": "KAWAII060420214917183",
    "link_img": "https://live.staticflickr.com/65535/49742409188_e13fbcc783_o.jpg",
    "id_image": "KAWAII060420214917183",
    "count_view": 0
  },
  {
    "link_thumb": "https://live.staticflickr.com/65535/49694404137_1efbe86641_n.jpg",
    "id_album": "1201366373",
    "description": "KAWAII12091844",
    "title": "KAWAII12091844",
    "link_img": "https://live.staticflickr.com/65535/49694404137_96cff5090f_o.jpg",
    "id_image": "KAWAII12091844",
    "count_view": 0
  },
  {
    "link_thumb": "https://live.staticflickr.com/65535/49726920508_599c2c0291_n.jpg",
    "id_album": "-1862561193",
    "description": "KAWAII020420194510223",
    "title": "KAWAII020420194510223",
    "link_img": "https://live.staticflickr.com/65535/49726920508_d21ca1781a_o.jpg",
    "id_image": "KAWAII020420194510223",
    "count_view": 0
  },
  {
    "link_thumb": "https://live.staticflickr.com/65535/49743276592_fbdd67d330_n.jpg",
    "id_album": "-358592519",
    "description": "KAWAII060420214912266",
    "title": "KAWAII060420214912266",
    "link_img": "https://live.staticflickr.com/65535/49743276592_0be05d9327_o.jpg",
    "id_image": "KAWAII060420214912266",
    "count_view": 0
  },
  {
    "link_thumb": "https://live.staticflickr.com/65535/49727785637_b198f83bbb_n.jpg",
    "id_album": "-1862561193",
    "description": "KAWAII020420194512224",
    "title": "KAWAII020420194512224",
    "link_img": "https://live.staticflickr.com/65535/49727785637_9699bc2952_o.jpg",
    "id_image": "KAWAII020420194512224",
    "count_view": 0
  },
  {
    "link_thumb": "https://live.staticflickr.com/65535/49727744267_0183ce4807_n.jpg",
    "id_album": "-1497779911",
    "description": "KAWAII020420194508164",
    "title": "KAWAII020420194508164",
    "link_img": "https://live.staticflickr.com/65535/49727744267_fe042c0027_o.jpg",
    "id_image": "KAWAII020420194508164",
    "count_view": 0
  },
  {
    "link_thumb": "https://live.staticflickr.com/65535/49592207433_e6d261d1a6_n.jpg",
    "id_album": "-1741487325",
    "description": "KAWAII1702202237382",
    "title": "KAWAII1702202237382",
    "link_img": "https://live.staticflickr.com/65535/49592207433_5dde2b2cd3_o.jpg",
    "id_image": "KAWAII1702202237382",
    "count_view": 0
  },
  {
    "link_thumb": "https://live.staticflickr.com/65535/49592953492_b84fb37449_n.jpg",
    "id_album": "-1741487325",
    "description": "KAWAII17091831",
    "title": "KAWAII17091831",
    "link_img": "https://live.staticflickr.com/65535/49592953492_ee077b4196_o.jpg",
    "id_image": "KAWAII17091831",
    "count_view": 0
  },
  {
    "link_thumb": "https://live.staticflickr.com/65535/49742916301_5761ab09ce_n.jpg",
    "id_album": "-643980979",
    "description": "KAWAII060420214913191",
    "title": "KAWAII060420214913191",
    "link_img": "https://live.staticflickr.com/65535/49742916301_681a230855_o.jpg",
    "id_image": "KAWAII060420214913191",
    "count_view": 0
  },
  {
    "link_thumb": "https://live.staticflickr.com/65535/49592734431_2caa3999b0_n.jpg",
    "id_album": "949200594",
    "description": "KAWAII27022023519",
    "title": "KAWAII27022023519",
    "link_img": "https://live.staticflickr.com/65535/49592734431_cc7c9317c4_o.jpg",
    "id_image": "KAWAII27022023519",
    "count_view": 0
  },
  {
    "link_thumb": "https://live.staticflickr.com/65535/49548683561_6e5e2794e0_n.jpg",
    "id_album": "1396902986",
    "description": "KAWAII1702202236307",
    "title": "KAWAII1702202236307",
    "link_img": "https://live.staticflickr.com/65535/49548683561_27952153b6_o.jpg",
    "id_image": "KAWAII1702202236307",
    "count_view": 0
  },
  {
    "link_thumb": "https://live.staticflickr.com/65535/49548062153_0a45846041_n.jpg",
    "id_album": "-1741487325",
    "description": "KAWAII120918180",
    "title": "KAWAII120918180",
    "link_img": "https://live.staticflickr.com/65535/49548062153_20b940c442_o.jpg",
    "id_image": "KAWAII120918180",
    "count_view": 0
  },
  {
    "link_thumb": "https://live.staticflickr.com/65535/49548624096_f438edf6e3_n.jpg",
    "id_album": "1396902986",
    "description": "KAWAII170220223318",
    "title": "KAWAII170220223318",
    "link_img": "https://live.staticflickr.com/65535/49548624096_5f1f26a17b_o.jpg",
    "id_image": "KAWAII170220223318",
    "count_view": 0
  },
  {
    "link_thumb": "https://live.staticflickr.com/65535/49622289598_80c7699f69_n.jpg",
    "id_album": "1396902986",
    "description": "KAWAII050320202159",
    "title": "KAWAII050320202159",
    "link_img": "https://live.staticflickr.com/65535/49622289598_97aba19210_o.jpg",
    "id_image": "KAWAII050320202159",
    "count_view": 0
  },
  {
    "link_thumb": "https://live.staticflickr.com/65535/49694374632_2933d986eb_n.jpg",
    "id_album": "-643980979",
    "description": "KAWAII0503202021195",
    "title": "KAWAII0503202021195",
    "link_img": "https://live.staticflickr.com/65535/49694374632_8924106525_o.jpg",
    "id_image": "KAWAII0503202021195",
    "count_view": 0
  },
  {
    "link_thumb": "https://live.staticflickr.com/65535/49694069891_4d3f9bb401_n.jpg",
    "id_album": "-643980979",
    "description": "KAWAII0503202021113",
    "title": "KAWAII0503202021113",
    "link_img": "https://live.staticflickr.com/65535/49694069891_29beff98a7_o.jpg",
    "id_image": "KAWAII0503202021113",
    "count_view": 0
  },
  {
    "link_thumb": "https://live.staticflickr.com/65535/49548232588_7194aab0df_n.jpg",
    "id_album": "-316663319",
    "description": "KAWAII1702202239503",
    "title": "KAWAII1702202239503",
    "link_img": "https://live.staticflickr.com/65535/49548232588_d34785b680_o.jpg",
    "id_image": "KAWAII1702202239503",
    "count_view": 0
  },
  {
    "link_thumb": "https://live.staticflickr.com/65535/49694130451_011541c1c3_n.jpg",
    "id_album": "431597977",
    "description": "KAWAII12091819",
    "title": "KAWAII12091819",
    "link_img": "https://live.staticflickr.com/65535/49694130451_5f5ee9beeb_o.jpg",
    "id_image": "KAWAII12091819",
    "count_view": 0
  },
  {
    "link_thumb": "https://live.staticflickr.com/65535/49622306623_94c8e08c1d_n.jpg",
    "id_album": "-316663319",
    "description": "KAWAII0503202021192",
    "title": "KAWAII0503202021192",
    "link_img": "https://live.staticflickr.com/65535/49622306623_572c1ca42c_o.jpg",
    "id_image": "KAWAII0503202021192",
    "count_view": 0
  },
  {
    "link_thumb": "https://live.staticflickr.com/65535/49548140838_1bb468884e_n.jpg",
    "id_album": "-422187261",
    "description": "KAWAII170220223477",
    "title": "KAWAII170220223477",
    "link_img": "https://live.staticflickr.com/65535/49548140838_9cdcb4c19d_o.jpg",
    "id_image": "KAWAII170220223477",
    "count_view": 0
  },
  {
    "link_thumb": "https://live.staticflickr.com/65535/49742956766_47b7a5156a_n.jpg",
    "id_album": "-1431786825",
    "description": "KAWAII060420214915297",
    "title": "KAWAII060420214915297",
    "link_img": "https://live.staticflickr.com/65535/49742956766_8f346b98d5_o.jpg",
    "id_image": "KAWAII060420214915297",
    "count_view": 0
  },
  {
    "link_thumb": "https://live.staticflickr.com/65535/49727749852_506c8200b8_n.jpg",
    "id_album": "-1497779911",
    "description": "KAWAII1709187",
    "title": "KAWAII1709187",
    "link_img": "https://live.staticflickr.com/65535/49727749852_18fa34cec6_o.jpg",
    "id_image": "KAWAII1709187",
    "count_view": 0
  },
  {
    "link_thumb": "https://live.staticflickr.com/65535/49622798036_37e3d71912_n.jpg",
    "id_album": "-422187261",
    "description": "KAWAII050320202170",
    "title": "KAWAII050320202170",
    "link_img": "https://live.staticflickr.com/65535/49622798036_93a62058b1_o.jpg",
    "id_image": "KAWAII050320202170",
    "count_view": 0
  },
  {
    "link_thumb": "https://live.staticflickr.com/65535/49548737551_2f086c7e66_n.jpg",
    "id_album": "-422187261",
    "description": "KAWAII1702202239519",
    "title": "KAWAII1702202239519",
    "link_img": "https://live.staticflickr.com/65535/49548737551_38212a738e_o.jpg",
    "id_image": "KAWAII1702202239519",
    "count_view": 0
  },
  {
    "link_thumb": "https://live.staticflickr.com/65535/49623103777_0910e27b3b_n.jpg",
    "id_album": "-316663319",
    "description": "KAWAII0503202021305",
    "title": "KAWAII0503202021305",
    "link_img": "https://live.staticflickr.com/65535/49623103777_4d46ebfa7a_o.jpg",
    "id_image": "KAWAII0503202021305",
    "count_view": 0
  },
  {
    "link_thumb": "https://live.staticflickr.com/65535/49622802016_1558a39696_n.jpg",
    "id_album": "1396902986",
    "description": "KAWAII0503202021231",
    "title": "KAWAII0503202021231",
    "link_img": "https://live.staticflickr.com/65535/49622802016_e5b340f81d_o.jpg",
    "id_image": "KAWAII0503202021231",
    "count_view": 0
  },
  {
    "link_thumb": "https://live.staticflickr.com/65535/49548560796_d6792a7f68_n.jpg",
    "id_album": "-1432180061",
    "description": "KAWAII120918166",
    "title": "KAWAII120918166",
    "link_img": "https://live.staticflickr.com/65535/49548560796_c1fcc92e32_o.jpg",
    "id_image": "KAWAII120918166",
    "count_view": 0
  },
  {
    "link_thumb": "https://live.staticflickr.com/65535/49694123501_ec500e9a63_n.jpg",
    "id_album": "-784970094",
    "description": "KAWAII1702202235202",
    "title": "KAWAII1702202235202",
    "link_img": "https://live.staticflickr.com/65535/49694123501_326bc2acc0_o.jpg",
    "id_image": "KAWAII1702202235202",
    "count_view": 0
  },
  {
    "link_thumb": "https://live.staticflickr.com/65535/49694100931_1484c44f33_n.jpg",
    "id_album": "1201366373",
    "description": "KAWAII12091835",
    "title": "KAWAII12091835",
    "link_img": "https://live.staticflickr.com/65535/49694100931_6e938afa04_o.jpg",
    "id_image": "KAWAII12091835",
    "count_view": 0
  },
  {
    "link_thumb": "https://live.staticflickr.com/65535/49742953836_b71ac9c8d5_n.jpg",
    "id_album": "-358592519",
    "description": "KAWAII060420214915311",
    "title": "KAWAII060420214915311",
    "link_img": "https://live.staticflickr.com/65535/49742953836_43140ac6c7_o.jpg",
    "id_image": "KAWAII060420214915311",
    "count_view": 0
  },
  {
    "link_thumb": "https://live.staticflickr.com/65535/49727765847_fe43354fea_n.jpg",
    "id_album": "742877173",
    "description": "KAWAII02042019451329",
    "title": "KAWAII02042019451329",
    "link_img": "https://live.staticflickr.com/65535/49727765847_9eb8ddd9dd_o.jpg",
    "id_image": "KAWAII02042019451329",
    "count_view": 0
  },
  {
    "link_thumb": "https://live.staticflickr.com/65535/49694087126_2ee9b03bf2_n.jpg",
    "id_album": "1201366373",
    "description": "KAWAII120918171",
    "title": "KAWAII120918171",
    "link_img": "https://live.staticflickr.com/65535/49694087126_c64a115f11_o.jpg",
    "id_image": "KAWAII120918171",
    "count_view": 0
  },
  {
    "link_thumb": "https://live.staticflickr.com/65535/49592710441_ed79fe1f96_n.jpg",
    "id_album": "-1741487325",
    "description": "KAWAII1702202238470",
    "title": "KAWAII1702202238470",
    "link_img": "https://live.staticflickr.com/65535/49592710441_3e5c46aec4_o.jpg",
    "id_image": "KAWAII1702202238470",
    "count_view": 0
  },
  {
    "link_thumb": "https://live.staticflickr.com/65535/49694371662_b9bf2540f8_n.jpg",
    "id_album": "416744915",
    "description": "KAWAII1702202239547",
    "title": "KAWAII1702202239547",
    "link_img": "https://live.staticflickr.com/65535/49694371662_1083f42035_o.jpg",
    "id_image": "KAWAII1702202239547",
    "count_view": 0
  },
  {
    "link_thumb": "https://live.staticflickr.com/65535/49727468541_66b6234f0a_n.jpg",
    "id_album": "-1862561193",
    "description": "KAWAII020420194511110",
    "title": "KAWAII020420194511110",
    "link_img": "https://live.staticflickr.com/65535/49727468541_15d5512306_o.jpg",
    "id_image": "KAWAII020420194511110",
    "count_view": 0
  },
  {
    "link_thumb": "https://live.staticflickr.com/65535/49592960942_cd3e725d7e_n.jpg",
    "id_album": "-316663319",
    "description": "KAWAII270220235147",
    "title": "KAWAII270220235147",
    "link_img": "https://live.staticflickr.com/65535/49592960942_c20af3a9ff_o.jpg",
    "id_image": "KAWAII270220235147",
    "count_view": 0
  },
  {
    "link_thumb": "https://live.staticflickr.com/65535/49727476716_b31cf435f9_n.jpg",
    "id_album": "431597977",
    "description": "KAWAII0204201945127",
    "title": "KAWAII0204201945127",
    "link_img": "https://live.staticflickr.com/65535/49727476716_81c73efe64_o.jpg",
    "id_image": "KAWAII0204201945127",
    "count_view": 0
  },
  {
    "link_thumb": "https://live.staticflickr.com/65535/49694075791_a55c1db55a_n.jpg",
    "id_album": "-643980979",
    "description": "KAWAII0503202021326",
    "title": "KAWAII0503202021326",
    "link_img": "https://live.staticflickr.com/65535/49694075791_96a815a5ed_o.jpg",
    "id_image": "KAWAII0503202021326",
    "count_view": 0
  },
  {
    "link_thumb": "https://live.staticflickr.com/65535/49622303293_655cb13b6d_n.jpg",
    "id_album": "-316663319",
    "description": "KAWAII0503202021146",
    "title": "KAWAII0503202021146",
    "link_img": "https://live.staticflickr.com/65535/49622303293_d1c675112f_o.jpg",
    "id_image": "KAWAII0503202021146",
    "count_view": 0
  },
  {
    "link_thumb": "https://live.staticflickr.com/65535/49693562108_97c407f7ed_n.jpg",
    "id_album": "1201366373",
    "description": "KAWAII12091895",
    "title": "KAWAII12091895",
    "link_img": "https://live.staticflickr.com/65535/49693562108_078679f628_o.jpg",
    "id_image": "KAWAII12091895",
    "count_view": 0
  },
  {
    "link_thumb": "https://live.staticflickr.com/65535/49742386643_04fa2621d0_n.jpg",
    "id_album": "-1473448477",
    "description": "KAWAII0604202149141",
    "title": "KAWAII0604202149141",
    "link_img": "https://live.staticflickr.com/65535/49742386643_736eb40f26_o.jpg",
    "id_image": "KAWAII0604202149141",
    "count_view": 0
  },
  {
    "link_thumb": "https://live.staticflickr.com/65535/49727433241_36125f0001_n.jpg",
    "id_album": "-1497779911",
    "description": "KAWAII120918214",
    "title": "KAWAII120918214",
    "link_img": "https://live.staticflickr.com/65535/49727433241_3d532940ac_o.jpg",
    "id_image": "KAWAII120918214",
    "count_view": 0
  },
  {
    "link_thumb": "https://live.staticflickr.com/65535/49694411482_dccb80dd9f_n.jpg",
    "id_album": "-643980979",
    "description": "KAWAII1702202235196",
    "title": "KAWAII1702202235196",
    "link_img": "https://live.staticflickr.com/65535/49694411482_4d17f04c9f_o.jpg",
    "id_image": "KAWAII1702202235196",
    "count_view": 0
  },
  {
    "link_thumb": "https://live.staticflickr.com/65535/49548153918_9f2a39eaf5_n.jpg",
    "id_album": "-316663319",
    "description": "KAWAII1702202235165",
    "title": "KAWAII1702202235165",
    "link_img": "https://live.staticflickr.com/65535/49548153918_2e4a738d4a_o.jpg",
    "id_image": "KAWAII1702202235165",
    "count_view": 0
  },
  {
    "link_thumb": "https://live.staticflickr.com/65535/49693532508_04ee857034_n.jpg",
    "id_album": "-643980979",
    "description": "KAWAII050320202148",
    "title": "KAWAII050320202148",
    "link_img": "https://live.staticflickr.com/65535/49693532508_b26d148096_o.jpg",
    "id_image": "KAWAII050320202148",
    "count_view": 0
  },
  {
    "link_thumb": "https://live.staticflickr.com/65535/49592216053_b015e37c44_n.jpg",
    "id_album": "-316663319",
    "description": "KAWAII270220235151",
    "title": "KAWAII270220235151",
    "link_img": "https://live.staticflickr.com/65535/49592216053_c03585bf2c_o.jpg",
    "id_image": "KAWAII270220235151",
    "count_view": 0
  },
  {
    "link_thumb": "https://live.staticflickr.com/65535/49548966717_ec63ed96ac_n.jpg",
    "id_album": "1396902986",
    "description": "KAWAII1702202239528",
    "title": "KAWAII1702202239528",
    "link_img": "https://live.staticflickr.com/65535/49548966717_58d4ff79ce_o.jpg",
    "id_image": "KAWAII1702202239528",
    "count_view": 0
  },
  {
    "link_thumb": "https://live.staticflickr.com/65535/49743279367_86ed79dcdb_n.jpg",
    "id_album": "-1431786825",
    "description": "KAWAII06042021491518",
    "title": "KAWAII06042021491518",
    "link_img": "https://live.staticflickr.com/65535/49743279367_7136765f24_o.jpg",
    "id_image": "KAWAII06042021491518",
    "count_view": 0
  },
  {
    "link_thumb": "https://live.staticflickr.com/65535/49592948717_ca9e5f330c_n.jpg",
    "id_album": "1396902986",
    "description": "KAWAII2702202351105",
    "title": "KAWAII2702202351105",
    "link_img": "https://live.staticflickr.com/65535/49592948717_92bdf1a7c9_o.jpg",
    "id_image": "KAWAII2702202351105",
    "count_view": 0
  },
  {
    "link_thumb": "https://live.staticflickr.com/65535/49552522471_ca237a98d0_n.jpg",
    "id_album": "-1694302085",
    "description": "KAWAII12091825180220205947",
    "title": "KAWAII12091825180220205947",
    "link_img": "https://live.staticflickr.com/65535/49552522471_7ffda8f93f_o.jpg",
    "id_image": "KAWAII12091825180220205947",
    "count_view": 0
  },
  {
    "link_thumb": "https://live.staticflickr.com/65535/49592226138_0450179af4_n.jpg",
    "id_album": "949200594",
    "description": "KAWAII2702202351111",
    "title": "KAWAII2702202351111",
    "link_img": "https://live.staticflickr.com/65535/49592226138_678696631d_o.jpg",
    "id_image": "KAWAII2702202351111",
    "count_view": 0
  },
  {
    "link_thumb": "https://live.staticflickr.com/65535/49548611391_66f9798221_n.jpg",
    "id_album": "-1432180061",
    "description": "KAWAII12091848",
    "title": "KAWAII12091848",
    "link_img": "https://live.staticflickr.com/65535/49548611391_173cf43b70_o.jpg",
    "id_image": "KAWAII12091848",
    "count_view": 0
  },
  {
    "link_thumb": "https://live.staticflickr.com/65535/49548905007_fe53d568fb_n.jpg",
    "id_album": "-1099943053",
    "description": "KAWAII1702202236279",
    "title": "KAWAII1702202236279",
    "link_img": "https://live.staticflickr.com/65535/49548905007_00a605895a_o.jpg",
    "id_image": "KAWAII1702202236279",
    "count_view": 0
  },
  {
    "link_thumb": "https://live.staticflickr.com/65535/49693533688_979bdb70bd_n.jpg",
    "id_album": "-643980979",
    "description": "KAWAII050320202171",
    "title": "KAWAII050320202171",
    "link_img": "https://live.staticflickr.com/65535/49693533688_c03a871960_o.jpg",
    "id_image": "KAWAII050320202171",
    "count_view": 0
  },
  {
    "link_thumb": "https://live.staticflickr.com/65535/49742394333_248e9fd4df_n.jpg",
    "id_album": "-1473448477",
    "description": "KAWAII06042021491769",
    "title": "KAWAII06042021491769",
    "link_img": "https://live.staticflickr.com/65535/49742394333_6a2ae180b8_o.jpg",
    "id_image": "KAWAII06042021491769",
    "count_view": 0
  },
  {
    "link_thumb": "https://live.staticflickr.com/65535/49693582773_e50cbac94e_n.jpg",
    "id_album": "-358592519",
    "description": "KAWAII1702202238483",
    "title": "KAWAII1702202238483",
    "link_img": "https://live.staticflickr.com/65535/49693582773_bc3a7397b2_o.jpg",
    "id_image": "KAWAII1702202238483",
    "count_view": 0
  },
  {
    "link_thumb": "https://live.staticflickr.com/65535/49693672998_18981af17b_n.jpg",
    "id_album": "-1741487325",
    "description": "KAWAII0503202021121",
    "title": "KAWAII0503202021121",
    "link_img": "https://live.staticflickr.com/65535/49693672998_32a6f17ddf_o.jpg",
    "id_image": "KAWAII0503202021121",
    "count_view": 0
  },
  {
    "link_thumb": "https://live.staticflickr.com/65535/49742949746_12a3f8ddfc_n.jpg",
    "id_album": "1396902986",
    "description": "KAWAII06042021491780",
    "title": "KAWAII06042021491780",
    "link_img": "https://live.staticflickr.com/65535/49742949746_d15606bb47_o.jpg",
    "id_image": "KAWAII06042021491780",
    "count_view": 0
  },
  {
    "link_thumb": "https://live.staticflickr.com/65535/49548228903_a91159fa1e_n.jpg",
    "id_album": "-1432180061",
    "description": "KAWAII1702202238490",
    "title": "KAWAII1702202238490",
    "link_img": "https://live.staticflickr.com/65535/49548228903_2cc4c933a6_o.jpg",
    "id_image": "KAWAII1702202238490",
    "count_view": 0
  },
  {
    "link_thumb": "https://live.staticflickr.com/65535/49694100821_84ee9e3f06_n.jpg",
    "id_album": "1201366373",
    "description": "KAWAII12091832",
    "title": "KAWAII12091832",
    "link_img": "https://live.staticflickr.com/65535/49694100821_68c3afc405_o.jpg",
    "id_image": "KAWAII12091832",
    "count_view": 0
  },
  {
    "link_thumb": "https://live.staticflickr.com/65535/49727780287_9923136f83_n.jpg",
    "id_album": "-1862561193",
    "description": "KAWAII020420194508139",
    "title": "KAWAII020420194508139",
    "link_img": "https://live.staticflickr.com/65535/49727780287_1926a29ea5_o.jpg",
    "id_image": "KAWAII020420194508139",
    "count_view": 0
  },
  {
    "link_thumb": "https://live.staticflickr.com/65535/49742353083_658b28ed17_n.jpg",
    "id_album": "-1913845949",
    "description": "KAWAII060420214912234",
    "title": "KAWAII060420214912234",
    "link_img": "https://live.staticflickr.com/65535/49742353083_68c7682cd6_o.jpg",
    "id_image": "KAWAII060420214912234",
    "count_view": 0
  },
  {
    "link_thumb": "https://live.staticflickr.com/65535/49694396432_7a81a4cf67_n.jpg",
    "id_album": "-643980979",
    "description": "KAWAII120918241",
    "title": "KAWAII120918241",
    "link_img": "https://live.staticflickr.com/65535/49694396432_69f5252f72_o.jpg",
    "id_image": "KAWAII120918241",
    "count_view": 0
  },
  {
    "link_thumb": "https://live.staticflickr.com/65535/49693572108_be7a498fa7_n.jpg",
    "id_album": "-643980979",
    "description": "KAWAII17022023461",
    "title": "KAWAII17022023461",
    "link_img": "https://live.staticflickr.com/65535/49693572108_88ff012330_o.jpg",
    "id_image": "KAWAII17022023461",
    "count_view": 0
  },
  {
    "link_thumb": "https://live.staticflickr.com/65535/49548864942_39e13f80e8_n.jpg",
    "id_album": "-1099943053",
    "description": "KAWAII170220223457",
    "title": "KAWAII170220223457",
    "link_img": "https://live.staticflickr.com/65535/49548864942_4a4a17a743_o.jpg",
    "id_image": "KAWAII170220223457",
    "count_view": 0
  },
  {
    "link_thumb": "https://live.staticflickr.com/65535/49742943816_2f20171463_n.jpg",
    "id_album": "-1779286820",
    "description": "KAWAII06042021491441",
    "title": "KAWAII06042021491441",
    "link_img": "https://live.staticflickr.com/65535/49742943816_60efcb7568_o.jpg",
    "id_image": "KAWAII06042021491441",
    "count_view": 0
  },
  {
    "link_thumb": "https://live.staticflickr.com/65535/49592711266_9f1c10e4a6_n.jpg",
    "id_album": "-1741487325",
    "description": "KAWAII2702202351135",
    "title": "KAWAII2702202351135",
    "link_img": "https://live.staticflickr.com/65535/49592711266_c98eb4866d_o.jpg",
    "id_image": "KAWAII2702202351135",
    "count_view": 0
  },
  {
    "link_thumb": "https://live.staticflickr.com/65535/49727789982_c0d5cc323f_n.jpg",
    "id_album": "1226948986",
    "description": "KAWAII020420194509198",
    "title": "KAWAII020420194509198",
    "link_img": "https://live.staticflickr.com/65535/49727789982_3e0937c593_o.jpg",
    "id_image": "KAWAII020420194509198",
    "count_view": 0
  },
  {
    "link_thumb": "https://live.staticflickr.com/65535/49694402162_571e2018be_n.jpg",
    "id_album": "1201366373",
    "description": "KAWAII120918301",
    "title": "KAWAII120918301",
    "link_img": "https://live.staticflickr.com/65535/49694402162_4b50bcf03a_o.jpg",
    "id_image": "KAWAII120918301",
    "count_view": 0
  },
  {
    "link_thumb": "https://live.staticflickr.com/65535/49727738967_e4973d12f0_n.jpg",
    "id_album": "-1694302085",
    "description": "KAWAII020420194508185",
    "title": "KAWAII020420194508185",
    "link_img": "https://live.staticflickr.com/65535/49727738967_80ec5f38eb_o.jpg",
    "id_image": "KAWAII020420194508185",
    "count_view": 0
  },
  {
    "link_thumb": "https://live.staticflickr.com/65535/49623091217_7b4abf5289_n.jpg",
    "id_album": "-316663319",
    "description": "KAWAII0503202021169",
    "title": "KAWAII0503202021169",
    "link_img": "https://live.staticflickr.com/65535/49623091217_302da218d6_o.jpg",
    "id_image": "KAWAII0503202021169",
    "count_view": 0
  },
  {
    "link_thumb": "https://live.staticflickr.com/65535/49548178683_c280d6555e_n.jpg",
    "id_album": "1396902986",
    "description": "KAWAII1702202236288",
    "title": "KAWAII1702202236288",
    "link_img": "https://live.staticflickr.com/65535/49548178683_ec0acac767_o.jpg",
    "id_image": "KAWAII1702202236288",
    "count_view": 0
  },
  {
    "link_thumb": "https://live.staticflickr.com/65535/49727755567_e026722fca_n.jpg",
    "id_album": "742877173",
    "description": "KAWAII020420194507150",
    "title": "KAWAII020420194507150",
    "link_img": "https://live.staticflickr.com/65535/49727755567_dcb40c249f_o.jpg",
    "id_image": "KAWAII020420194507150",
    "count_view": 0
  },
  {
    "link_thumb": "https://live.staticflickr.com/65535/49622330038_a73d48814a_n.jpg",
    "id_album": "-406350429",
    "description": "KAWAII050320202122",
    "title": "KAWAII050320202122",
    "link_img": "https://live.staticflickr.com/65535/49622330038_4729d9fd93_o.jpg",
    "id_image": "KAWAII050320202122",
    "count_view": 0
  },
  {
    "link_thumb": "https://live.staticflickr.com/65535/49956925207_e3e14a24a6_n.jpg",
    "id_album": "-358592519",
    "description": "KAWAII060420214911229",
    "title": "KAWAII060420214911229",
    "link_img": "https://live.staticflickr.com/65535/49956925207_72f10c8219_o.jpg",
    "id_image": "KAWAII060420214911229",
    "count_view": 0
  },
  {
    "link_thumb": "https://live.staticflickr.com/65535/49622825466_29ee1c26a4_n.jpg",
    "id_album": "-316663319",
    "description": "KAWAII0503202021227",
    "title": "KAWAII0503202021227",
    "link_img": "https://live.staticflickr.com/65535/49622825466_a5578440bd_o.jpg",
    "id_image": "KAWAII0503202021227",
    "count_view": 0
  },
  {
    "link_thumb": "https://live.staticflickr.com/65535/49548139298_6e5456530b_n.jpg",
    "id_album": "-422187261",
    "description": "KAWAII170220223471",
    "title": "KAWAII170220223471",
    "link_img": "https://live.staticflickr.com/65535/49548139298_ba29e127e1_o.jpg",
    "id_image": "KAWAII170220223471",
    "count_view": 0
  },
  {
    "link_thumb": "https://live.staticflickr.com/65535/49727466096_7315723fb3_n.jpg",
    "id_album": "-1862561193",
    "description": "KAWAII020420194508127",
    "title": "KAWAII020420194508127",
    "link_img": "https://live.staticflickr.com/65535/49727466096_a611115c3e_o.jpg",
    "id_image": "KAWAII020420194508127",
    "count_view": 0
  },
  {
    "link_thumb": "https://live.staticflickr.com/65535/49694124706_1103db9b34_n.jpg",
    "id_album": "-358592519",
    "description": "KAWAII170220223465",
    "title": "KAWAII170220223465",
    "link_img": "https://live.staticflickr.com/65535/49694124706_3844e47e04_o.jpg",
    "id_image": "KAWAII170220223465",
    "count_view": 0
  },
  {
    "link_thumb": "https://live.staticflickr.com/65535/49548781432_bbf23e809a_n.jpg",
    "id_album": "-316663319",
    "description": "KAWAII12091814",
    "title": "KAWAII12091814",
    "link_img": "https://live.staticflickr.com/65535/49548781432_02ef9ac37d_o.jpg",
    "id_image": "KAWAII12091814",
    "count_view": 0
  },
  {
    "link_thumb": "https://live.staticflickr.com/65535/49693686563_02b03fcd19_n.jpg",
    "id_album": "1226948986",
    "description": "KAWAII24032022050259",
    "title": "KAWAII24032022050259",
    "link_img": "https://live.staticflickr.com/65535/49693686563_edfd6d82e3_o.jpg",
    "id_image": "KAWAII24032022050259",
    "count_view": 0
  },
  {
    "link_thumb": "https://live.staticflickr.com/65535/49727751987_6afab538cd_n.jpg",
    "id_album": "-316663319",
    "description": "KAWAII020420194510262",
    "title": "KAWAII020420194510262",
    "link_img": "https://live.staticflickr.com/65535/49727751987_5d67578ca0_o.jpg",
    "id_image": "KAWAII020420194510262",
    "count_view": 0
  },
  {
    "link_thumb": "https://live.staticflickr.com/65535/49592207248_426b3e5f30_n.jpg",
    "id_album": "-1741487325",
    "description": "KAWAII1702202235146",
    "title": "KAWAII1702202235146",
    "link_img": "https://live.staticflickr.com/65535/49592207248_43f8e028ce_o.jpg",
    "id_image": "KAWAII1702202235146",
    "count_view": 0
  },
  {
    "link_thumb": "https://live.staticflickr.com/65535/49743232892_ca4857bffc_n.jpg",
    "id_album": "-1694302085",
    "description": "KAWAII060420214912302",
    "title": "KAWAII060420214912302",
    "link_img": "https://live.staticflickr.com/65535/49743232892_df46f0b288_o.jpg",
    "id_image": "KAWAII060420214912302",
    "count_view": 0
  },
  {
    "link_thumb": "https://live.staticflickr.com/65535/49727434201_b958ba799d_n.jpg",
    "id_album": "-1497779911",
    "description": "KAWAII12091873",
    "title": "KAWAII12091873",
    "link_img": "https://live.staticflickr.com/65535/49727434201_26f90b0b2a_o.jpg",
    "id_image": "KAWAII12091873",
    "count_view": 0
  },
  {
    "link_thumb": "https://live.staticflickr.com/65535/49548722211_281280d70c_n.jpg",
    "id_album": "-1431786825",
    "description": "KAWAII1702202238462",
    "title": "KAWAII1702202238462",
    "link_img": "https://live.staticflickr.com/65535/49548722211_e4873d0821_o.jpg",
    "id_image": "KAWAII1702202238462",
    "count_view": 0
  },
  {
    "link_thumb": "https://live.staticflickr.com/65535/49742908731_2b16e95803_n.jpg",
    "id_album": "-422187261",
    "description": "KAWAII2702202351106",
    "title": "KAWAII2702202351106",
    "link_img": "https://live.staticflickr.com/65535/49742908731_a95f1d5e95_o.jpg",
    "id_image": "KAWAII2702202351106",
    "count_view": 0
  },
  {
    "link_thumb": "https://live.staticflickr.com/65535/49622816726_7c2109c3a2_n.jpg",
    "id_album": "-316663319",
    "description": "KAWAII050320202113",
    "title": "KAWAII050320202113",
    "link_img": "https://live.staticflickr.com/65535/49622816726_09a020b17f_o.jpg",
    "id_image": "KAWAII050320202113",
    "count_view": 0
  },
  {
    "link_thumb": "https://live.staticflickr.com/65535/49694084236_63d3b3d1f2_n.jpg",
    "id_album": "1201366373",
    "description": "KAWAII120918146",
    "title": "KAWAII120918146",
    "link_img": "https://live.staticflickr.com/65535/49694084236_b4dc9217da_o.jpg",
    "id_image": "KAWAII120918146",
    "count_view": 0
  },
  {
    "link_thumb": "https://live.staticflickr.com/65535/49623089127_82e998fa86_n.jpg",
    "id_album": "-316663319",
    "description": "KAWAII0503202021130",
    "title": "KAWAII0503202021130",
    "link_img": "https://live.staticflickr.com/65535/49623089127_b7aaee0817_o.jpg",
    "id_image": "KAWAII0503202021130",
    "count_view": 0
  },
  {
    "link_thumb": "https://live.staticflickr.com/65535/49742379248_eb54df3a78_n.jpg",
    "id_album": "-316663319",
    "description": "KAWAII060420214915163",
    "title": "KAWAII060420214915163",
    "link_img": "https://live.staticflickr.com/65535/49742379248_21f4d796f2_o.jpg",
    "id_image": "KAWAII060420214915163",
    "count_view": 0
  },
  {
    "link_thumb": "https://live.staticflickr.com/65535/49742372378_b321335988_n.jpg",
    "id_album": "-316663319",
    "description": "KAWAII060420214911200",
    "title": "KAWAII060420214911200",
    "link_img": "https://live.staticflickr.com/65535/49742372378_b68612c725_o.jpg",
    "id_image": "KAWAII060420214911200",
    "count_view": 0
  },
  {
    "link_thumb": "https://live.staticflickr.com/65535/49694524137_b80953ce00_n.jpg",
    "id_album": "-1432180061",
    "description": "KAWAII12091838",
    "title": "KAWAII12091838",
    "link_img": "https://live.staticflickr.com/65535/49694524137_9730271caf_o.jpg",
    "id_image": "KAWAII12091838",
    "count_view": 0
  },
  {
    "link_thumb": "https://live.staticflickr.com/65535/49548920732_dbf562708f_n.jpg",
    "id_album": "-316663319",
    "description": "KAWAII1702202237350",
    "title": "KAWAII1702202237350",
    "link_img": "https://live.staticflickr.com/65535/49548920732_fe967a6dd2_o.jpg",
    "id_image": "KAWAII1702202237350",
    "count_view": 0
  },
  {
    "link_thumb": "https://live.staticflickr.com/65535/49726882728_d4d89f133a_n.jpg",
    "id_album": "-1497779911",
    "description": "KAWAII02042019451083",
    "title": "KAWAII02042019451083",
    "link_img": "https://live.staticflickr.com/65535/49726882728_f2649991bf_o.jpg",
    "id_image": "KAWAII02042019451083",
    "count_view": 0
  },
  {
    "link_thumb": "https://live.staticflickr.com/65535/49743226532_456c5d1ba3_n.jpg",
    "id_album": "-1913845949",
    "description": "KAWAII060420214915132",
    "title": "KAWAII060420214915132",
    "link_img": "https://live.staticflickr.com/65535/49743226532_f184789a63_o.jpg",
    "id_image": "KAWAII060420214915132",
    "count_view": 0
  },
  {
    "link_thumb": "https://live.staticflickr.com/65535/49592730631_f3ff40a4f1_n.jpg",
    "id_album": "949200594",
    "description": "KAWAII2702202351129",
    "title": "KAWAII2702202351129",
    "link_img": "https://live.staticflickr.com/65535/49592730631_7f24a025c3_o.jpg",
    "id_image": "KAWAII2702202351129",
    "count_view": 0
  },
  {
    "link_thumb": "https://live.staticflickr.com/65535/49622847721_e1602f2634_n.jpg",
    "id_album": "-406350429",
    "description": "KAWAII0503202021278",
    "title": "KAWAII0503202021278",
    "link_img": "https://live.staticflickr.com/65535/49622847721_093f75abe6_o.jpg",
    "id_image": "KAWAII0503202021278",
    "count_view": 0
  },
  {
    "link_thumb": "https://live.staticflickr.com/65535/49726900093_f832526a51_n.jpg",
    "id_album": "742877173",
    "description": "KAWAII020420194511145",
    "title": "KAWAII020420194511145",
    "link_img": "https://live.staticflickr.com/65535/49726900093_e05e1fa3a0_o.jpg",
    "id_image": "KAWAII020420194511145",
    "count_view": 0
  },
  {
    "link_thumb": "https://live.staticflickr.com/65535/49693672398_86aafaeca7_n.jpg",
    "id_album": "-1694302085",
    "description": "KAWAII120918201",
    "title": "KAWAII120918201",
    "link_img": "https://live.staticflickr.com/65535/49693672398_cb7e8c4cdb_o.jpg",
    "id_image": "KAWAII120918201",
    "count_view": 0
  },
  {
    "link_thumb": "https://live.staticflickr.com/65535/49742919561_6b11564d35_n.jpg",
    "id_album": "-128218148",
    "description": "KAWAII06042021491296",
    "title": "KAWAII06042021491296",
    "link_img": "https://live.staticflickr.com/65535/49742919561_5e08411a16_o.jpg",
    "id_image": "KAWAII06042021491296",
    "count_view": 0
  },
  {
    "link_thumb": "https://live.staticflickr.com/65535/49592214658_1ed9c90618_n.jpg",
    "id_album": "-316663319",
    "description": "KAWAII270220235126",
    "title": "KAWAII270220235126",
    "link_img": "https://live.staticflickr.com/65535/49592214658_ac352433e1_o.jpg",
    "id_image": "KAWAII270220235126",
    "count_view": 0
  },
  {
    "link_thumb": "https://live.staticflickr.com/65535/49743256457_b3730c7fbf_n.jpg",
    "id_album": "-316663319",
    "description": "KAWAII06042021491793",
    "title": "KAWAII06042021491793",
    "link_img": "https://live.staticflickr.com/65535/49743256457_c81101e369_o.jpg",
    "id_image": "KAWAII06042021491793",
    "count_view": 0
  },
  {
    "link_thumb": "https://live.staticflickr.com/65535/49548600941_c97c21e536_n.jpg",
    "id_album": "-422187261",
    "description": "KAWAII120918343",
    "title": "KAWAII120918343",
    "link_img": "https://live.staticflickr.com/65535/49548600941_e8e8a58049_o.jpg",
    "id_image": "KAWAII120918343",
    "count_view": 0
  },
  {
    "link_thumb": "https://live.staticflickr.com/65535/49623114102_c4b0e64840_n.jpg",
    "id_album": "-406350429",
    "description": "KAWAII0503202021115",
    "title": "KAWAII0503202021115",
    "link_img": "https://live.staticflickr.com/65535/49623114102_63275bcc45_o.jpg",
    "id_image": "KAWAII0503202021115",
    "count_view": 0
  },
  {
    "link_thumb": "https://live.staticflickr.com/65535/49548572826_f4e86f8f90_n.jpg",
    "id_album": "-1694302085",
    "description": "KAWAII120918220",
    "title": "KAWAII120918220",
    "link_img": "https://live.staticflickr.com/65535/49548572826_25cc91e0a9_o.jpg",
    "id_image": "KAWAII120918220",
    "count_view": 0
  },
  {
    "link_thumb": "https://live.staticflickr.com/65535/49552519201_d4571ef7f6_n.jpg",
    "id_album": "-1694302085",
    "description": "KAWAII12091825180220205927",
    "title": "KAWAII12091825180220205927",
    "link_img": "https://live.staticflickr.com/65535/49552519201_c1699e990d_o.jpg",
    "id_image": "KAWAII12091825180220205927",
    "count_view": 0
  },
  {
    "link_thumb": "https://live.staticflickr.com/65535/49710287133_c88fa54bb0_n.jpg",
    "id_album": "-1599896063",
    "description": "LITTLEMONK29032012063529",
    "title": "LITTLEMONK29032012063529",
    "link_img": "https://live.staticflickr.com/65535/49710287133_b5e17895be_o.jpg",
    "id_image": "LITTLEMONK29032012063529",
    "count_view": 0
  },
  {
    "link_thumb": "https://live.staticflickr.com/65535/49694386657_07a4f6fa3e_n.jpg",
    "id_album": "1201366373",
    "description": "KAWAII12091815",
    "title": "KAWAII12091815",
    "link_img": "https://live.staticflickr.com/65535/49694386657_679a3490e7_o.jpg",
    "id_image": "KAWAII12091815",
    "count_view": 0
  },
  {
    "link_thumb": "https://live.staticflickr.com/65535/49726923168_2cf720de1d_n.jpg",
    "id_album": "-1862561193",
    "description": "KAWAII02042019451185",
    "title": "KAWAII02042019451185",
    "link_img": "https://live.staticflickr.com/65535/49726923168_c1d21a7780_o.jpg",
    "id_image": "KAWAII02042019451185",
    "count_view": 0
  },
  {
    "link_thumb": "https://live.staticflickr.com/65535/49548704591_00653c5e83_n.jpg",
    "id_album": "-1741487325",
    "description": "KAWAII1702202237397",
    "title": "KAWAII1702202237397",
    "link_img": "https://live.staticflickr.com/65535/49548704591_e08e358b04_o.jpg",
    "id_image": "KAWAII1702202237397",
    "count_view": 0
  },
  {
    "link_thumb": "https://live.staticflickr.com/65535/49548570486_dc709ec43b_n.jpg",
    "id_album": "-1694302085",
    "description": "KAWAII120918209",
    "title": "KAWAII120918209",
    "link_img": "https://live.staticflickr.com/65535/49548570486_5138dfca7b_o.jpg",
    "id_image": "KAWAII120918209",
    "count_view": 0
  },
  {
    "link_thumb": "https://live.staticflickr.com/65535/49693681563_0c652e2f73_n.jpg",
    "id_album": "-1862561193",
    "description": "KAWAII24032022050236",
    "title": "KAWAII24032022050236",
    "link_img": "https://live.staticflickr.com/65535/49693681563_3b6a993c59_o.jpg",
    "id_image": "KAWAII24032022050236",
    "count_view": 0
  },
  {
    "link_thumb": "https://live.staticflickr.com/65535/49548146233_188fafd02f_n.jpg",
    "id_album": "-1694302085",
    "description": "KAWAII1702202235127",
    "title": "KAWAII1702202235127",
    "link_img": "https://live.staticflickr.com/65535/49548146233_e99c3e4208_o.jpg",
    "id_image": "KAWAII1702202235127",
    "count_view": 0
  },
  {
    "link_thumb": "https://live.staticflickr.com/65535/49742925101_b70829c04d_n.jpg",
    "id_album": "-316663319",
    "description": "KAWAII060420214914199",
    "title": "KAWAII060420214914199",
    "link_img": "https://live.staticflickr.com/65535/49742925101_b1391f182a_o.jpg",
    "id_image": "KAWAII060420214914199",
    "count_view": 0
  },
  {
    "link_thumb": "https://live.staticflickr.com/65535/49548214718_71dbf76d31_n.jpg",
    "id_album": "-1099943053",
    "description": "KAWAII1702202238437",
    "title": "KAWAII1702202238437",
    "link_img": "https://live.staticflickr.com/65535/49548214718_d4af29ef99_o.jpg",
    "id_image": "KAWAII1702202238437",
    "count_view": 0
  },
  {
    "link_thumb": "https://live.staticflickr.com/65535/49742945926_2ba74fd24d_n.jpg",
    "id_album": "-1779286820",
    "description": "KAWAII060420214918265",
    "title": "KAWAII060420214918265",
    "link_img": "https://live.staticflickr.com/65535/49742945926_6ef82b7a3f_o.jpg",
    "id_image": "KAWAII060420214918265",
    "count_view": 0
  },
  {
    "link_thumb": "https://live.staticflickr.com/65535/49548102943_1427b14e8f_n.jpg",
    "id_album": "-1741487325",
    "description": "KAWAII12091836",
    "title": "KAWAII12091836",
    "link_img": "https://live.staticflickr.com/65535/49548102943_505ac71255_o.jpg",
    "id_image": "KAWAII12091836",
    "count_view": 0
  },
  {
    "link_thumb": "https://live.staticflickr.com/65535/49742948051_4c3bc0f67f_n.jpg",
    "id_album": "1396902986",
    "description": "KAWAII060420214915113",
    "title": "KAWAII060420214915113",
    "link_img": "https://live.staticflickr.com/65535/49742948051_8b6173d550_o.jpg",
    "id_image": "KAWAII060420214915113",
    "count_view": 0
  },
  {
    "link_thumb": "https://live.staticflickr.com/65535/49727474271_07d32936da_n.jpg",
    "id_album": "1563362783",
    "description": "KAWAII1702202237328",
    "title": "KAWAII1702202237328",
    "link_img": "https://live.staticflickr.com/65535/49727474271_1ab324c88b_o.jpg",
    "id_image": "KAWAII1702202237328",
    "count_view": 0
  },
  {
    "link_thumb": "https://live.staticflickr.com/65535/49727442071_a7c0d8a3f0_n.jpg",
    "id_album": "742877173",
    "description": "KAWAII020420194508171",
    "title": "KAWAII020420194508171",
    "link_img": "https://live.staticflickr.com/65535/49727442071_7a61685d45_o.jpg",
    "id_image": "KAWAII020420194508171",
    "count_view": 0
  },
  {
    "link_thumb": "https://live.staticflickr.com/65535/49548721141_54705f70dc_n.jpg",
    "id_album": "-422187261",
    "description": "KAWAII1702202238458",
    "title": "KAWAII1702202238458",
    "link_img": "https://live.staticflickr.com/65535/49548721141_d281d1b5e8_o.jpg",
    "id_image": "KAWAII1702202238458",
    "count_view": 0
  },
  {
    "link_thumb": "https://live.staticflickr.com/65535/49548979637_95ca19ffa0_n.jpg",
    "id_album": "-1694302085",
    "description": "KAWAII1702202239581",
    "title": "KAWAII1702202239581",
    "link_img": "https://live.staticflickr.com/65535/49548979637_d09ac4d8e8_o.jpg",
    "id_image": "KAWAII1702202239581",
    "count_view": 0
  },
  {
    "link_thumb": "https://live.staticflickr.com/65535/49592732326_ec544b524b_n.jpg",
    "id_album": "949200594",
    "description": "KAWAII27022023513",
    "title": "KAWAII27022023513",
    "link_img": "https://live.staticflickr.com/65535/49592732326_5d44a7d439_o.jpg",
    "id_image": "KAWAII27022023513",
    "count_view": 0
  },
  {
    "link_thumb": "https://live.staticflickr.com/65535/49694393827_79181ed563_n.jpg",
    "id_album": "-643980979",
    "description": "KAWAII120918210",
    "title": "KAWAII120918210",
    "link_img": "https://live.staticflickr.com/65535/49694393827_2b14e6a69c_o.jpg",
    "id_image": "KAWAII120918210",
    "count_view": 0
  },
  {
    "link_thumb": "https://live.staticflickr.com/65535/49548217328_788ffac1da_n.jpg",
    "id_album": "-1099943053",
    "description": "KAWAII1702202238447",
    "title": "KAWAII1702202238447",
    "link_img": "https://live.staticflickr.com/65535/49548217328_151ec9ed83_o.jpg",
    "id_image": "KAWAII1702202238447",
    "count_view": 0
  },
  {
    "link_thumb": "https://live.staticflickr.com/65535/49622329163_7bf2efc724_n.jpg",
    "id_album": "-406350429",
    "description": "KAWAII0503202021187",
    "title": "KAWAII0503202021187",
    "link_img": "https://live.staticflickr.com/65535/49622329163_f4aa1f3bc6_o.jpg",
    "id_image": "KAWAII0503202021187",
    "count_view": 0
  },
  {
    "link_thumb": "https://live.staticflickr.com/65535/49711146947_2b7b494f19_n.jpg",
    "id_album": "-1599896063",
    "description": "LITTLEMONK29032012064226",
    "title": "LITTLEMONK29032012064226",
    "link_img": "https://live.staticflickr.com/65535/49711146947_1ee772217a_o.jpg",
    "id_image": "LITTLEMONK29032012064226",
    "count_view": 0
  },
  {
    "link_thumb": "https://live.staticflickr.com/65535/49693540278_b933210b26_n.jpg",
    "id_album": "1201366373",
    "description": "KAWAII120918145",
    "title": "KAWAII120918145",
    "link_img": "https://live.staticflickr.com/65535/49693540278_94af89bb91_o.jpg",
    "id_image": "KAWAII120918145",
    "count_view": 0
  },
  {
    "link_thumb": "https://live.staticflickr.com/65535/49693571358_8e09d12fdf_n.jpg",
    "id_album": "1201366373",
    "description": "KAWAII1702202239530",
    "title": "KAWAII1702202239530",
    "link_img": "https://live.staticflickr.com/65535/49693571358_19ac9b5d03_o.jpg",
    "id_image": "KAWAII1702202239530",
    "count_view": 0
  },
  {
    "link_thumb": "https://live.staticflickr.com/65535/49742372073_9bd255cb1d_n.jpg",
    "id_album": "-128218148",
    "description": "KAWAII06042021491456",
    "title": "KAWAII06042021491456",
    "link_img": "https://live.staticflickr.com/65535/49742372073_5257691a79_o.jpg",
    "id_image": "KAWAII06042021491456",
    "count_view": 0
  },
  {
    "link_thumb": "https://live.staticflickr.com/65535/49743234747_559cb89647_n.jpg",
    "id_album": "-1694302085",
    "description": "KAWAII06042021491894",
    "title": "KAWAII06042021491894",
    "link_img": "https://live.staticflickr.com/65535/49743234747_fb403b44d9_o.jpg",
    "id_image": "KAWAII06042021491894",
    "count_view": 0
  },
  {
    "link_thumb": "https://live.staticflickr.com/65535/49694127511_dfcb8f8d26_n.jpg",
    "id_album": "-755466332",
    "description": "KAWAII120918329",
    "title": "KAWAII120918329",
    "link_img": "https://live.staticflickr.com/65535/49694127511_fd11edfdf7_o.jpg",
    "id_image": "KAWAII120918329",
    "count_view": 0
  },
  {
    "link_thumb": "https://live.staticflickr.com/65535/49710821746_09f4b2b018_n.jpg",
    "id_album": "-1599896063",
    "description": "LITTLEMONK2903201206374",
    "title": "LITTLEMONK2903201206374",
    "link_img": "https://live.staticflickr.com/65535/49710821746_5d30870154_o.jpg",
    "id_image": "LITTLEMONK2903201206374",
    "count_view": 0
  },
  {
    "link_thumb": "https://live.staticflickr.com/65535/49622843141_76787b1df9_n.jpg",
    "id_album": "-406350429",
    "description": "KAWAII0503202021161",
    "title": "KAWAII0503202021161",
    "link_img": "https://live.staticflickr.com/65535/49622843141_2fc1c18ce8_o.jpg",
    "id_image": "KAWAII0503202021161",
    "count_view": 0
  },
  {
    "link_thumb": "https://live.staticflickr.com/65535/49742957031_34edfd1845_n.jpg",
    "id_album": "-1431786825",
    "description": "KAWAII06042021491564",
    "title": "KAWAII06042021491564",
    "link_img": "https://live.staticflickr.com/65535/49742957031_7fb48a5c4c_o.jpg",
    "id_image": "KAWAII06042021491564",
    "count_view": 0
  },
  {
    "link_thumb": "https://live.staticflickr.com/65535/49548582101_8411607161_n.jpg",
    "id_album": "-1741487325",
    "description": "KAWAII120918266",
    "title": "KAWAII120918266",
    "link_img": "https://live.staticflickr.com/65535/49548582101_4076cf9316_o.jpg",
    "id_image": "KAWAII120918266",
    "count_view": 0
  },
  {
    "link_thumb": "https://live.staticflickr.com/65535/49727767512_205497106d_n.jpg",
    "id_album": "742877173",
    "description": "KAWAII02042019451463",
    "title": "KAWAII02042019451463",
    "link_img": "https://live.staticflickr.com/65535/49727767512_7e3dc89614_o.jpg",
    "id_image": "KAWAII02042019451463",
    "count_view": 0
  },
  {
    "link_thumb": "https://live.staticflickr.com/65535/49548734621_6f7909057d_n.jpg",
    "id_album": "-1431786825",
    "description": "KAWAII1702202239508",
    "title": "KAWAII1702202239508",
    "link_img": "https://live.staticflickr.com/65535/49548734621_96211a1217_o.jpg",
    "id_image": "KAWAII1702202239508",
    "count_view": 0
  },
  {
    "link_thumb": "https://live.staticflickr.com/65535/49548708171_6d1d5e9699_n.jpg",
    "id_album": "-1741487325",
    "description": "KAWAII1702202238410",
    "title": "KAWAII1702202238410",
    "link_img": "https://live.staticflickr.com/65535/49548708171_89e5112627_o.jpg",
    "id_image": "KAWAII1702202238410",
    "count_view": 0
  },
  {
    "link_thumb": "https://live.staticflickr.com/65535/49742370283_264933b2a1_n.jpg",
    "id_album": "-128218148",
    "description": "KAWAII060420214912111",
    "title": "KAWAII060420214912111",
    "link_img": "https://live.staticflickr.com/65535/49742370283_50ef9d42d0_o.jpg",
    "id_image": "KAWAII060420214912111",
    "count_view": 0
  },
  {
    "link_thumb": "https://live.staticflickr.com/65535/49727754687_0ef88fd8c3_n.jpg",
    "id_album": "-316663319",
    "description": "KAWAII02042019451298",
    "title": "KAWAII02042019451298",
    "link_img": "https://live.staticflickr.com/65535/49727754687_d35c90e8e0_o.jpg",
    "id_image": "KAWAII02042019451298",
    "count_view": 0
  },
  {
    "link_thumb": "https://live.staticflickr.com/65535/49694123996_c9489a0f7a_n.jpg",
    "id_album": "-358592519",
    "description": "KAWAII1209182",
    "title": "KAWAII1209182",
    "link_img": "https://live.staticflickr.com/65535/49694123996_cea27b0603_o.jpg",
    "id_image": "KAWAII1209182",
    "count_view": 0
  },
  {
    "link_thumb": "https://live.staticflickr.com/65535/49548618671_9f25ded9ee_n.jpg",
    "id_album": "-422187261",
    "description": "KAWAII12091884",
    "title": "KAWAII12091884",
    "link_img": "https://live.staticflickr.com/65535/49548618671_76e79df1ca_o.jpg",
    "id_image": "KAWAII12091884",
    "count_view": 0
  },
  {
    "link_thumb": "https://live.staticflickr.com/65535/49694376347_2b2a6352a1_n.jpg",
    "id_album": "-643980979",
    "description": "KAWAII050320202127",
    "title": "KAWAII050320202127",
    "link_img": "https://live.staticflickr.com/65535/49694376347_6183e39181_o.jpg",
    "id_image": "KAWAII050320202127",
    "count_view": 0
  },
  {
    "link_thumb": "https://live.staticflickr.com/65535/49727786952_77262a7d00_n.jpg",
    "id_album": "-1862561193",
    "description": "KAWAII02042019451490",
    "title": "KAWAII02042019451490",
    "link_img": "https://live.staticflickr.com/65535/49727786952_31e95d88f2_o.jpg",
    "id_image": "KAWAII02042019451490",
    "count_view": 0
  },
  {
    "link_thumb": "https://live.staticflickr.com/65535/49742912506_ef3b279ef4_n.jpg",
    "id_album": "-1741487325",
    "description": "KAWAII06042021491566",
    "title": "KAWAII06042021491566",
    "link_img": "https://live.staticflickr.com/65535/49742912506_9d8f3b2559_o.jpg",
    "id_image": "KAWAII06042021491566",
    "count_view": 0
  },
  {
    "link_thumb": "https://live.staticflickr.com/65535/49743231542_f1ef9eac98_n.jpg",
    "id_album": "-422187261",
    "description": "KAWAII060420214915315",
    "title": "KAWAII060420214915315",
    "link_img": "https://live.staticflickr.com/65535/49743231542_9520380e6c_o.jpg",
    "id_image": "KAWAII060420214915315",
    "count_view": 0
  },
  {
    "link_thumb": "https://live.staticflickr.com/65535/49742937191_4040c29279_n.jpg",
    "id_album": "-1473448477",
    "description": "KAWAII060420214915231",
    "title": "KAWAII060420214915231",
    "link_img": "https://live.staticflickr.com/65535/49742937191_69f587b69a_o.jpg",
    "id_image": "KAWAII060420214915231",
    "count_view": 0
  },
  {
    "link_thumb": "https://live.staticflickr.com/65535/49742395548_5e7830a336_n.jpg",
    "id_album": "-1779286820",
    "description": "KAWAII06042021491283",
    "title": "KAWAII06042021491283",
    "link_img": "https://live.staticflickr.com/65535/49742395548_6ec275cb37_o.jpg",
    "id_image": "KAWAII06042021491283",
    "count_view": 0
  },
  {
    "link_thumb": "https://live.staticflickr.com/65535/49548096618_cf27c22d92_n.jpg",
    "id_album": "-316663319",
    "description": "KAWAII120918333",
    "title": "KAWAII120918333",
    "link_img": "https://live.staticflickr.com/65535/49548096618_b4ddfc91c2_o.jpg",
    "id_image": "KAWAII120918333",
    "count_view": 0
  },
  {
    "link_thumb": "https://live.staticflickr.com/65535/49622826041_e7d0205d93_n.jpg",
    "id_album": "-316663319",
    "description": "KAWAII0503202021235",
    "title": "KAWAII0503202021235",
    "link_img": "https://live.staticflickr.com/65535/49622826041_722579ba3e_o.jpg",
    "id_image": "KAWAII0503202021235",
    "count_view": 0
  },
  {
    "link_thumb": "https://live.staticflickr.com/65535/49694423752_6f90b793a7_n.jpg",
    "id_album": "-643980979",
    "description": "KAWAII2702202351148",
    "title": "KAWAII2702202351148",
    "link_img": "https://live.staticflickr.com/65535/49694423752_47092cfd73_o.jpg",
    "id_image": "KAWAII2702202351148",
    "count_view": 0
  },
  {
    "link_thumb": "https://live.staticflickr.com/65535/49694127156_caf5214d04_n.jpg",
    "id_album": "1563362783",
    "description": "KAWAII1702202239565",
    "title": "KAWAII1702202239565",
    "link_img": "https://live.staticflickr.com/65535/49694127156_61cf2b0257_o.jpg",
    "id_image": "KAWAII1702202239565",
    "count_view": 0
  },
  {
    "link_thumb": "https://live.staticflickr.com/65535/49548168908_a553a00311_n.jpg",
    "id_album": "-422187261",
    "description": "KAWAII1702202236236",
    "title": "KAWAII1702202236236",
    "link_img": "https://live.staticflickr.com/65535/49548168908_427e7af454_o.jpg",
    "id_image": "KAWAII1702202236236",
    "count_view": 0
  },
  {
    "link_thumb": "https://live.staticflickr.com/65535/49548896447_10611e9e0e_n.jpg",
    "id_album": "-316663319",
    "description": "KAWAII1702202236231",
    "title": "KAWAII1702202236231",
    "link_img": "https://live.staticflickr.com/65535/49548896447_e20532dd12_o.jpg",
    "id_image": "KAWAII1702202236231",
    "count_view": 0
  },
  {
    "link_thumb": "https://live.staticflickr.com/65535/49726921748_b4b5c4ecaa_n.jpg",
    "id_album": "-1862561193",
    "description": "KAWAII020420194511144",
    "title": "KAWAII020420194511144",
    "link_img": "https://live.staticflickr.com/65535/49726921748_3d1c4151fd_o.jpg",
    "id_image": "KAWAII020420194511144",
    "count_view": 0
  },
  {
    "link_thumb": "https://live.staticflickr.com/65535/49742920946_83d0686ccb_n.jpg",
    "id_album": "-316663319",
    "description": "KAWAII060420214912142",
    "title": "KAWAII060420214912142",
    "link_img": "https://live.staticflickr.com/65535/49742920946_b4f8cbc8e9_o.jpg",
    "id_image": "KAWAII060420214912142",
    "count_view": 0
  },
  {
    "link_thumb": "https://live.staticflickr.com/65535/49622328183_2d185dcd88_n.jpg",
    "id_album": "-406350429",
    "description": "KAWAII0503202021133",
    "title": "KAWAII0503202021133",
    "link_img": "https://live.staticflickr.com/65535/49622328183_1fa19329b7_o.jpg",
    "id_image": "KAWAII0503202021133",
    "count_view": 0
  },
  {
    "link_thumb": "https://live.staticflickr.com/65535/49726900403_67e96a1c8c_n.jpg",
    "id_album": "742877173",
    "description": "KAWAII020420194511245",
    "title": "KAWAII020420194511245",
    "link_img": "https://live.staticflickr.com/65535/49726900403_9d34eb64b5_o.jpg",
    "id_image": "KAWAII020420194511245",
    "count_view": 0
  },
  {
    "link_thumb": "https://live.staticflickr.com/65535/49592210588_349e58581a_n.jpg",
    "id_album": "-316663319",
    "description": "KAWAII2702202351107",
    "title": "KAWAII2702202351107",
    "link_img": "https://live.staticflickr.com/65535/49592210588_7a766ca9b7_o.jpg",
    "id_image": "KAWAII2702202351107",
    "count_view": 0
  },
  {
    "link_thumb": "https://live.staticflickr.com/65535/49548818982_0b96ac76d6_n.jpg",
    "id_album": "-316663319",
    "description": "KAWAII120918306",
    "title": "KAWAII120918306",
    "link_img": "https://live.staticflickr.com/65535/49548818982_364b7e10d1_o.jpg",
    "id_image": "KAWAII120918306",
    "count_view": 0
  },
  {
    "link_thumb": "https://live.staticflickr.com/65535/49693676418_9c8e1de302_n.jpg",
    "id_album": "-643980979",
    "description": "KAWAII24032022050239",
    "title": "KAWAII24032022050239",
    "link_img": "https://live.staticflickr.com/65535/49693676418_5a3f922bbf_o.jpg",
    "id_image": "KAWAII24032022050239",
    "count_view": 0
  },
  {
    "link_thumb": "https://live.staticflickr.com/65535/49622335793_0fb0835dcb_n.jpg",
    "id_album": "-406350429",
    "description": "KAWAII050320202195",
    "title": "KAWAII050320202195",
    "link_img": "https://live.staticflickr.com/65535/49622335793_fb5deaba65_o.jpg",
    "id_image": "KAWAII050320202195",
    "count_view": 0
  },
  {
    "link_thumb": "https://live.staticflickr.com/65535/49710286888_ae2ed877ff_n.jpg",
    "id_album": "-1599896063",
    "description": "LITTLEMONK2903201206349",
    "title": "LITTLEMONK2903201206349",
    "link_img": "https://live.staticflickr.com/65535/49710286888_b6549cc1db_o.jpg",
    "id_image": "LITTLEMONK2903201206349",
    "count_view": 0
  },
  {
    "link_thumb": "https://live.staticflickr.com/65535/49743270322_48b46857cd_n.jpg",
    "id_album": "1396902986",
    "description": "KAWAII050320202186",
    "title": "KAWAII050320202186",
    "link_img": "https://live.staticflickr.com/65535/49743270322_d2ff772569_o.jpg",
    "id_image": "KAWAII050320202186",
    "count_view": 0
  },
  {
    "link_thumb": "https://live.staticflickr.com/65535/49622827831_71b926a037_n.jpg",
    "id_album": "-316663319",
    "description": "KAWAII0503202021252",
    "title": "KAWAII0503202021252",
    "link_img": "https://live.staticflickr.com/65535/49622827831_9ba8bcd079_o.jpg",
    "id_image": "KAWAII0503202021252",
    "count_view": 0
  },
  {
    "link_thumb": "https://live.staticflickr.com/65535/49727435976_03176ff0bd_n.jpg",
    "id_album": "-316663319",
    "description": "KAWAII020420194508221",
    "title": "KAWAII020420194508221",
    "link_img": "https://live.staticflickr.com/65535/49727435976_16b7147849_o.jpg",
    "id_image": "KAWAII020420194508221",
    "count_view": 0
  },
  {
    "link_thumb": "https://live.staticflickr.com/65535/49694217036_df3cfa0601_n.jpg",
    "id_album": "-1741487325",
    "description": "KAWAII1702202239533",
    "title": "KAWAII1702202239533",
    "link_img": "https://live.staticflickr.com/65535/49694217036_282e1f4953_o.jpg",
    "id_image": "KAWAII1702202239533",
    "count_view": 0
  },
  {
    "link_thumb": "https://live.staticflickr.com/65535/49742901166_8843983f1b_n.jpg",
    "id_album": "-1913845949",
    "description": "KAWAII060420214912261",
    "title": "KAWAII060420214912261",
    "link_img": "https://live.staticflickr.com/65535/49742901166_f3ee82e220_o.jpg",
    "id_image": "KAWAII060420214912261",
    "count_view": 0
  },
  {
    "link_thumb": "https://live.staticflickr.com/65535/49694374747_d9d4e61e71_n.jpg",
    "id_album": "1201366373",
    "description": "KAWAII0503202021201",
    "title": "KAWAII0503202021201",
    "link_img": "https://live.staticflickr.com/65535/49694374747_70cb46d76a_o.jpg",
    "id_image": "KAWAII0503202021201",
    "count_view": 0
  },
  {
    "link_thumb": "https://live.staticflickr.com/65535/49693577613_5c37370496_n.jpg",
    "id_album": "-643980979",
    "description": "KAWAII19022021115",
    "title": "KAWAII19022021115",
    "link_img": "https://live.staticflickr.com/65535/49693577613_4c43e8a7ea_o.jpg",
    "id_image": "KAWAII19022021115",
    "count_view": 0
  },
  {
    "link_thumb": "https://live.staticflickr.com/65535/49694400567_51744eec7c_n.jpg",
    "id_album": "1201366373",
    "description": "KAWAII120918275",
    "title": "KAWAII120918275",
    "link_img": "https://live.staticflickr.com/65535/49694400567_290d9c2508_o.jpg",
    "id_image": "KAWAII120918275",
    "count_view": 0
  },
  {
    "link_thumb": "https://live.staticflickr.com/65535/49622830626_266953618e_n.jpg",
    "id_album": "-316663319",
    "description": "KAWAII0503202021296",
    "title": "KAWAII0503202021296",
    "link_img": "https://live.staticflickr.com/65535/49622830626_87f88097db_o.jpg",
    "id_image": "KAWAII0503202021296",
    "count_view": 0
  },
  {
    "link_thumb": "https://live.staticflickr.com/65535/49623115537_abfe410cf9_n.jpg",
    "id_album": "-406350429",
    "description": "KAWAII0503202021164",
    "title": "KAWAII0503202021164",
    "link_img": "https://live.staticflickr.com/65535/49623115537_6f1a6bb2e6_o.jpg",
    "id_image": "KAWAII0503202021164",
    "count_view": 0
  }
]