[
  {
    "link_thumb": "https://live.staticflickr.com/65535/49742934056_efd460c78e_n.jpg",
    "id_album": "-1473448477",
    "description": "KAWAII060420214911203",
    "title": "KAWAII060420214911203",
    "link_img": "https://live.staticflickr.com/65535/49742934056_b79de97d38_o.jpg",
    "id_image": "KAWAII060420214911203",
    "count_view": 0
  },
  {
    "link_thumb": "https://live.staticflickr.com/65535/49742386643_04fa2621d0_n.jpg",
    "id_album": "-1473448477",
    "description": "KAWAII0604202149141",
    "title": "KAWAII0604202149141",
    "link_img": "https://live.staticflickr.com/65535/49742386643_736eb40f26_o.jpg",
    "id_image": "KAWAII0604202149141",
    "count_view": 0
  },
  {
    "link_thumb": "https://live.staticflickr.com/65535/49742934366_ef750daf0f_n.jpg",
    "id_album": "-1473448477",
    "description": "KAWAII060420214914180",
    "title": "KAWAII060420214914180",
    "link_img": "https://live.staticflickr.com/65535/49742934366_cbb2ac1530_o.jpg",
    "id_image": "KAWAII060420214914180",
    "count_view": 0
  },
  {
    "link_thumb": "https://live.staticflickr.com/65535/49742934526_c63d1f7c1c_n.jpg",
    "id_album": "-1473448477",
    "description": "KAWAII060420214915112",
    "title": "KAWAII060420214915112",
    "link_img": "https://live.staticflickr.com/65535/49742934526_e387f14521_o.jpg",
    "id_image": "KAWAII060420214915112",
    "count_view": 0
  },
  {
    "link_thumb": "https://live.staticflickr.com/65535/49743258527_6ff605826d_n.jpg",
    "id_album": "-1473448477",
    "description": "KAWAII06042021491512",
    "title": "KAWAII06042021491512",
    "link_img": "https://live.staticflickr.com/65535/49743258527_ff528a6d5a_o.jpg",
    "id_image": "KAWAII06042021491512",
    "count_view": 0
  },
  {
    "link_thumb": "https://live.staticflickr.com/65535/49742934841_69d09604fe_n.jpg",
    "id_album": "-1473448477",
    "description": "KAWAII06042021491514",
    "title": "KAWAII06042021491514",
    "link_img": "https://live.staticflickr.com/65535/49742934841_48a5606e88_o.jpg",
    "id_image": "KAWAII06042021491514",
    "count_view": 0
  },
  {
    "link_thumb": "https://live.staticflickr.com/65535/49742387398_a3c2dd7a30_n.jpg",
    "id_album": "-1473448477",
    "description": "KAWAII060420214915149",
    "title": "KAWAII060420214915149",
    "link_img": "https://live.staticflickr.com/65535/49742387398_14426b905c_o.jpg",
    "id_image": "KAWAII060420214915149",
    "count_view": 0
  },
  {
    "link_thumb": "https://live.staticflickr.com/65535/49743258997_7e5f53904a_n.jpg",
    "id_album": "-1473448477",
    "description": "KAWAII060420214915155",
    "title": "KAWAII060420214915155",
    "link_img": "https://live.staticflickr.com/65535/49743258997_29df7961ef_o.jpg",
    "id_image": "KAWAII060420214915155",
    "count_view": 0
  },
  {
    "link_thumb": "https://live.staticflickr.com/65535/49742387728_dda125ce78_n.jpg",
    "id_album": "-1473448477",
    "description": "KAWAII060420214915156",
    "title": "KAWAII060420214915156",
    "link_img": "https://live.staticflickr.com/65535/49742387728_9e64db86d3_o.jpg",
    "id_image": "KAWAII060420214915156",
    "count_view": 0
  },
  {
    "link_thumb": "https://live.staticflickr.com/65535/49743259342_481651d1c3_n.jpg",
    "id_album": "-1473448477",
    "description": "KAWAII060420214915165",
    "title": "KAWAII060420214915165",
    "link_img": "https://live.staticflickr.com/65535/49743259342_a03d2777dd_o.jpg",
    "id_image": "KAWAII060420214915165",
    "count_view": 0
  },
  {
    "link_thumb": "https://live.staticflickr.com/65535/49743259472_e3b19a4610_n.jpg",
    "id_album": "-1473448477",
    "description": "KAWAII06042021491517",
    "title": "KAWAII06042021491517",
    "link_img": "https://live.staticflickr.com/65535/49743259472_059f78e1bf_o.jpg",
    "id_image": "KAWAII06042021491517",
    "count_view": 0
  },
  {
    "link_thumb": "https://live.staticflickr.com/65535/49742935991_5706ce237f_n.jpg",
    "id_album": "-1473448477",
    "description": "KAWAII060420214915181",
    "title": "KAWAII060420214915181",
    "link_img": "https://live.staticflickr.com/65535/49742935991_5bf8ff0426_o.jpg",
    "id_image": "KAWAII060420214915181",
    "count_view": 0
  },
  {
    "link_thumb": "https://live.staticflickr.com/65535/49743259907_59f31bfa3e_n.jpg",
    "id_album": "-1473448477",
    "description": "KAWAII060420214915206",
    "title": "KAWAII060420214915206",
    "link_img": "https://live.staticflickr.com/65535/49743259907_c31226ddb4_o.jpg",
    "id_image": "KAWAII060420214915206",
    "count_view": 0
  },
  {
    "link_thumb": "https://live.staticflickr.com/65535/49743260147_4499022c49_n.jpg",
    "id_album": "-1473448477",
    "description": "KAWAII060420214915214",
    "title": "KAWAII060420214915214",
    "link_img": "https://live.staticflickr.com/65535/49743260147_200ddd41df_o.jpg",
    "id_image": "KAWAII060420214915214",
    "count_view": 0
  },
  {
    "link_thumb": "https://live.staticflickr.com/65535/49742389058_53d1bf6200_n.jpg",
    "id_album": "-1473448477",
    "description": "KAWAII060420214915215",
    "title": "KAWAII060420214915215",
    "link_img": "https://live.staticflickr.com/65535/49742389058_dde80c8b33_o.jpg",
    "id_image": "KAWAII060420214915215",
    "count_view": 0
  },
  {
    "link_thumb": "https://live.staticflickr.com/65535/49743260607_18448666e8_n.jpg",
    "id_album": "-1473448477",
    "description": "KAWAII060420214915228",
    "title": "KAWAII060420214915228",
    "link_img": "https://live.staticflickr.com/65535/49743260607_b7e23e9d31_o.jpg",
    "id_image": "KAWAII060420214915228",
    "count_view": 0
  },
  {
    "link_thumb": "https://live.staticflickr.com/65535/49742389478_3ac50af0e1_n.jpg",
    "id_album": "-1473448477",
    "description": "KAWAII060420214915230",
    "title": "KAWAII060420214915230",
    "link_img": "https://live.staticflickr.com/65535/49742389478_3142da9874_o.jpg",
    "id_image": "KAWAII060420214915230",
    "count_view": 0
  },
  {
    "link_thumb": "https://live.staticflickr.com/65535/49742937191_4040c29279_n.jpg",
    "id_album": "-1473448477",
    "description": "KAWAII060420214915231",
    "title": "KAWAII060420214915231",
    "link_img": "https://live.staticflickr.com/65535/49742937191_69f587b69a_o.jpg",
    "id_image": "KAWAII060420214915231",
    "count_view": 0
  },
  {
    "link_thumb": "https://live.staticflickr.com/65535/49743261052_4b69c702e4_n.jpg",
    "id_album": "-1473448477",
    "description": "KAWAII06042021491524",
    "title": "KAWAII06042021491524",
    "link_img": "https://live.staticflickr.com/65535/49743261052_51fa3db42d_o.jpg",
    "id_image": "KAWAII06042021491524",
    "count_view": 0
  },
  {
    "link_thumb": "https://live.staticflickr.com/65535/49742389923_e272274913_n.jpg",
    "id_album": "-1473448477",
    "description": "KAWAII060420214915240",
    "title": "KAWAII060420214915240",
    "link_img": "https://live.staticflickr.com/65535/49742389923_3c886ac146_o.jpg",
    "id_image": "KAWAII060420214915240",
    "count_view": 0
  },
  {
    "link_thumb": "https://live.staticflickr.com/65535/49742937751_20f88234f0_n.jpg",
    "id_album": "-1473448477",
    "description": "KAWAII060420214915241",
    "title": "KAWAII060420214915241",
    "link_img": "https://live.staticflickr.com/65535/49742937751_00167a8b21_o.jpg",
    "id_image": "KAWAII060420214915241",
    "count_view": 0
  },
  {
    "link_thumb": "https://live.staticflickr.com/65535/49742390308_8891745a55_n.jpg",
    "id_album": "-1473448477",
    "description": "KAWAII060420214915242",
    "title": "KAWAII060420214915242",
    "link_img": "https://live.staticflickr.com/65535/49742390308_64893c0681_o.jpg",
    "id_image": "KAWAII060420214915242",
    "count_view": 0
  },
  {
    "link_thumb": "https://live.staticflickr.com/65535/49742390413_c6bbd32bc1_n.jpg",
    "id_album": "-1473448477",
    "description": "KAWAII060420214915246",
    "title": "KAWAII060420214915246",
    "link_img": "https://live.staticflickr.com/65535/49742390413_d03ccc27e5_o.jpg",
    "id_image": "KAWAII060420214915246",
    "count_view": 0
  },
  {
    "link_thumb": "https://live.staticflickr.com/65535/49742390598_c30968e253_n.jpg",
    "id_album": "-1473448477",
    "description": "KAWAII060420214915253",
    "title": "KAWAII060420214915253",
    "link_img": "https://live.staticflickr.com/65535/49742390598_922e08a7b3_o.jpg",
    "id_image": "KAWAII060420214915253",
    "count_view": 0
  },
  {
    "link_thumb": "https://live.staticflickr.com/65535/49742390688_6c1335e846_n.jpg",
    "id_album": "-1473448477",
    "description": "KAWAII060420214915278",
    "title": "KAWAII060420214915278",
    "link_img": "https://live.staticflickr.com/65535/49742390688_e32c909954_o.jpg",
    "id_image": "KAWAII060420214915278",
    "count_view": 0
  },
  {
    "link_thumb": "https://live.staticflickr.com/65535/49743262177_b32b106415_n.jpg",
    "id_album": "-1473448477",
    "description": "KAWAII06042021491528",
    "title": "KAWAII06042021491528",
    "link_img": "https://live.staticflickr.com/65535/49743262177_5c9f2f0140_o.jpg",
    "id_image": "KAWAII06042021491528",
    "count_view": 0
  },
  {
    "link_thumb": "https://live.staticflickr.com/65535/49743262362_e871fa14da_n.jpg",
    "id_album": "-1473448477",
    "description": "KAWAII060420214915290",
    "title": "KAWAII060420214915290",
    "link_img": "https://live.staticflickr.com/65535/49743262362_9ae5a36ffd_o.jpg",
    "id_image": "KAWAII060420214915290",
    "count_view": 0
  },
  {
    "link_thumb": "https://live.staticflickr.com/65535/49742938901_507f0fb296_n.jpg",
    "id_album": "-1473448477",
    "description": "KAWAII060420214915300",
    "title": "KAWAII060420214915300",
    "link_img": "https://live.staticflickr.com/65535/49742938901_df0988c9a6_o.jpg",
    "id_image": "KAWAII060420214915300",
    "count_view": 0
  },
  {
    "link_thumb": "https://live.staticflickr.com/65535/49742939091_f985427249_n.jpg",
    "id_album": "-1473448477",
    "description": "KAWAII06042021491534",
    "title": "KAWAII06042021491534",
    "link_img": "https://live.staticflickr.com/65535/49742939091_c33b080428_o.jpg",
    "id_image": "KAWAII06042021491534",
    "count_view": 0
  },
  {
    "link_thumb": "https://live.staticflickr.com/65535/49742939316_05ef8a4349_n.jpg",
    "id_album": "-1473448477",
    "description": "KAWAII06042021491543",
    "title": "KAWAII06042021491543",
    "link_img": "https://live.staticflickr.com/65535/49742939316_801a766890_o.jpg",
    "id_image": "KAWAII06042021491543",
    "count_view": 0
  },
  {
    "link_thumb": "https://live.staticflickr.com/65535/49742391893_6894f631d5_n.jpg",
    "id_album": "-1473448477",
    "description": "KAWAII06042021491552",
    "title": "KAWAII06042021491552",
    "link_img": "https://live.staticflickr.com/65535/49742391893_ff3e5c6439_o.jpg",
    "id_image": "KAWAII06042021491552",
    "count_view": 0
  },
  {
    "link_thumb": "https://live.staticflickr.com/65535/49742939801_400ce940f5_n.jpg",
    "id_album": "-1473448477",
    "description": "KAWAII06042021491554",
    "title": "KAWAII06042021491554",
    "link_img": "https://live.staticflickr.com/65535/49742939801_689f802c52_o.jpg",
    "id_image": "KAWAII06042021491554",
    "count_view": 0
  },
  {
    "link_thumb": "https://live.staticflickr.com/65535/49743263517_83166ec652_n.jpg",
    "id_album": "-1473448477",
    "description": "KAWAII06042021491574",
    "title": "KAWAII06042021491574",
    "link_img": "https://live.staticflickr.com/65535/49743263517_0ddfb92706_o.jpg",
    "id_image": "KAWAII06042021491574",
    "count_view": 0
  },
  {
    "link_thumb": "https://live.staticflickr.com/65535/49743263727_d5a7f09562_n.jpg",
    "id_album": "-1473448477",
    "description": "KAWAII06042021491578",
    "title": "KAWAII06042021491578",
    "link_img": "https://live.staticflickr.com/65535/49743263727_3bfb63d4d9_o.jpg",
    "id_image": "KAWAII06042021491578",
    "count_view": 0
  },
  {
    "link_thumb": "https://live.staticflickr.com/65535/49743264002_3560ee231e_n.jpg",
    "id_album": "-1473448477",
    "description": "KAWAII06042021491585",
    "title": "KAWAII06042021491585",
    "link_img": "https://live.staticflickr.com/65535/49743264002_969813678f_o.jpg",
    "id_image": "KAWAII06042021491585",
    "count_view": 0
  },
  {
    "link_thumb": "https://live.staticflickr.com/65535/49742940636_d8143ca171_n.jpg",
    "id_album": "-1473448477",
    "description": "KAWAII06042021491592",
    "title": "KAWAII06042021491592",
    "link_img": "https://live.staticflickr.com/65535/49742940636_f6647df838_o.jpg",
    "id_image": "KAWAII06042021491592",
    "count_view": 0
  },
  {
    "link_thumb": "https://live.staticflickr.com/65535/49742393218_dc38b39716_n.jpg",
    "id_album": "-1473448477",
    "description": "KAWAII06042021491598",
    "title": "KAWAII06042021491598",
    "link_img": "https://live.staticflickr.com/65535/49742393218_3c0017912a_o.jpg",
    "id_image": "KAWAII06042021491598",
    "count_view": 0
  },
  {
    "link_thumb": "https://live.staticflickr.com/65535/49743264657_6b99584462_n.jpg",
    "id_album": "-1473448477",
    "description": "KAWAII06042021491622",
    "title": "KAWAII06042021491622",
    "link_img": "https://live.staticflickr.com/65535/49743264657_4a600af82d_o.jpg",
    "id_image": "KAWAII06042021491622",
    "count_view": 0
  },
  {
    "link_thumb": "https://live.staticflickr.com/65535/49742393553_e67ac98db8_n.jpg",
    "id_album": "-1473448477",
    "description": "KAWAII060420214917160",
    "title": "KAWAII060420214917160",
    "link_img": "https://live.staticflickr.com/65535/49742393553_23d6edd7e0_o.jpg",
    "id_image": "KAWAII060420214917160",
    "count_view": 0
  },
  {
    "link_thumb": "https://live.staticflickr.com/65535/49743265042_a289f35b3c_n.jpg",
    "id_album": "-1473448477",
    "description": "KAWAII060420214917177",
    "title": "KAWAII060420214917177",
    "link_img": "https://live.staticflickr.com/65535/49743265042_902a3b4cbe_o.jpg",
    "id_image": "KAWAII060420214917177",
    "count_view": 0
  },
  {
    "link_thumb": "https://live.staticflickr.com/65535/49742941541_605e14273e_n.jpg",
    "id_album": "-1473448477",
    "description": "KAWAII06042021491725",
    "title": "KAWAII06042021491725",
    "link_img": "https://live.staticflickr.com/65535/49742941541_72682c9681_o.jpg",
    "id_image": "KAWAII06042021491725",
    "count_view": 0
  },
  {
    "link_thumb": "https://live.staticflickr.com/65535/49742941756_a02cc6b55a_n.jpg",
    "id_album": "-1473448477",
    "description": "KAWAII06042021491737",
    "title": "KAWAII06042021491737",
    "link_img": "https://live.staticflickr.com/65535/49742941756_0cd2c07c03_o.jpg",
    "id_image": "KAWAII06042021491737",
    "count_view": 0
  },
  {
    "link_thumb": "https://live.staticflickr.com/65535/49742394333_248e9fd4df_n.jpg",
    "id_album": "-1473448477",
    "description": "KAWAII06042021491769",
    "title": "KAWAII06042021491769",
    "link_img": "https://live.staticflickr.com/65535/49742394333_6a2ae180b8_o.jpg",
    "id_image": "KAWAII06042021491769",
    "count_view": 0
  }
]