[
  {
    "link_thumb": "https://live.staticflickr.com/65535/49694219401_04e4444cf2_n.jpg",
    "id_album": "-643980979",
    "description": "KAWAII24032022050238",
    "title": "KAWAII24032022050238",
    "link_img": "https://live.staticflickr.com/65535/49694219401_863f4476c1_o.jpg",
    "id_image": "KAWAII24032022050238",
    "count_view": 0
  },
  {
    "link_thumb": "https://live.staticflickr.com/65535/49727778447_499e3b725c_n.jpg",
    "id_album": "1396902986",
    "description": "KAWAII020420194509204",
    "title": "KAWAII020420194509204",
    "link_img": "https://live.staticflickr.com/65535/49727778447_9e3f6db098_o.jpg",
    "id_image": "KAWAII020420194509204",
    "count_view": 0
  },
  {
    "link_thumb": "https://live.staticflickr.com/65535/49742949936_19f0003080_n.jpg",
    "id_album": "1396902986",
    "description": "KAWAII0604202149184",
    "title": "KAWAII0604202149184",
    "link_img": "https://live.staticflickr.com/65535/49742949936_4d7d1605c3_o.jpg",
    "id_image": "KAWAII0604202149184",
    "count_view": 0
  },
  {
    "link_thumb": "https://live.staticflickr.com/65535/49694431617_90867bcb8a_n.jpg",
    "id_album": "1226948986",
    "description": "TOTORO220320154114",
    "title": "TOTORO220320154114",
    "link_img": "https://live.staticflickr.com/65535/49694431617_c4ac376478_o.jpg",
    "id_image": "TOTORO220320154114",
    "count_view": 0
  },
  {
    "link_thumb": "https://live.staticflickr.com/65535/49623078737_e12156ab87_n.jpg",
    "id_album": "-1432180061",
    "description": "KAWAII0503202021159",
    "title": "KAWAII0503202021159",
    "link_img": "https://live.staticflickr.com/65535/49623078737_ee4fde345c_o.jpg",
    "id_image": "KAWAII0503202021159",
    "count_view": 0
  },
  {
    "link_thumb": "https://live.staticflickr.com/65535/49622820876_fc8721d380_n.jpg",
    "id_album": "-316663319",
    "description": "KAWAII0503202021186",
    "title": "KAWAII0503202021186",
    "link_img": "https://live.staticflickr.com/65535/49622820876_96a3384dc2_o.jpg",
    "id_image": "KAWAII0503202021186",
    "count_view": 0
  },
  {
    "link_thumb": "https://live.staticflickr.com/65535/49742941541_605e14273e_n.jpg",
    "id_album": "-1473448477",
    "description": "KAWAII06042021491725",
    "title": "KAWAII06042021491725",
    "link_img": "https://live.staticflickr.com/65535/49742941541_72682c9681_o.jpg",
    "id_image": "KAWAII06042021491725",
    "count_view": 0
  },
  {
    "link_thumb": "https://live.staticflickr.com/65535/49694387352_27923845d9_n.jpg",
    "id_album": "1201366373",
    "description": "KAWAII120918153",
    "title": "KAWAII120918153",
    "link_img": "https://live.staticflickr.com/65535/49694387352_611f10838a_o.jpg",
    "id_image": "KAWAII120918153",
    "count_view": 0
  },
  {
    "link_thumb": "https://live.staticflickr.com/65535/49742360258_9988d1a3af_n.jpg",
    "id_album": "-422187261",
    "description": "KAWAII060420214913270",
    "title": "KAWAII060420214913270",
    "link_img": "https://live.staticflickr.com/65535/49742360258_230c5dc197_o.jpg",
    "id_image": "KAWAII060420214913270",
    "count_view": 0
  },
  {
    "link_thumb": "https://live.staticflickr.com/65535/49711146377_82eb555582_n.jpg",
    "id_album": "-1599896063",
    "description": "LITTLEMONK29032012064018",
    "title": "LITTLEMONK29032012064018",
    "link_img": "https://live.staticflickr.com/65535/49711146377_944993cde7_o.jpg",
    "id_image": "LITTLEMONK29032012064018",
    "count_view": 0
  },
  {
    "link_thumb": "https://live.staticflickr.com/65535/49743248717_89998e2b97_n.jpg",
    "id_album": "-316663319",
    "description": "KAWAII06042021491331",
    "title": "KAWAII06042021491331",
    "link_img": "https://live.staticflickr.com/65535/49743248717_8234d51f71_o.jpg",
    "id_image": "KAWAII06042021491331",
    "count_view": 0
  },
  {
    "link_thumb": "https://live.staticflickr.com/65535/49742916301_5761ab09ce_n.jpg",
    "id_album": "-643980979",
    "description": "KAWAII060420214913191",
    "title": "KAWAII060420214913191",
    "link_img": "https://live.staticflickr.com/65535/49742916301_681a230855_o.jpg",
    "id_image": "KAWAII060420214913191",
    "count_view": 0
  },
  {
    "link_thumb": "https://live.staticflickr.com/65535/49548861607_377c96b95b_n.jpg",
    "id_album": "-1099943053",
    "description": "KAWAII170220223440",
    "title": "KAWAII170220223440",
    "link_img": "https://live.staticflickr.com/65535/49548861607_d38b08969a_o.jpg",
    "id_image": "KAWAII170220223440",
    "count_view": 0
  },
  {
    "link_thumb": "https://live.staticflickr.com/65535/49694126526_abcb395523_n.jpg",
    "id_album": "1563362783",
    "description": "KAWAII12091825180220205941",
    "title": "KAWAII12091825180220205941",
    "link_img": "https://live.staticflickr.com/65535/49694126526_2b65538756_o.jpg",
    "id_image": "KAWAII12091825180220205941",
    "count_view": 0
  },
  {
    "link_thumb": "https://live.staticflickr.com/65535/49693556048_0c840bf754_n.jpg",
    "id_album": "1201366373",
    "description": "KAWAII120918284",
    "title": "KAWAII120918284",
    "link_img": "https://live.staticflickr.com/65535/49693556048_4db1d42147_o.jpg",
    "id_image": "KAWAII120918284",
    "count_view": 0
  },
  {
    "link_thumb": "https://live.staticflickr.com/65535/49592209268_d679ee2f10_n.jpg",
    "id_album": "-1432180061",
    "description": "KAWAII270220235138",
    "title": "KAWAII270220235138",
    "link_img": "https://live.staticflickr.com/65535/49592209268_998a8a6dfe_o.jpg",
    "id_image": "KAWAII270220235138",
    "count_view": 0
  },
  {
    "link_thumb": "https://live.staticflickr.com/65535/49727790152_4604c02690_n.jpg",
    "id_album": "431597977",
    "description": "KAWAII020420194511191",
    "title": "KAWAII020420194511191",
    "link_img": "https://live.staticflickr.com/65535/49727790152_d4f0cd4654_o.jpg",
    "id_image": "KAWAII020420194511191",
    "count_view": 0
  },
  {
    "link_thumb": "https://live.staticflickr.com/65535/49727445436_f3b8dd6fbf_n.jpg",
    "id_album": "742877173",
    "description": "KAWAII020420194510129",
    "title": "KAWAII020420194510129",
    "link_img": "https://live.staticflickr.com/65535/49727445436_f64afefd76_o.jpg",
    "id_image": "KAWAII020420194510129",
    "count_view": 0
  },
  {
    "link_thumb": "https://live.staticflickr.com/65535/49552021163_d9561b31fa_n.jpg",
    "id_album": "-1694302085",
    "description": "KAWAII12091825180220205918",
    "title": "KAWAII12091825180220205918",
    "link_img": "https://live.staticflickr.com/65535/49552021163_bde41e67f8_o.jpg",
    "id_image": "KAWAII12091825180220205918",
    "count_view": 0
  },
  {
    "link_thumb": "https://live.staticflickr.com/65535/49548128508_514c1d5eaf_n.jpg",
    "id_album": "-1431786825",
    "description": "KAWAII1702202234104",
    "title": "KAWAII1702202234104",
    "link_img": "https://live.staticflickr.com/65535/49548128508_03e7f3913e_o.jpg",
    "id_image": "KAWAII1702202234104",
    "count_view": 0
  },
  {
    "link_thumb": "https://live.staticflickr.com/65535/49548627341_d1e91ca898_n.jpg",
    "id_album": "1396902986",
    "description": "KAWAII170220223332",
    "title": "KAWAII170220223332",
    "link_img": "https://live.staticflickr.com/65535/49548627341_947cb50218_o.jpg",
    "id_image": "KAWAII170220223332",
    "count_view": 0
  },
  {
    "link_thumb": "https://live.staticflickr.com/65535/49693582773_e50cbac94e_n.jpg",
    "id_album": "-358592519",
    "description": "KAWAII1702202238483",
    "title": "KAWAII1702202238483",
    "link_img": "https://live.staticflickr.com/65535/49693582773_bc3a7397b2_o.jpg",
    "id_image": "KAWAII1702202238483",
    "count_view": 0
  },
  {
    "link_thumb": "https://live.staticflickr.com/65535/49742390688_6c1335e846_n.jpg",
    "id_album": "-1473448477",
    "description": "KAWAII060420214915278",
    "title": "KAWAII060420214915278",
    "link_img": "https://live.staticflickr.com/65535/49742390688_e32c909954_o.jpg",
    "id_image": "KAWAII060420214915278",
    "count_view": 0
  },
  {
    "link_thumb": "https://live.staticflickr.com/65535/49622317388_d2ecc4cbfe_n.jpg",
    "id_album": "-316663319",
    "description": "KAWAII0503202021307",
    "title": "KAWAII0503202021307",
    "link_img": "https://live.staticflickr.com/65535/49622317388_f116ac2f51_o.jpg",
    "id_image": "KAWAII0503202021307",
    "count_view": 0
  },
  {
    "link_thumb": "https://live.staticflickr.com/65535/49694388417_0823b76ba4_n.jpg",
    "id_album": "1201366373",
    "description": "KAWAII120918162",
    "title": "KAWAII120918162",
    "link_img": "https://live.staticflickr.com/65535/49694388417_d1d490b578_o.jpg",
    "id_image": "KAWAII120918162",
    "count_view": 0
  },
  {
    "link_thumb": "https://live.staticflickr.com/65535/49592719881_41b92ed558_n.jpg",
    "id_album": "-316663319",
    "description": "KAWAII270220235174",
    "title": "KAWAII270220235174",
    "link_img": "https://live.staticflickr.com/65535/49592719881_f369e1fc47_o.jpg",
    "id_image": "KAWAII270220235174",
    "count_view": 0
  },
  {
    "link_thumb": "https://live.staticflickr.com/65535/49742921686_7245a4fb8a_n.jpg",
    "id_album": "-316663319",
    "description": "KAWAII060420214912232",
    "title": "KAWAII060420214912232",
    "link_img": "https://live.staticflickr.com/65535/49742921686_db426d9638_o.jpg",
    "id_image": "KAWAII060420214912232",
    "count_view": 0
  },
  {
    "link_thumb": "https://live.staticflickr.com/65535/49710287328_18c2ba3d5f_n.jpg",
    "id_album": "-1599896063",
    "description": "LITTLEMONK29032012063624",
    "title": "LITTLEMONK29032012063624",
    "link_img": "https://live.staticflickr.com/65535/49710287328_1c3a63f6c7_o.jpg",
    "id_image": "LITTLEMONK29032012063624",
    "count_view": 0
  },
  {
    "link_thumb": "https://live.staticflickr.com/65535/49693544323_3876cf45a3_n.jpg",
    "id_album": "1201366373",
    "description": "KAWAII120918178",
    "title": "KAWAII120918178",
    "link_img": "https://live.staticflickr.com/65535/49693544323_3bfcdb0658_o.jpg",
    "id_image": "KAWAII120918178",
    "count_view": 0
  },
  {
    "link_thumb": "https://live.staticflickr.com/65535/49742958826_9d73988b98_n.jpg",
    "id_album": "1226948986",
    "description": "KAWAII060420214918254",
    "title": "KAWAII060420214918254",
    "link_img": "https://live.staticflickr.com/65535/49742958826_454e3e0b10_o.jpg",
    "id_image": "KAWAII060420214918254",
    "count_view": 0
  },
  {
    "link_thumb": "https://live.staticflickr.com/65535/49727435321_745f69d1d7_n.jpg",
    "id_album": "-1497779911",
    "description": "KAWAII17091851",
    "title": "KAWAII17091851",
    "link_img": "https://live.staticflickr.com/65535/49727435321_421dab3039_o.jpg",
    "id_image": "KAWAII17091851",
    "count_view": 0
  },
  {
    "link_thumb": "https://live.staticflickr.com/65535/49548734621_6f7909057d_n.jpg",
    "id_album": "-1431786825",
    "description": "KAWAII1702202239508",
    "title": "KAWAII1702202239508",
    "link_img": "https://live.staticflickr.com/65535/49548734621_96211a1217_o.jpg",
    "id_image": "KAWAII1702202239508",
    "count_view": 0
  },
  {
    "link_thumb": "https://live.staticflickr.com/65535/49742407823_323f75a2aa_n.jpg",
    "id_album": "-1431786825",
    "description": "KAWAII060420214914275",
    "title": "KAWAII060420214914275",
    "link_img": "https://live.staticflickr.com/65535/49742407823_2e8d533bf4_o.jpg",
    "id_image": "KAWAII060420214914275",
    "count_view": 0
  },
  {
    "link_thumb": "https://live.staticflickr.com/65535/49742946911_554a53ee30_n.jpg",
    "id_album": "1396902986",
    "description": "KAWAII06042021491181",
    "title": "KAWAII06042021491181",
    "link_img": "https://live.staticflickr.com/65535/49742946911_fa5d7f719b_o.jpg",
    "id_image": "KAWAII06042021491181",
    "count_view": 0
  },
  {
    "link_thumb": "https://live.staticflickr.com/65535/49727469631_da5e3d1ea9_n.jpg",
    "id_album": "-1862561193",
    "description": "KAWAII020420194511194",
    "title": "KAWAII020420194511194",
    "link_img": "https://live.staticflickr.com/65535/49727469631_c02d13e981_o.jpg",
    "id_image": "KAWAII020420194511194",
    "count_view": 0
  },
  {
    "link_thumb": "https://live.staticflickr.com/65535/49592214213_574d679760_n.jpg",
    "id_album": "-316663319",
    "description": "KAWAII270220235117",
    "title": "KAWAII270220235117",
    "link_img": "https://live.staticflickr.com/65535/49592214213_4fdbd065b2_o.jpg",
    "id_image": "KAWAII270220235117",
    "count_view": 0
  },
  {
    "link_thumb": "https://live.staticflickr.com/65535/49742913141_80dec690d6_n.jpg",
    "id_album": "-1741487325",
    "description": "KAWAII060420214918267",
    "title": "KAWAII060420214918267",
    "link_img": "https://live.staticflickr.com/65535/49742913141_792bfbdf35_o.jpg",
    "id_image": "KAWAII060420214918267",
    "count_view": 0
  },
  {
    "link_thumb": "https://live.staticflickr.com/65535/49592948092_7d75e5c2a9_n.jpg",
    "id_album": "-422187261",
    "description": "KAWAII270220235162",
    "title": "KAWAII270220235162",
    "link_img": "https://live.staticflickr.com/65535/49592948092_940e81a76a_o.jpg",
    "id_image": "KAWAII270220235162",
    "count_view": 0
  },
  {
    "link_thumb": "https://live.staticflickr.com/65535/49592225723_8efd54fe30_n.jpg",
    "id_album": "949200594",
    "description": "KAWAII2702202351100",
    "title": "KAWAII2702202351100",
    "link_img": "https://live.staticflickr.com/65535/49592225723_39372012f5_o.jpg",
    "id_image": "KAWAII2702202351100",
    "count_view": 0
  },
  {
    "link_thumb": "https://live.staticflickr.com/65535/49694421397_1b9dd5a13f_n.jpg",
    "id_album": "1201366373",
    "description": "KAWAII17022023506",
    "title": "KAWAII17022023506",
    "link_img": "https://live.staticflickr.com/65535/49694421397_9545535f8f_o.jpg",
    "id_image": "KAWAII17022023506",
    "count_view": 0
  },
  {
    "link_thumb": "https://live.staticflickr.com/65535/49694085616_2567ac3105_n.jpg",
    "id_album": "1201366373",
    "description": "KAWAII12091816",
    "title": "KAWAII12091816",
    "link_img": "https://live.staticflickr.com/65535/49694085616_b9d55b8e93_o.jpg",
    "id_image": "KAWAII12091816",
    "count_view": 0
  },
  {
    "link_thumb": "https://live.staticflickr.com/65535/49694077156_c5fd24ec02_n.jpg",
    "id_album": "1201366373",
    "description": "KAWAII050320202157",
    "title": "KAWAII050320202157",
    "link_img": "https://live.staticflickr.com/65535/49694077156_9f3764fdb2_o.jpg",
    "id_image": "KAWAII050320202157",
    "count_view": 0
  },
  {
    "link_thumb": "https://live.staticflickr.com/65535/49742954641_b73e14ecc3_n.jpg",
    "id_album": "-1431786825",
    "description": "KAWAII060420214912321",
    "title": "KAWAII060420214912321",
    "link_img": "https://live.staticflickr.com/65535/49742954641_468d595548_o.jpg",
    "id_image": "KAWAII060420214912321",
    "count_view": 0
  },
  {
    "link_thumb": "https://live.staticflickr.com/65535/49622837701_8c5132a8df_n.jpg",
    "id_album": "-316663319",
    "description": "KAWAII050320202153",
    "title": "KAWAII050320202153",
    "link_img": "https://live.staticflickr.com/65535/49622837701_082e4868e9_o.jpg",
    "id_image": "KAWAII050320202153",
    "count_view": 0
  },
  {
    "link_thumb": "https://live.staticflickr.com/65535/49743239732_22caebe43d_n.jpg",
    "id_album": "-1497779911",
    "description": "KAWAII06042021491897",
    "title": "KAWAII06042021491897",
    "link_img": "https://live.staticflickr.com/65535/49743239732_45c8359692_o.jpg",
    "id_image": "KAWAII06042021491897",
    "count_view": 0
  },
  {
    "link_thumb": "https://live.staticflickr.com/65535/49694429872_2b6e9fdab7_n.jpg",
    "id_album": "1563362783",
    "description": "KAWAII1702202239529",
    "title": "KAWAII1702202239529",
    "link_img": "https://live.staticflickr.com/65535/49694429872_d589af1af9_o.jpg",
    "id_image": "KAWAII1702202239529",
    "count_view": 0
  },
  {
    "link_thumb": "https://live.staticflickr.com/65535/49726899433_0ced87f4a6_n.jpg",
    "id_album": "742877173",
    "description": "KAWAII02042019451025",
    "title": "KAWAII02042019451025",
    "link_img": "https://live.staticflickr.com/65535/49726899433_ba505a1f61_o.jpg",
    "id_image": "KAWAII02042019451025",
    "count_view": 0
  },
  {
    "link_thumb": "https://live.staticflickr.com/65535/49742398653_358db2c76e_n.jpg",
    "id_album": "-1779286820",
    "description": "KAWAII06042021491835",
    "title": "KAWAII06042021491835",
    "link_img": "https://live.staticflickr.com/65535/49742398653_4ee33a0760_o.jpg",
    "id_image": "KAWAII06042021491835",
    "count_view": 0
  },
  {
    "link_thumb": "https://live.staticflickr.com/65535/49693684043_a164af7b2f_n.jpg",
    "id_album": "1226948986",
    "description": "KAWAII24032022050214",
    "title": "KAWAII24032022050214",
    "link_img": "https://live.staticflickr.com/65535/49693684043_ee586dface_o.jpg",
    "id_image": "KAWAII24032022050214",
    "count_view": 0
  },
  {
    "link_thumb": "https://live.staticflickr.com/65535/49622841286_8de55c841f_n.jpg",
    "id_album": "-406350429",
    "description": "KAWAII0503202021101",
    "title": "KAWAII0503202021101",
    "link_img": "https://live.staticflickr.com/65535/49622841286_7d148d19f9_o.jpg",
    "id_image": "KAWAII0503202021101",
    "count_view": 0
  },
  {
    "link_thumb": "https://live.staticflickr.com/65535/49548994707_c8586bc144_n.jpg",
    "id_album": "-422187261",
    "description": "KAWAII17091833",
    "title": "KAWAII17091833",
    "link_img": "https://live.staticflickr.com/65535/49548994707_a8a894a3b9_o.jpg",
    "id_image": "KAWAII17091833",
    "count_view": 0
  },
  {
    "link_thumb": "https://live.staticflickr.com/65535/49548862102_8b2351b5b6_n.jpg",
    "id_album": "-1099943053",
    "description": "KAWAII170220223442",
    "title": "KAWAII170220223442",
    "link_img": "https://live.staticflickr.com/65535/49548862102_248811aa32_o.jpg",
    "id_image": "KAWAII170220223442",
    "count_view": 0
  },
  {
    "link_thumb": "https://live.staticflickr.com/65535/49592212603_ef02e6c970_n.jpg",
    "id_album": "-316663319",
    "description": "KAWAII2702202351139",
    "title": "KAWAII2702202351139",
    "link_img": "https://live.staticflickr.com/65535/49592212603_896797164e_o.jpg",
    "id_image": "KAWAII2702202351139",
    "count_view": 0
  },
  {
    "link_thumb": "https://live.staticflickr.com/65535/49592713626_c8f6ce9963_n.jpg",
    "id_album": "-316663319",
    "description": "KAWAII2702202351110",
    "title": "KAWAII2702202351110",
    "link_img": "https://live.staticflickr.com/65535/49592713626_9a23665c78_o.jpg",
    "id_image": "KAWAII2702202351110",
    "count_view": 0
  },
  {
    "link_thumb": "https://live.staticflickr.com/65535/49592730316_ed0a33a677_n.jpg",
    "id_album": "949200594",
    "description": "KAWAII2702202351125",
    "title": "KAWAII2702202351125",
    "link_img": "https://live.staticflickr.com/65535/49592730316_b1b244bfb2_o.jpg",
    "id_image": "KAWAII2702202351125",
    "count_view": 0
  },
  {
    "link_thumb": "https://live.staticflickr.com/65535/49726920378_5fe622b19f_n.jpg",
    "id_album": "-1862561193",
    "description": "KAWAII02042019450970",
    "title": "KAWAII02042019450970",
    "link_img": "https://live.staticflickr.com/65535/49726920378_b7e012f436_o.jpg",
    "id_image": "KAWAII02042019450970",
    "count_view": 0
  },
  {
    "link_thumb": "https://live.staticflickr.com/65535/49694380432_89f3889088_n.jpg",
    "id_album": "-643980979",
    "description": "KAWAII050320202175",
    "title": "KAWAII050320202175",
    "link_img": "https://live.staticflickr.com/65535/49694380432_579e059c17_o.jpg",
    "id_image": "KAWAII050320202175",
    "count_view": 0
  },
  {
    "link_thumb": "https://live.staticflickr.com/65535/49548661441_14782e41aa_n.jpg",
    "id_album": "1396902986",
    "description": "KAWAII1702202235195",
    "title": "KAWAII1702202235195",
    "link_img": "https://live.staticflickr.com/65535/49548661441_a2262afb5f_o.jpg",
    "id_image": "KAWAII1702202235195",
    "count_view": 0
  },
  {
    "link_thumb": "https://live.staticflickr.com/65535/49548083248_38f59ac156_n.jpg",
    "id_album": "-1741487325",
    "description": "KAWAII12091828",
    "title": "KAWAII12091828",
    "link_img": "https://live.staticflickr.com/65535/49548083248_c20621c5d3_o.jpg",
    "id_image": "KAWAII12091828",
    "count_view": 0
  },
  {
    "link_thumb": "https://live.staticflickr.com/65535/49694393502_2237f4da4a_n.jpg",
    "id_album": "1201366373",
    "description": "KAWAII120918208",
    "title": "KAWAII120918208",
    "link_img": "https://live.staticflickr.com/65535/49694393502_4971805d9e_o.jpg",
    "id_image": "KAWAII120918208",
    "count_view": 0
  },
  {
    "link_thumb": "https://live.staticflickr.com/65535/49548850542_101fe68911_n.jpg",
    "id_album": "431597977",
    "description": "KAWAII170220223312",
    "title": "KAWAII170220223312",
    "link_img": "https://live.staticflickr.com/65535/49548850542_8e4da06f99_o.jpg",
    "id_image": "KAWAII170220223312",
    "count_view": 0
  },
  {
    "link_thumb": "https://live.staticflickr.com/65535/49622283833_4431a37fe7_n.jpg",
    "id_album": "1396902986",
    "description": "KAWAII0503202021108",
    "title": "KAWAII0503202021108",
    "link_img": "https://live.staticflickr.com/65535/49622283833_65829db4d6_o.jpg",
    "id_image": "KAWAII0503202021108",
    "count_view": 0
  },
  {
    "link_thumb": "https://live.staticflickr.com/65535/49743237517_b351117ef9_n.jpg",
    "id_album": "-1497779911",
    "description": "KAWAII06042021491250",
    "title": "KAWAII06042021491250",
    "link_img": "https://live.staticflickr.com/65535/49743237517_e4792d6594_o.jpg",
    "id_image": "KAWAII06042021491250",
    "count_view": 0
  },
  {
    "link_thumb": "https://live.staticflickr.com/65535/49548060263_8d7e848b2a_n.jpg",
    "id_album": "-1741487325",
    "description": "KAWAII120918173",
    "title": "KAWAII120918173",
    "link_img": "https://live.staticflickr.com/65535/49548060263_d35db328c4_o.jpg",
    "id_image": "KAWAII120918173",
    "count_view": 0
  },
  {
    "link_thumb": "https://live.staticflickr.com/65535/49623081207_309c899daa_n.jpg",
    "id_album": "-1741487325",
    "description": "KAWAII050320202190",
    "title": "KAWAII050320202190",
    "link_img": "https://live.staticflickr.com/65535/49623081207_5fd50b8331_o.jpg",
    "id_image": "KAWAII050320202190",
    "count_view": 0
  },
  {
    "link_thumb": "https://live.staticflickr.com/65535/49694124706_1103db9b34_n.jpg",
    "id_album": "-358592519",
    "description": "KAWAII170220223465",
    "title": "KAWAII170220223465",
    "link_img": "https://live.staticflickr.com/65535/49694124706_3844e47e04_o.jpg",
    "id_image": "KAWAII170220223465",
    "count_view": 0
  },
  {
    "link_thumb": "https://live.staticflickr.com/65535/49548097683_dce4ccbd7e_n.jpg",
    "id_album": "1396902986",
    "description": "KAWAII120918338",
    "title": "KAWAII120918338",
    "link_img": "https://live.staticflickr.com/65535/49548097683_818d033f2d_o.jpg",
    "id_image": "KAWAII120918338",
    "count_view": 0
  },
  {
    "link_thumb": "https://live.staticflickr.com/65535/49548834887_675f3dd3b1_n.jpg",
    "id_album": "-1741487325",
    "description": "KAWAII120918369",
    "title": "KAWAII120918369",
    "link_img": "https://live.staticflickr.com/65535/49548834887_e90e9472a9_o.jpg",
    "id_image": "KAWAII120918369",
    "count_view": 0
  },
  {
    "link_thumb": "https://live.staticflickr.com/65535/49743238712_63dded63b7_n.jpg",
    "id_album": "-1497779911",
    "description": "KAWAII06042021491445",
    "title": "KAWAII06042021491445",
    "link_img": "https://live.staticflickr.com/65535/49743238712_d4ec543d5d_o.jpg",
    "id_image": "KAWAII06042021491445",
    "count_view": 0
  },
  {
    "link_thumb": "https://live.staticflickr.com/65535/49548835222_2433b1acd6_n.jpg",
    "id_album": "-1741487325",
    "description": "KAWAII120918370",
    "title": "KAWAII120918370",
    "link_img": "https://live.staticflickr.com/65535/49548835222_33e1fa10d3_o.jpg",
    "id_image": "KAWAII120918370",
    "count_view": 0
  },
  {
    "link_thumb": "https://live.staticflickr.com/65535/49693541103_494d54ccb0_n.jpg",
    "id_album": "1201366373",
    "description": "KAWAII120918152",
    "title": "KAWAII120918152",
    "link_img": "https://live.staticflickr.com/65535/49693541103_bd085df047_o.jpg",
    "id_image": "KAWAII120918152",
    "count_view": 0
  },
  {
    "link_thumb": "https://live.staticflickr.com/65535/49743268987_a02ff27df9_n.jpg",
    "id_album": "-1779286820",
    "description": "KAWAII060420214918105",
    "title": "KAWAII060420214918105",
    "link_img": "https://live.staticflickr.com/65535/49743268987_0692e47578_o.jpg",
    "id_image": "KAWAII060420214918105",
    "count_view": 0
  },
  {
    "link_thumb": "https://live.staticflickr.com/65535/49578751021_24517b2d60_n.jpg",
    "id_album": "-316663319",
    "description": "KAWAII19022021119",
    "title": "KAWAII19022021119",
    "link_img": "https://live.staticflickr.com/65535/49578751021_dc150cfc10_o.jpg",
    "id_image": "KAWAII19022021119",
    "count_view": 0
  },
  {
    "link_thumb": "https://live.staticflickr.com/65535/49623081432_ec98924b7d_n.jpg",
    "id_album": "-1741487325",
    "description": "KAWAII050320202196",
    "title": "KAWAII050320202196",
    "link_img": "https://live.staticflickr.com/65535/49623081432_58ac0cdf75_o.jpg",
    "id_image": "KAWAII050320202196",
    "count_view": 0
  },
  {
    "link_thumb": "https://live.staticflickr.com/65535/49727756082_5da809012c_n.jpg",
    "id_album": "742877173",
    "description": "KAWAII020420194508118",
    "title": "KAWAII020420194508118",
    "link_img": "https://live.staticflickr.com/65535/49727756082_3e77906345_o.jpg",
    "id_image": "KAWAII020420194508118",
    "count_view": 0
  },
  {
    "link_thumb": "https://live.staticflickr.com/65535/49693573003_ffd761a981_n.jpg",
    "id_album": "-643980979",
    "description": "KAWAII170220234614",
    "title": "KAWAII170220234614",
    "link_img": "https://live.staticflickr.com/65535/49693573003_47f7766916_o.jpg",
    "id_image": "KAWAII170220234614",
    "count_view": 0
  },
  {
    "link_thumb": "https://live.staticflickr.com/65535/49622329163_7bf2efc724_n.jpg",
    "id_album": "-406350429",
    "description": "KAWAII0503202021187",
    "title": "KAWAII0503202021187",
    "link_img": "https://live.staticflickr.com/65535/49622329163_f4aa1f3bc6_o.jpg",
    "id_image": "KAWAII0503202021187",
    "count_view": 0
  },
  {
    "link_thumb": "https://live.staticflickr.com/65535/49622843141_76787b1df9_n.jpg",
    "id_album": "-406350429",
    "description": "KAWAII0503202021161",
    "title": "KAWAII0503202021161",
    "link_img": "https://live.staticflickr.com/65535/49622843141_2fc1c18ce8_o.jpg",
    "id_image": "KAWAII0503202021161",
    "count_view": 0
  },
  {
    "link_thumb": "https://live.staticflickr.com/65535/49743254072_012f4c650a_n.jpg",
    "id_album": "-316663319",
    "description": "KAWAII06042021491586",
    "title": "KAWAII06042021491586",
    "link_img": "https://live.staticflickr.com/65535/49743254072_b73232a519_o.jpg",
    "id_image": "KAWAII06042021491586",
    "count_view": 0
  },
  {
    "link_thumb": "https://live.staticflickr.com/65535/49552520441_084ea7f0c8_n.jpg",
    "id_album": "-1694302085",
    "description": "KAWAII12091825180220205935",
    "title": "KAWAII12091825180220205935",
    "link_img": "https://live.staticflickr.com/65535/49552520441_ca754aa233_o.jpg",
    "id_image": "KAWAII12091825180220205935",
    "count_view": 0
  },
  {
    "link_thumb": "https://live.staticflickr.com/65535/49694373172_02f25a146a_n.jpg",
    "id_album": "1201366373",
    "description": "KAWAII0503202021157",
    "title": "KAWAII0503202021157",
    "link_img": "https://live.staticflickr.com/65535/49694373172_b4df919907_o.jpg",
    "id_image": "KAWAII0503202021157",
    "count_view": 0
  },
  {
    "link_thumb": "https://live.staticflickr.com/65535/49548582101_8411607161_n.jpg",
    "id_album": "-1741487325",
    "description": "KAWAII120918266",
    "title": "KAWAII120918266",
    "link_img": "https://live.staticflickr.com/65535/49548582101_4076cf9316_o.jpg",
    "id_image": "KAWAII120918266",
    "count_view": 0
  },
  {
    "link_thumb": "https://live.staticflickr.com/65535/49548708171_6d1d5e9699_n.jpg",
    "id_album": "-1741487325",
    "description": "KAWAII1702202238410",
    "title": "KAWAII1702202238410",
    "link_img": "https://live.staticflickr.com/65535/49548708171_89e5112627_o.jpg",
    "id_image": "KAWAII1702202238410",
    "count_view": 0
  },
  {
    "link_thumb": "https://live.staticflickr.com/65535/49726893053_4d660b063a_n.jpg",
    "id_album": "-316663319",
    "description": "KAWAII020420194513251",
    "title": "KAWAII020420194513251",
    "link_img": "https://live.staticflickr.com/65535/49726893053_085b300972_o.jpg",
    "id_image": "KAWAII020420194513251",
    "count_view": 0
  },
  {
    "link_thumb": "https://live.staticflickr.com/65535/49727784282_3fa89588d1_n.jpg",
    "id_album": "-1862561193",
    "description": "KAWAII02042019451140",
    "title": "KAWAII02042019451140",
    "link_img": "https://live.staticflickr.com/65535/49727784282_4ed66233ee_o.jpg",
    "id_image": "KAWAII02042019451140",
    "count_view": 0
  },
  {
    "link_thumb": "https://live.staticflickr.com/65535/49694216611_d0f7c86d52_n.jpg",
    "id_album": "-1741487325",
    "description": "KAWAII120918249",
    "title": "KAWAII120918249",
    "link_img": "https://live.staticflickr.com/65535/49694216611_86a098ca41_o.jpg",
    "id_image": "KAWAII120918249",
    "count_view": 0
  },
  {
    "link_thumb": "https://live.staticflickr.com/65535/49548545271_67591625b4_n.jpg",
    "id_album": "-1741487325",
    "description": "KAWAII120918104",
    "title": "KAWAII120918104",
    "link_img": "https://live.staticflickr.com/65535/49548545271_6b90942aaf_o.jpg",
    "id_image": "KAWAII120918104",
    "count_view": 0
  },
  {
    "link_thumb": "https://live.staticflickr.com/65535/49742369103_b35dcc7e8f_n.jpg",
    "id_album": "-643980979",
    "description": "KAWAII270220235134",
    "title": "KAWAII270220235134",
    "link_img": "https://live.staticflickr.com/65535/49742369103_90c86aa867_o.jpg",
    "id_image": "KAWAII270220235134",
    "count_view": 0
  },
  {
    "link_thumb": "https://live.staticflickr.com/65535/49578975207_2c54b27a75_n.jpg",
    "id_album": "-1741487325",
    "description": "KAWAII19022021111",
    "title": "KAWAII19022021111",
    "link_img": "https://live.staticflickr.com/65535/49578975207_d8f3a27688_o.jpg",
    "id_image": "KAWAII19022021111",
    "count_view": 0
  },
  {
    "link_thumb": "https://live.staticflickr.com/65535/49622308243_cf8039b3fc_n.jpg",
    "id_album": "-316663319",
    "description": "KAWAII0503202021207",
    "title": "KAWAII0503202021207",
    "link_img": "https://live.staticflickr.com/65535/49622308243_33f990139d_o.jpg",
    "id_image": "KAWAII0503202021207",
    "count_view": 0
  },
  {
    "link_thumb": "https://live.staticflickr.com/65535/49742932331_dd92b481c5_n.jpg",
    "id_album": "-316663319",
    "description": "KAWAII06042021491767",
    "title": "KAWAII06042021491767",
    "link_img": "https://live.staticflickr.com/65535/49742932331_ce3f21680a_o.jpg",
    "id_image": "KAWAII06042021491767",
    "count_view": 0
  },
  {
    "link_thumb": "https://live.staticflickr.com/65535/49623093352_35b1d184b3_n.jpg",
    "id_album": "-316663319",
    "description": "KAWAII0503202021191",
    "title": "KAWAII0503202021191",
    "link_img": "https://live.staticflickr.com/65535/49623093352_c23b7e6dbd_o.jpg",
    "id_image": "KAWAII0503202021191",
    "count_view": 0
  },
  {
    "link_thumb": "https://live.staticflickr.com/65535/49742900241_e939992b5b_n.jpg",
    "id_album": "-1913845949",
    "description": "KAWAII06042021491144",
    "title": "KAWAII06042021491144",
    "link_img": "https://live.staticflickr.com/65535/49742900241_c60f6d444d_o.jpg",
    "id_image": "KAWAII06042021491144",
    "count_view": 0
  },
  {
    "link_thumb": "https://live.staticflickr.com/65535/49548665886_19a3b84cbf_n.jpg",
    "id_album": "-422187261",
    "description": "KAWAII1702202235216",
    "title": "KAWAII1702202235216",
    "link_img": "https://live.staticflickr.com/65535/49548665886_e19ea7dbe9_o.jpg",
    "id_image": "KAWAII1702202235216",
    "count_view": 0
  },
  {
    "link_thumb": "https://live.staticflickr.com/65535/49548783112_1458102d7c_n.jpg",
    "id_album": "-422187261",
    "description": "KAWAII120918147",
    "title": "KAWAII120918147",
    "link_img": "https://live.staticflickr.com/65535/49548783112_bc54d6cfca_o.jpg",
    "id_image": "KAWAII120918147",
    "count_view": 0
  },
  {
    "link_thumb": "https://live.staticflickr.com/65535/49726883238_c1f6625ddc_n.jpg",
    "id_album": "-1497779911",
    "description": "KAWAII020420194512169",
    "title": "KAWAII020420194512169",
    "link_img": "https://live.staticflickr.com/65535/49726883238_e983ae8813_o.jpg",
    "id_image": "KAWAII020420194512169",
    "count_view": 0
  },
  {
    "link_thumb": "https://live.staticflickr.com/65535/49548965382_a0187cbe61_n.jpg",
    "id_album": "-1099943053",
    "description": "KAWAII1702202239522",
    "title": "KAWAII1702202239522",
    "link_img": "https://live.staticflickr.com/65535/49548965382_ab60cb6c53_o.jpg",
    "id_image": "KAWAII1702202239522",
    "count_view": 0
  },
  {
    "link_thumb": "https://live.staticflickr.com/65535/49726876713_347a15e4ed_n.jpg",
    "id_album": "-1694302085",
    "description": "KAWAII020420194508119",
    "title": "KAWAII020420194508119",
    "link_img": "https://live.staticflickr.com/65535/49726876713_7db942ecae_o.jpg",
    "id_image": "KAWAII020420194508119",
    "count_view": 0
  },
  {
    "link_thumb": "https://live.staticflickr.com/65535/49548105213_4534f29ce5_n.jpg",
    "id_album": "-1741487325",
    "description": "KAWAII120918368",
    "title": "KAWAII120918368",
    "link_img": "https://live.staticflickr.com/65535/49548105213_8eae108d58_o.jpg",
    "id_image": "KAWAII120918368",
    "count_view": 0
  },
  {
    "link_thumb": "https://live.staticflickr.com/65535/49694424447_8f64755220_n.jpg",
    "id_album": "-643980979",
    "description": "KAWAII270220235131",
    "title": "KAWAII270220235131",
    "link_img": "https://live.staticflickr.com/65535/49694424447_a654decb56_o.jpg",
    "id_image": "KAWAII270220235131",
    "count_view": 0
  },
  {
    "link_thumb": "https://live.staticflickr.com/65535/49622804266_a1708e07f0_n.jpg",
    "id_album": "1396902986",
    "description": "KAWAII0503202021303",
    "title": "KAWAII0503202021303",
    "link_img": "https://live.staticflickr.com/65535/49622804266_94fea22507_o.jpg",
    "id_image": "KAWAII0503202021303",
    "count_view": 0
  },
  {
    "link_thumb": "https://live.staticflickr.com/65535/49694074191_e14d810a12_n.jpg",
    "id_album": "1201366373",
    "description": "KAWAII0503202021272",
    "title": "KAWAII0503202021272",
    "link_img": "https://live.staticflickr.com/65535/49694074191_c31d33492f_o.jpg",
    "id_image": "KAWAII0503202021272",
    "count_view": 0
  },
  {
    "link_thumb": "https://live.staticflickr.com/65535/49548783917_0cd7aa6838_n.jpg",
    "id_album": "-1741487325",
    "description": "KAWAII120918150",
    "title": "KAWAII120918150",
    "link_img": "https://live.staticflickr.com/65535/49548783917_f8974d8288_o.jpg",
    "id_image": "KAWAII120918150",
    "count_view": 0
  },
  {
    "link_thumb": "https://live.staticflickr.com/65535/49548633176_6ac21f02a2_n.jpg",
    "id_album": "1396902986",
    "description": "KAWAII1702202234124",
    "title": "KAWAII1702202234124",
    "link_img": "https://live.staticflickr.com/65535/49548633176_1d50f4508e_o.jpg",
    "id_image": "KAWAII1702202234124",
    "count_view": 0
  },
  {
    "link_thumb": "https://live.staticflickr.com/65535/49622305398_fc6c1afdd2_n.jpg",
    "id_album": "-316663319",
    "description": "KAWAII0503202021184",
    "title": "KAWAII0503202021184",
    "link_img": "https://live.staticflickr.com/65535/49622305398_db7491fa16_o.jpg",
    "id_image": "KAWAII0503202021184",
    "count_view": 0
  },
  {
    "link_thumb": "https://live.staticflickr.com/65535/49727748897_340ff7ecbd_n.jpg",
    "id_album": "-1497779911",
    "description": "KAWAII1702202235213",
    "title": "KAWAII1702202235213",
    "link_img": "https://live.staticflickr.com/65535/49727748897_864116ab44_o.jpg",
    "id_image": "KAWAII1702202235213",
    "count_view": 0
  },
  {
    "link_thumb": "https://live.staticflickr.com/65535/49548628346_91796a04ee_n.jpg",
    "id_album": "1396902986",
    "description": "KAWAII17022022335",
    "title": "KAWAII17022022335",
    "link_img": "https://live.staticflickr.com/65535/49548628346_1a0f884a26_o.jpg",
    "id_image": "KAWAII17022022335",
    "count_view": 0
  },
  {
    "link_thumb": "https://live.staticflickr.com/65535/49548831437_5f1799ae82_n.jpg",
    "id_album": "-1741487325",
    "description": "KAWAII120918356",
    "title": "KAWAII120918356",
    "link_img": "https://live.staticflickr.com/65535/49548831437_157df654a0_o.jpg",
    "id_image": "KAWAII120918356",
    "count_view": 0
  },
  {
    "link_thumb": "https://live.staticflickr.com/65535/49548830407_1885e519e1_n.jpg",
    "id_album": "-1099943053",
    "description": "KAWAII120918351",
    "title": "KAWAII120918351",
    "link_img": "https://live.staticflickr.com/65535/49548830407_e3d8f85daa_o.jpg",
    "id_image": "KAWAII120918351",
    "count_view": 0
  },
  {
    "link_thumb": "https://live.staticflickr.com/65535/49742927826_6b604da117_n.jpg",
    "id_album": "-316663319",
    "description": "KAWAII060420214915208",
    "title": "KAWAII060420214915208",
    "link_img": "https://live.staticflickr.com/65535/49742927826_80a8486dc2_o.jpg",
    "id_image": "KAWAII060420214915208",
    "count_view": 0
  },
  {
    "link_thumb": "https://live.staticflickr.com/65535/49742410198_11b0110020_n.jpg",
    "id_album": "1226948986",
    "description": "KAWAII060420214911212",
    "title": "KAWAII060420214911212",
    "link_img": "https://live.staticflickr.com/65535/49742410198_306bfbd04b_o.jpg",
    "id_image": "KAWAII060420214911212",
    "count_view": 0
  },
  {
    "link_thumb": "https://live.staticflickr.com/65535/49622827431_3bd790c494_n.jpg",
    "id_album": "-316663319",
    "description": "KAWAII0503202021249",
    "title": "KAWAII0503202021249",
    "link_img": "https://live.staticflickr.com/65535/49622827431_1ff409f254_o.jpg",
    "id_image": "KAWAII0503202021249",
    "count_view": 0
  },
  {
    "link_thumb": "https://live.staticflickr.com/65535/49694521342_f81714dbf3_n.jpg",
    "id_album": "-643980979",
    "description": "KAWAII24032022050127",
    "title": "KAWAII24032022050127",
    "link_img": "https://live.staticflickr.com/65535/49694521342_a6e11da6d3_o.jpg",
    "id_image": "KAWAII24032022050127",
    "count_view": 0
  },
  {
    "link_thumb": "https://live.staticflickr.com/65535/49694421257_73b07e22c3_n.jpg",
    "id_album": "1201366373",
    "description": "KAWAII17022023504",
    "title": "KAWAII17022023504",
    "link_img": "https://live.staticflickr.com/65535/49694421257_a95c39fb40_o.jpg",
    "id_image": "KAWAII17022023504",
    "count_view": 0
  },
  {
    "link_thumb": "https://live.staticflickr.com/65535/49743240842_e2d22988ef_n.jpg",
    "id_album": "-1432180061",
    "description": "KAWAII060420214918251",
    "title": "KAWAII060420214918251",
    "link_img": "https://live.staticflickr.com/65535/49743240842_c2baa7d86b_o.jpg",
    "id_image": "KAWAII060420214918251",
    "count_view": 0
  },
  {
    "link_thumb": "https://live.staticflickr.com/65535/49623080782_dbe5e06e20_n.jpg",
    "id_album": "-1432180061",
    "description": "KAWAII050320202155",
    "title": "KAWAII050320202155",
    "link_img": "https://live.staticflickr.com/65535/49623080782_45549458fd_o.jpg",
    "id_image": "KAWAII050320202155",
    "count_view": 0
  },
  {
    "link_thumb": "https://live.staticflickr.com/65535/49726884643_2a9d92e5af_n.jpg",
    "id_album": "-1497779911",
    "description": "KAWAII050320202123",
    "title": "KAWAII050320202123",
    "link_img": "https://live.staticflickr.com/65535/49726884643_2321187220_o.jpg",
    "id_image": "KAWAII050320202123",
    "count_view": 0
  },
  {
    "link_thumb": "https://live.staticflickr.com/65535/49548883037_90f47a531b_n.jpg",
    "id_album": "-1099943053",
    "description": "KAWAII1702202235167",
    "title": "KAWAII1702202235167",
    "link_img": "https://live.staticflickr.com/65535/49548883037_5000aae354_o.jpg",
    "id_image": "KAWAII1702202235167",
    "count_view": 0
  },
  {
    "link_thumb": "https://live.staticflickr.com/65535/49693544168_467e9abb20_n.jpg",
    "id_album": "1201366373",
    "description": "KAWAII120918177",
    "title": "KAWAII120918177",
    "link_img": "https://live.staticflickr.com/65535/49693544168_251a2efff3_o.jpg",
    "id_image": "KAWAII120918177",
    "count_view": 0
  },
  {
    "link_thumb": "https://live.staticflickr.com/65535/49622328183_2d185dcd88_n.jpg",
    "id_album": "-406350429",
    "description": "KAWAII0503202021133",
    "title": "KAWAII0503202021133",
    "link_img": "https://live.staticflickr.com/65535/49622328183_1fa19329b7_o.jpg",
    "id_image": "KAWAII0503202021133",
    "count_view": 0
  },
  {
    "link_thumb": "https://live.staticflickr.com/65535/49592708311_2d65f18178_n.jpg",
    "id_album": "1396902986",
    "description": "KAWAII270220235139",
    "title": "KAWAII270220235139",
    "link_img": "https://live.staticflickr.com/65535/49592708311_0cf0c4c8f1_o.jpg",
    "id_image": "KAWAII270220235139",
    "count_view": 0
  },
  {
    "link_thumb": "https://live.staticflickr.com/65535/49623091632_8f97fdb1d1_n.jpg",
    "id_album": "-316663319",
    "description": "KAWAII0503202021175",
    "title": "KAWAII0503202021175",
    "link_img": "https://live.staticflickr.com/65535/49623091632_ed87177a81_o.jpg",
    "id_image": "KAWAII0503202021175",
    "count_view": 0
  },
  {
    "link_thumb": "https://live.staticflickr.com/65535/49694120256_28cdfc4b93_n.jpg",
    "id_album": "-643980979",
    "description": "KAWAII1709186",
    "title": "KAWAII1709186",
    "link_img": "https://live.staticflickr.com/65535/49694120256_9b5ee318c4_o.jpg",
    "id_image": "KAWAII1709186",
    "count_view": 0
  },
  {
    "link_thumb": "https://live.staticflickr.com/65535/49552023193_1168d96f1a_n.jpg",
    "id_album": "-1694302085",
    "description": "KAWAII12091825180220205933",
    "title": "KAWAII12091825180220205933",
    "link_img": "https://live.staticflickr.com/65535/49552023193_984f322a4e_o.jpg",
    "id_image": "KAWAII12091825180220205933",
    "count_view": 0
  },
  {
    "link_thumb": "https://live.staticflickr.com/65535/49743242907_6bd33ccf95_n.jpg",
    "id_album": "-128218148",
    "description": "KAWAII060420214912305",
    "title": "KAWAII060420214912305",
    "link_img": "https://live.staticflickr.com/65535/49743242907_3470684e9f_o.jpg",
    "id_image": "KAWAII060420214912305",
    "count_view": 0
  },
  {
    "link_thumb": "https://live.staticflickr.com/65535/49694102616_bcf5bbb1b1_n.jpg",
    "id_album": "1201366373",
    "description": "KAWAII12091852",
    "title": "KAWAII12091852",
    "link_img": "https://live.staticflickr.com/65535/49694102616_fe381c228e_o.jpg",
    "id_image": "KAWAII12091852",
    "count_view": 0
  },
  {
    "link_thumb": "https://live.staticflickr.com/65535/49694093706_d60073e99a_n.jpg",
    "id_album": "1201366373",
    "description": "KAWAII120918236",
    "title": "KAWAII120918236",
    "link_img": "https://live.staticflickr.com/65535/49694093706_39bf0f80cf_o.jpg",
    "id_image": "KAWAII120918236",
    "count_view": 0
  },
  {
    "link_thumb": "https://live.staticflickr.com/65535/49548632456_02d78aed1e_n.jpg",
    "id_album": "-316663319",
    "description": "KAWAII1702202234119",
    "title": "KAWAII1702202234119",
    "link_img": "https://live.staticflickr.com/65535/49548632456_9273938554_o.jpg",
    "id_image": "KAWAII1702202234119",
    "count_view": 0
  },
  {
    "link_thumb": "https://live.staticflickr.com/65535/49727475286_91fcb0b675_n.jpg",
    "id_album": "1226948986",
    "description": "KAWAII020420194508229",
    "title": "KAWAII020420194508229",
    "link_img": "https://live.staticflickr.com/65535/49727475286_d55afbf765_o.jpg",
    "id_image": "KAWAII020420194508229",
    "count_view": 0
  },
  {
    "link_thumb": "https://live.staticflickr.com/65535/49726880823_8e2104a30d_n.jpg",
    "id_album": "-1694302085",
    "description": "KAWAII270220235124",
    "title": "KAWAII270220235124",
    "link_img": "https://live.staticflickr.com/65535/49726880823_a91d8682c0_o.jpg",
    "id_image": "KAWAII270220235124",
    "count_view": 0
  },
  {
    "link_thumb": "https://live.staticflickr.com/65535/49693678043_28ff5f0824_n.jpg",
    "id_album": "-1432180061",
    "description": "KAWAII1702202237331",
    "title": "KAWAII1702202237331",
    "link_img": "https://live.staticflickr.com/65535/49693678043_e1f98b1124_o.jpg",
    "id_image": "KAWAII1702202237331",
    "count_view": 0
  },
  {
    "link_thumb": "https://live.staticflickr.com/65535/49622803226_76cafe0d42_n.jpg",
    "id_album": "1396902986",
    "description": "KAWAII0503202021277",
    "title": "KAWAII0503202021277",
    "link_img": "https://live.staticflickr.com/65535/49622803226_e5aed4ff94_o.jpg",
    "id_image": "KAWAII0503202021277",
    "count_view": 0
  },
  {
    "link_thumb": "https://live.staticflickr.com/65535/49622290498_4b0b08cd85_n.jpg",
    "id_album": "-1741487325",
    "description": "KAWAII0503202021117",
    "title": "KAWAII0503202021117",
    "link_img": "https://live.staticflickr.com/65535/49622290498_c9f4c4f7ae_o.jpg",
    "id_image": "KAWAII0503202021117",
    "count_view": 0
  },
  {
    "link_thumb": "https://live.staticflickr.com/65535/49742915231_bdcaf55483_n.jpg",
    "id_album": "-1497779911",
    "description": "KAWAII06042021491499",
    "title": "KAWAII06042021491499",
    "link_img": "https://live.staticflickr.com/65535/49742915231_530e7591da_o.jpg",
    "id_image": "KAWAII06042021491499",
    "count_view": 0
  },
  {
    "link_thumb": "https://live.staticflickr.com/65535/49548598861_c539f958f9_n.jpg",
    "id_album": "-316663319",
    "description": "KAWAII120918334",
    "title": "KAWAII120918334",
    "link_img": "https://live.staticflickr.com/65535/49548598861_130472ddd0_o.jpg",
    "id_image": "KAWAII120918334",
    "count_view": 0
  },
  {
    "link_thumb": "https://live.staticflickr.com/65535/49710822451_3c883385b1_n.jpg",
    "id_album": "-1599896063",
    "description": "LITTLEMONK29032012063923",
    "title": "LITTLEMONK29032012063923",
    "link_img": "https://live.staticflickr.com/65535/49710822451_c8ba1ea2fe_o.jpg",
    "id_image": "LITTLEMONK29032012063923",
    "count_view": 0
  },
  {
    "link_thumb": "https://live.staticflickr.com/65535/49727429456_46991f2efe_n.jpg",
    "id_album": "-1741487325",
    "description": "KAWAII02042019451317",
    "title": "KAWAII02042019451317",
    "link_img": "https://live.staticflickr.com/65535/49727429456_8853ff650c_o.jpg",
    "id_image": "KAWAII02042019451317",
    "count_view": 0
  },
  {
    "link_thumb": "https://live.staticflickr.com/65535/49622318298_c76690c0d0_n.jpg",
    "id_album": "-316663319",
    "description": "KAWAII0503202021318",
    "title": "KAWAII0503202021318",
    "link_img": "https://live.staticflickr.com/65535/49622318298_b27af57c0d_o.jpg",
    "id_image": "KAWAII0503202021318",
    "count_view": 0
  },
  {
    "link_thumb": "https://live.staticflickr.com/65535/49622808686_2516abf137_n.jpg",
    "id_album": "-1741487325",
    "description": "KAWAII050320202173",
    "title": "KAWAII050320202173",
    "link_img": "https://live.staticflickr.com/65535/49622808686_4f6b8249d3_o.jpg",
    "id_image": "KAWAII050320202173",
    "count_view": 0
  },
  {
    "link_thumb": "https://live.staticflickr.com/65535/49727452801_b9eb6a96fd_n.jpg",
    "id_album": "742877173",
    "description": "KAWAII02042019451424",
    "title": "KAWAII02042019451424",
    "link_img": "https://live.staticflickr.com/65535/49727452801_8e28368279_o.jpg",
    "id_image": "KAWAII02042019451424",
    "count_view": 0
  },
  {
    "link_thumb": "https://live.staticflickr.com/65535/49693567538_cf1f40e282_n.jpg",
    "id_album": "-643980979",
    "description": "KAWAII1702202236291",
    "title": "KAWAII1702202236291",
    "link_img": "https://live.staticflickr.com/65535/49693567538_534a3fa332_o.jpg",
    "id_image": "KAWAII1702202236291",
    "count_view": 0
  },
  {
    "link_thumb": "https://live.staticflickr.com/65535/49548572826_f4e86f8f90_n.jpg",
    "id_album": "-1694302085",
    "description": "KAWAII120918220",
    "title": "KAWAII120918220",
    "link_img": "https://live.staticflickr.com/65535/49548572826_25cc91e0a9_o.jpg",
    "id_image": "KAWAII120918220",
    "count_view": 0
  },
  {
    "link_thumb": "https://live.staticflickr.com/65535/49727786567_53f487c2c8_n.jpg",
    "id_album": "-1862561193",
    "description": "KAWAII02042019451318",
    "title": "KAWAII02042019451318",
    "link_img": "https://live.staticflickr.com/65535/49727786567_55a0f50465_o.jpg",
    "id_image": "KAWAII02042019451318",
    "count_view": 0
  },
  {
    "link_thumb": "https://live.staticflickr.com/65535/49548836412_02acd675ab_n.jpg",
    "id_album": "-1741487325",
    "description": "KAWAII120918376",
    "title": "KAWAII120918376",
    "link_img": "https://live.staticflickr.com/65535/49548836412_e605c89512_o.jpg",
    "id_image": "KAWAII120918376",
    "count_view": 0
  },
  {
    "link_thumb": "https://live.staticflickr.com/65535/49727745242_30f5689fc8_n.jpg",
    "id_album": "-1497779911",
    "description": "KAWAII0503202021111",
    "title": "KAWAII0503202021111",
    "link_img": "https://live.staticflickr.com/65535/49727745242_eabb43d373_o.jpg",
    "id_image": "KAWAII0503202021111",
    "count_view": 0
  },
  {
    "link_thumb": "https://live.staticflickr.com/65535/49622848066_e50e00a1a6_n.jpg",
    "id_album": "-406350429",
    "description": "KAWAII0503202021308",
    "title": "KAWAII0503202021308",
    "link_img": "https://live.staticflickr.com/65535/49622848066_1a10d01fed_o.jpg",
    "id_image": "KAWAII0503202021308",
    "count_view": 0
  },
  {
    "link_thumb": "https://live.staticflickr.com/65535/49727450066_b7156a255a_n.jpg",
    "id_album": "742877173",
    "description": "KAWAII02042019451235",
    "title": "KAWAII02042019451235",
    "link_img": "https://live.staticflickr.com/65535/49727450066_8ced2037ab_o.jpg",
    "id_image": "KAWAII02042019451235",
    "count_view": 0
  },
  {
    "link_thumb": "https://live.staticflickr.com/65535/49694388512_b37270390e_n.jpg",
    "id_album": "1201366373",
    "description": "KAWAII120918163",
    "title": "KAWAII120918163",
    "link_img": "https://live.staticflickr.com/65535/49694388512_4d13cf57f1_o.jpg",
    "id_image": "KAWAII120918163",
    "count_view": 0
  },
  {
    "link_thumb": "https://live.staticflickr.com/65535/49743230407_647f4957e1_n.jpg",
    "id_album": "-422187261",
    "description": "KAWAII060420214912126",
    "title": "KAWAII060420214912126",
    "link_img": "https://live.staticflickr.com/65535/49743230407_19a72103ae_o.jpg",
    "id_image": "KAWAII060420214912126",
    "count_view": 0
  },
  {
    "link_thumb": "https://live.staticflickr.com/65535/49743282142_8e84ab67ca_n.jpg",
    "id_album": "1226948986",
    "description": "KAWAII060420214918282",
    "title": "KAWAII060420214918282",
    "link_img": "https://live.staticflickr.com/65535/49743282142_79a1d411eb_o.jpg",
    "id_image": "KAWAII060420214918282",
    "count_view": 0
  },
  {
    "link_thumb": "https://live.staticflickr.com/65535/49592231623_7d354d6249_n.jpg",
    "id_album": "-1431786825",
    "description": "KAWAII27022023512",
    "title": "KAWAII27022023512",
    "link_img": "https://live.staticflickr.com/65535/49592231623_1da59328d9_o.jpg",
    "id_image": "KAWAII27022023512",
    "count_view": 0
  },
  {
    "link_thumb": "https://live.staticflickr.com/65535/49622329373_ee5b1507ff_n.jpg",
    "id_album": "-406350429",
    "description": "KAWAII0503202021196",
    "title": "KAWAII0503202021196",
    "link_img": "https://live.staticflickr.com/65535/49622329373_3d1c00cf08_o.jpg",
    "id_image": "KAWAII0503202021196",
    "count_view": 0
  },
  {
    "link_thumb": "https://live.staticflickr.com/65535/49694082046_dc59a22f03_n.jpg",
    "id_album": "1201366373",
    "description": "KAWAII120918115",
    "title": "KAWAII120918115",
    "link_img": "https://live.staticflickr.com/65535/49694082046_3132ff6942_o.jpg",
    "id_image": "KAWAII120918115",
    "count_view": 0
  },
  {
    "link_thumb": "https://live.staticflickr.com/65535/49548049443_31ab26d006_n.jpg",
    "id_album": "-422187261",
    "description": "KAWAII120918129",
    "title": "KAWAII120918129",
    "link_img": "https://live.staticflickr.com/65535/49548049443_2473f62d23_o.jpg",
    "id_image": "KAWAII120918129",
    "count_view": 0
  },
  {
    "link_thumb": "https://live.staticflickr.com/65535/49693574143_b085e67ec3_n.jpg",
    "id_album": "-643980979",
    "description": "KAWAII17022023463",
    "title": "KAWAII17022023463",
    "link_img": "https://live.staticflickr.com/65535/49693574143_396fa49eca_o.jpg",
    "id_image": "KAWAII17022023463",
    "count_view": 0
  },
  {
    "link_thumb": "https://live.staticflickr.com/65535/49710286373_5453a7f24c_n.jpg",
    "id_album": "-1599896063",
    "description": "LITTLEMONK29032012063212",
    "title": "LITTLEMONK29032012063212",
    "link_img": "https://live.staticflickr.com/65535/49710286373_05b860020e_o.jpg",
    "id_image": "LITTLEMONK29032012063212",
    "count_view": 0
  },
  {
    "link_thumb": "https://live.staticflickr.com/65535/49548842647_98cc1d909e_n.jpg",
    "id_album": "-422187261",
    "description": "KAWAII12091866",
    "title": "KAWAII12091866",
    "link_img": "https://live.staticflickr.com/65535/49548842647_e426b9680e_o.jpg",
    "id_image": "KAWAII12091866",
    "count_view": 0
  },
  {
    "link_thumb": "https://live.staticflickr.com/65535/49727741362_aa4939b53a_n.jpg",
    "id_album": "-1694302085",
    "description": "KAWAII1702202238438",
    "title": "KAWAII1702202238438",
    "link_img": "https://live.staticflickr.com/65535/49727741362_428eb0275b_o.jpg",
    "id_image": "KAWAII1702202238438",
    "count_view": 0
  },
  {
    "link_thumb": "https://live.staticflickr.com/65535/49548672371_252568297d_n.jpg",
    "id_album": "-316663319",
    "description": "KAWAII1702202236251",
    "title": "KAWAII1702202236251",
    "link_img": "https://live.staticflickr.com/65535/49548672371_60e39f5e8c_o.jpg",
    "id_image": "KAWAII1702202236251",
    "count_view": 0
  },
  {
    "link_thumb": "https://live.staticflickr.com/65535/49552020238_5f3b69df12_n.jpg",
    "id_album": "431597977",
    "description": "KAWAII12091825180220205910",
    "title": "KAWAII12091825180220205910",
    "link_img": "https://live.staticflickr.com/65535/49552020238_8e8b804ebf_o.jpg",
    "id_image": "KAWAII12091825180220205910",
    "count_view": 0
  },
  {
    "link_thumb": "https://live.staticflickr.com/65535/49742406163_cc276c784d_n.jpg",
    "id_album": "-1431786825",
    "description": "KAWAII060420214912210",
    "title": "KAWAII060420214912210",
    "link_img": "https://live.staticflickr.com/65535/49742406163_ba45b9011d_o.jpg",
    "id_image": "KAWAII060420214912210",
    "count_view": 0
  },
  {
    "link_thumb": "https://live.staticflickr.com/65535/49726927733_79a9a57a30_n.jpg",
    "id_album": "1563362783",
    "description": "KAWAII1702202238460",
    "title": "KAWAII1702202238460",
    "link_img": "https://live.staticflickr.com/65535/49726927733_12ced5ec71_o.jpg",
    "id_image": "KAWAII1702202238460",
    "count_view": 0
  },
  {
    "link_thumb": "https://live.staticflickr.com/65535/49548612096_56dbaf8b54_n.jpg",
    "id_album": "-422187261",
    "description": "KAWAII12091851",
    "title": "KAWAII12091851",
    "link_img": "https://live.staticflickr.com/65535/49548612096_e93a30cdd0_o.jpg",
    "id_image": "KAWAII12091851",
    "count_view": 0
  },
  {
    "link_thumb": "https://live.staticflickr.com/65535/49726885053_9ea365cccc_n.jpg",
    "id_album": "-1497779911",
    "description": "KAWAII050320202141",
    "title": "KAWAII050320202141",
    "link_img": "https://live.staticflickr.com/65535/49726885053_fe748f8203_o.jpg",
    "id_image": "KAWAII050320202141",
    "count_view": 0
  },
  {
    "link_thumb": "https://live.staticflickr.com/65535/49548931182_f11eeae028_n.jpg",
    "id_album": "-1741487325",
    "description": "KAWAII1702202237394",
    "title": "KAWAII1702202237394",
    "link_img": "https://live.staticflickr.com/65535/49548931182_daacf921f8_o.jpg",
    "id_image": "KAWAII1702202237394",
    "count_view": 0
  },
  {
    "link_thumb": "https://live.staticflickr.com/65535/49742945786_d5e0c62073_n.jpg",
    "id_album": "-1779286820",
    "description": "KAWAII060420214918264",
    "title": "KAWAII060420214918264",
    "link_img": "https://live.staticflickr.com/65535/49742945786_f45b580126_o.jpg",
    "id_image": "KAWAII060420214918264",
    "count_view": 0
  },
  {
    "link_thumb": "https://live.staticflickr.com/65535/49727443746_39772e8c52_n.jpg",
    "id_album": "742877173",
    "description": "KAWAII02042019450912",
    "title": "KAWAII02042019450912",
    "link_img": "https://live.staticflickr.com/65535/49727443746_cf6dea5443_o.jpg",
    "id_image": "KAWAII02042019450912",
    "count_view": 0
  },
  {
    "link_thumb": "https://live.staticflickr.com/65535/49548606596_66b1a69fc1_n.jpg",
    "id_album": "-1741487325",
    "description": "KAWAII120918366",
    "title": "KAWAII120918366",
    "link_img": "https://live.staticflickr.com/65535/49548606596_fb6fd5f586_o.jpg",
    "id_image": "KAWAII120918366",
    "count_view": 0
  },
  {
    "link_thumb": "https://live.staticflickr.com/65535/49622833316_5b2138bac9_n.jpg",
    "id_album": "-316663319",
    "description": "KAWAII0503202021324",
    "title": "KAWAII0503202021324",
    "link_img": "https://live.staticflickr.com/65535/49622833316_cdb05819ef_o.jpg",
    "id_image": "KAWAII0503202021324",
    "count_view": 0
  },
  {
    "link_thumb": "https://live.staticflickr.com/65535/49552519201_d4571ef7f6_n.jpg",
    "id_album": "-1694302085",
    "description": "KAWAII12091825180220205927",
    "title": "KAWAII12091825180220205927",
    "link_img": "https://live.staticflickr.com/65535/49552519201_c1699e990d_o.jpg",
    "id_image": "KAWAII12091825180220205927",
    "count_view": 0
  },
  {
    "link_thumb": "https://live.staticflickr.com/65535/49743247677_fdc0dc1ca9_n.jpg",
    "id_album": "-316663319",
    "description": "KAWAII060420214913153",
    "title": "KAWAII060420214913153",
    "link_img": "https://live.staticflickr.com/65535/49743247677_14ba0362cd_o.jpg",
    "id_image": "KAWAII060420214913153",
    "count_view": 0
  },
  {
    "link_thumb": "https://live.staticflickr.com/65535/49727781682_2040643dc2_n.jpg",
    "id_album": "-1862561193",
    "description": "KAWAII02042019450961",
    "title": "KAWAII02042019450961",
    "link_img": "https://live.staticflickr.com/65535/49727781682_3cb61d2e09_o.jpg",
    "id_image": "KAWAII02042019450961",
    "count_view": 0
  },
  {
    "link_thumb": "https://live.staticflickr.com/65535/49727751687_7a731233df_n.jpg",
    "id_album": "-316663319",
    "description": "KAWAII020420194510235",
    "title": "KAWAII020420194510235",
    "link_img": "https://live.staticflickr.com/65535/49727751687_d43218505f_o.jpg",
    "id_image": "KAWAII020420194510235",
    "count_view": 0
  },
  {
    "link_thumb": "https://live.staticflickr.com/65535/49694100376_5609d3e550_n.jpg",
    "id_album": "1201366373",
    "description": "KAWAII120918310",
    "title": "KAWAII120918310",
    "link_img": "https://live.staticflickr.com/65535/49694100376_2f1da6b6f9_o.jpg",
    "id_image": "KAWAII120918310",
    "count_view": 0
  },
  {
    "link_thumb": "https://live.staticflickr.com/65535/49726902843_0b4e5de194_n.jpg",
    "id_album": "742877173",
    "description": "KAWAII02042019451244",
    "title": "KAWAII02042019451244",
    "link_img": "https://live.staticflickr.com/65535/49726902843_ce66e3eb60_o.jpg",
    "id_image": "KAWAII02042019451244",
    "count_view": 0
  },
  {
    "link_thumb": "https://live.staticflickr.com/65535/49694366567_172b3e661b_n.jpg",
    "id_album": "1699819648",
    "description": "KAWAII0503202021285",
    "title": "KAWAII0503202021285",
    "link_img": "https://live.staticflickr.com/65535/49694366567_67b2ee0b66_o.jpg",
    "id_image": "KAWAII0503202021285",
    "count_view": 0
  },
  {
    "link_thumb": "https://live.staticflickr.com/65535/49592716031_e0d6182500_n.jpg",
    "id_album": "-316663319",
    "description": "KAWAII2702202351153",
    "title": "KAWAII2702202351153",
    "link_img": "https://live.staticflickr.com/65535/49592716031_f22e33cbe3_o.jpg",
    "id_image": "KAWAII2702202351153",
    "count_view": 0
  },
  {
    "link_thumb": "https://live.staticflickr.com/65535/49742379088_e8245df6d4_n.jpg",
    "id_album": "-316663319",
    "description": "KAWAII060420214915134",
    "title": "KAWAII060420214915134",
    "link_img": "https://live.staticflickr.com/65535/49742379088_db74d7dc35_o.jpg",
    "id_image": "KAWAII060420214915134",
    "count_view": 0
  },
  {
    "link_thumb": "https://live.staticflickr.com/65535/49548180303_ee417ed302_n.jpg",
    "id_album": "1396902986",
    "description": "KAWAII1702202236296",
    "title": "KAWAII1702202236296",
    "link_img": "https://live.staticflickr.com/65535/49548180303_e1d6316ffd_o.jpg",
    "id_image": "KAWAII1702202236296",
    "count_view": 0
  },
  {
    "link_thumb": "https://live.staticflickr.com/65535/49548570486_dc709ec43b_n.jpg",
    "id_album": "-1694302085",
    "description": "KAWAII120918209",
    "title": "KAWAII120918209",
    "link_img": "https://live.staticflickr.com/65535/49548570486_5138dfca7b_o.jpg",
    "id_image": "KAWAII120918209",
    "count_view": 0
  },
  {
    "link_thumb": "https://live.staticflickr.com/65535/49726876208_e5b8d3e453_n.jpg",
    "id_album": "-422187261",
    "description": "KAWAII020420194511146",
    "title": "KAWAII020420194511146",
    "link_img": "https://live.staticflickr.com/65535/49726876208_5079248f53_o.jpg",
    "id_image": "KAWAII020420194511146",
    "count_view": 0
  },
  {
    "link_thumb": "https://live.staticflickr.com/65535/49743263727_d5a7f09562_n.jpg",
    "id_album": "-1473448477",
    "description": "KAWAII06042021491578",
    "title": "KAWAII06042021491578",
    "link_img": "https://live.staticflickr.com/65535/49743263727_3bfb63d4d9_o.jpg",
    "id_image": "KAWAII06042021491578",
    "count_view": 0
  },
  {
    "link_thumb": "https://live.staticflickr.com/65535/49622836806_915fa269a6_n.jpg",
    "id_album": "-316663319",
    "description": "KAWAII050320202140",
    "title": "KAWAII050320202140",
    "link_img": "https://live.staticflickr.com/65535/49622836806_a70cf95061_o.jpg",
    "id_image": "KAWAII050320202140",
    "count_view": 0
  },
  {
    "link_thumb": "https://live.staticflickr.com/65535/49548615741_74846bdc3a_n.jpg",
    "id_album": "-316663319",
    "description": "KAWAII12091869",
    "title": "KAWAII12091869",
    "link_img": "https://live.staticflickr.com/65535/49548615741_5566937561_o.jpg",
    "id_image": "KAWAII12091869",
    "count_view": 0
  },
  {
    "link_thumb": "https://live.staticflickr.com/65535/49693543258_a0562319da_n.jpg",
    "id_album": "1201366373",
    "description": "KAWAII120918170",
    "title": "KAWAII120918170",
    "link_img": "https://live.staticflickr.com/65535/49693543258_81c88d8bb9_o.jpg",
    "id_image": "KAWAII120918170",
    "count_view": 0
  },
  {
    "link_thumb": "https://live.staticflickr.com/65535/49694422457_9d228a8ec9_n.jpg",
    "id_album": "1201366373",
    "description": "KAWAII17091844",
    "title": "KAWAII17091844",
    "link_img": "https://live.staticflickr.com/65535/49694422457_49d9464530_o.jpg",
    "id_image": "KAWAII17091844",
    "count_view": 0
  },
  {
    "link_thumb": "https://live.staticflickr.com/65535/49743276592_fbdd67d330_n.jpg",
    "id_album": "-358592519",
    "description": "KAWAII060420214912266",
    "title": "KAWAII060420214912266",
    "link_img": "https://live.staticflickr.com/65535/49743276592_0be05d9327_o.jpg",
    "id_image": "KAWAII060420214912266",
    "count_view": 0
  },
  {
    "link_thumb": "https://live.staticflickr.com/65535/49726924058_d46096920e_n.jpg",
    "id_album": "-1862561193",
    "description": "KAWAII020420194512240",
    "title": "KAWAII020420194512240",
    "link_img": "https://live.staticflickr.com/65535/49726924058_f0799f0eef_o.jpg",
    "id_image": "KAWAII020420194512240",
    "count_view": 0
  },
  {
    "link_thumb": "https://live.staticflickr.com/65535/49693672398_86aafaeca7_n.jpg",
    "id_album": "-1694302085",
    "description": "KAWAII120918201",
    "title": "KAWAII120918201",
    "link_img": "https://live.staticflickr.com/65535/49693672398_cb7e8c4cdb_o.jpg",
    "id_image": "KAWAII120918201",
    "count_view": 0
  },
  {
    "link_thumb": "https://live.staticflickr.com/65535/49727427141_d166c42105_n.jpg",
    "id_album": "-1694302085",
    "description": "KAWAII1702202237356",
    "title": "KAWAII1702202237356",
    "link_img": "https://live.staticflickr.com/65535/49727427141_62d4af75b8_o.jpg",
    "id_image": "KAWAII1702202237356",
    "count_view": 0
  },
  {
    "link_thumb": "https://live.staticflickr.com/65535/49694073361_dc86530e5b_n.jpg",
    "id_album": "-643980979",
    "description": "KAWAII0503202021258",
    "title": "KAWAII0503202021258",
    "link_img": "https://live.staticflickr.com/65535/49694073361_208c511a69_o.jpg",
    "id_image": "KAWAII0503202021258",
    "count_view": 0
  },
  {
    "link_thumb": "https://live.staticflickr.com/65535/49694384787_491000eb76_n.jpg",
    "id_album": "1201366373",
    "description": "KAWAII120918118",
    "title": "KAWAII120918118",
    "link_img": "https://live.staticflickr.com/65535/49694384787_a790272051_o.jpg",
    "id_image": "KAWAII120918118",
    "count_view": 0
  },
  {
    "link_thumb": "https://live.staticflickr.com/65535/49548910797_f739431fdb_n.jpg",
    "id_album": "1396902986",
    "description": "KAWAII1702202236305",
    "title": "KAWAII1702202236305",
    "link_img": "https://live.staticflickr.com/65535/49548910797_893b16401f_o.jpg",
    "id_image": "KAWAII1702202236305",
    "count_view": 0
  },
  {
    "link_thumb": "https://live.staticflickr.com/65535/49726877388_a4e361fe15_n.jpg",
    "id_album": "-1694302085",
    "description": "KAWAII020420194508186",
    "title": "KAWAII020420194508186",
    "link_img": "https://live.staticflickr.com/65535/49726877388_5fefe1e036_o.jpg",
    "id_image": "KAWAII020420194508186",
    "count_view": 0
  },
  {
    "link_thumb": "https://live.staticflickr.com/65535/49592952392_4c43bf382f_n.jpg",
    "id_album": "-1741487325",
    "description": "KAWAII1702202237338",
    "title": "KAWAII1702202237338",
    "link_img": "https://live.staticflickr.com/65535/49592952392_4bb44f63a9_o.jpg",
    "id_image": "KAWAII1702202237338",
    "count_view": 0
  },
  {
    "link_thumb": "https://live.staticflickr.com/65535/49727451156_2cb9eeaf11_n.jpg",
    "id_album": "742877173",
    "description": "KAWAII020420194513192",
    "title": "KAWAII020420194513192",
    "link_img": "https://live.staticflickr.com/65535/49727451156_412c0019a3_o.jpg",
    "id_image": "KAWAII020420194513192",
    "count_view": 0
  },
  {
    "link_thumb": "https://live.staticflickr.com/65535/49548677171_d64ee7e0c8_n.jpg",
    "id_album": "1396902986",
    "description": "KAWAII1702202236276",
    "title": "KAWAII1702202236276",
    "link_img": "https://live.staticflickr.com/65535/49548677171_e3d7c58ebb_o.jpg",
    "id_image": "KAWAII1702202236276",
    "count_view": 0
  },
  {
    "link_thumb": "https://live.staticflickr.com/65535/49592951792_516da0925f_n.jpg",
    "id_album": "-1741487325",
    "description": "KAWAII170220223325",
    "title": "KAWAII170220223325",
    "link_img": "https://live.staticflickr.com/65535/49592951792_b284ba8523_o.jpg",
    "id_image": "KAWAII170220223325",
    "count_view": 0
  },
  {
    "link_thumb": "https://live.staticflickr.com/65535/49694083376_717a796b09_n.jpg",
    "id_album": "1201366373",
    "description": "KAWAII120918134",
    "title": "KAWAII120918134",
    "link_img": "https://live.staticflickr.com/65535/49694083376_d1d3a62f54_o.jpg",
    "id_image": "KAWAII120918134",
    "count_view": 0
  },
  {
    "link_thumb": "https://live.staticflickr.com/65535/49694523462_66c879f542_n.jpg",
    "id_album": "-643980979",
    "description": "KAWAII24032022050248",
    "title": "KAWAII24032022050248",
    "link_img": "https://live.staticflickr.com/65535/49694523462_1630cbd1e5_o.jpg",
    "id_image": "KAWAII24032022050248",
    "count_view": 0
  },
  {
    "link_thumb": "https://live.staticflickr.com/65535/49623110077_21b03950bc_n.jpg",
    "id_album": "-316663319",
    "description": "KAWAII050320202154",
    "title": "KAWAII050320202154",
    "link_img": "https://live.staticflickr.com/65535/49623110077_15d7deab7b_o.jpg",
    "id_image": "KAWAII050320202154",
    "count_view": 0
  },
  {
    "link_thumb": "https://live.staticflickr.com/65535/49694079036_c5b22da7ce_n.jpg",
    "id_album": "-643980979",
    "description": "KAWAII050320202184",
    "title": "KAWAII050320202184",
    "link_img": "https://live.staticflickr.com/65535/49694079036_5552a877d7_o.jpg",
    "id_image": "KAWAII050320202184",
    "count_view": 0
  },
  {
    "link_thumb": "https://live.staticflickr.com/65535/49622327713_3a05a359b3_n.jpg",
    "id_album": "-406350429",
    "description": "KAWAII0503202021125",
    "title": "KAWAII0503202021125",
    "link_img": "https://live.staticflickr.com/65535/49622327713_77890083c5_o.jpg",
    "id_image": "KAWAII0503202021125",
    "count_view": 0
  },
  {
    "link_thumb": "https://live.staticflickr.com/65535/49548623586_f55e5b16ef_n.jpg",
    "id_album": "-316663319",
    "description": "KAWAII170220223315",
    "title": "KAWAII170220223315",
    "link_img": "https://live.staticflickr.com/65535/49548623586_c374067c56_o.jpg",
    "id_image": "KAWAII170220223315",
    "count_view": 0
  },
  {
    "link_thumb": "https://live.staticflickr.com/65535/49694078321_cefdee9a95_n.jpg",
    "id_album": "-643980979",
    "description": "KAWAII050320202176",
    "title": "KAWAII050320202176",
    "link_img": "https://live.staticflickr.com/65535/49694078321_1849d53d29_o.jpg",
    "id_image": "KAWAII050320202176",
    "count_view": 0
  },
  {
    "link_thumb": "https://live.staticflickr.com/65535/49693585708_88c3f8b717_n.jpg",
    "id_album": "1226948986",
    "description": "TOTORO220320154111",
    "title": "TOTORO220320154111",
    "link_img": "https://live.staticflickr.com/65535/49693585708_d75025b389_o.jpg",
    "id_image": "TOTORO220320154111",
    "count_view": 0
  },
  {
    "link_thumb": "https://live.staticflickr.com/65535/49622796941_4f3450b9b0_n.jpg",
    "id_album": "-422187261",
    "description": "KAWAII0503202021180",
    "title": "KAWAII0503202021180",
    "link_img": "https://live.staticflickr.com/65535/49622796941_225dec259f_o.jpg",
    "id_image": "KAWAII0503202021180",
    "count_view": 0
  },
  {
    "link_thumb": "https://live.staticflickr.com/65535/49726917798_4ee746e417_n.jpg",
    "id_album": "1396902986",
    "description": "KAWAII02042019451145",
    "title": "KAWAII02042019451145",
    "link_img": "https://live.staticflickr.com/65535/49726917798_a2127fae77_o.jpg",
    "id_image": "KAWAII02042019451145",
    "count_view": 0
  },
  {
    "link_thumb": "https://live.staticflickr.com/65535/49742928076_aa5cc0962e_n.jpg",
    "id_album": "-316663319",
    "description": "KAWAII060420214915218",
    "title": "KAWAII060420214915218",
    "link_img": "https://live.staticflickr.com/65535/49742928076_9374722011_o.jpg",
    "id_image": "KAWAII060420214915218",
    "count_view": 0
  },
  {
    "link_thumb": "https://live.staticflickr.com/65535/49743246732_2d10fc3bb7_n.jpg",
    "id_album": "-316663319",
    "description": "KAWAII06042021491261",
    "title": "KAWAII06042021491261",
    "link_img": "https://live.staticflickr.com/65535/49743246732_5b45f39239_o.jpg",
    "id_image": "KAWAII06042021491261",
    "count_view": 0
  },
  {
    "link_thumb": "https://live.staticflickr.com/65535/49743227472_f75f605e69_n.jpg",
    "id_album": "-1913845949",
    "description": "KAWAII060420214915318",
    "title": "KAWAII060420214915318",
    "link_img": "https://live.staticflickr.com/65535/49743227472_74a5f2b14f_o.jpg",
    "id_image": "KAWAII060420214915318",
    "count_view": 0
  },
  {
    "link_thumb": "https://live.staticflickr.com/65535/49727745862_fe5f0d562c_n.jpg",
    "id_album": "-1497779911",
    "description": "KAWAII0503202021189",
    "title": "KAWAII0503202021189",
    "link_img": "https://live.staticflickr.com/65535/49727745862_a8cb1b0243_o.jpg",
    "id_image": "KAWAII0503202021189",
    "count_view": 0
  },
  {
    "link_thumb": "https://live.staticflickr.com/65535/49726876968_056703bca1_n.jpg",
    "id_album": "-1694302085",
    "description": "KAWAII020420194508128",
    "title": "KAWAII020420194508128",
    "link_img": "https://live.staticflickr.com/65535/49726876968_9dd433f347_o.jpg",
    "id_image": "KAWAII020420194508128",
    "count_view": 0
  },
  {
    "link_thumb": "https://live.staticflickr.com/65535/49592213803_e40d3b7299_n.jpg",
    "id_album": "-316663319",
    "description": "KAWAII2702202351157",
    "title": "KAWAII2702202351157",
    "link_img": "https://live.staticflickr.com/65535/49592213803_55e29ca507_o.jpg",
    "id_image": "KAWAII2702202351157",
    "count_view": 0
  },
  {
    "link_thumb": "https://live.staticflickr.com/65535/49548824417_efffec8b98_n.jpg",
    "id_album": "-1741487325",
    "description": "KAWAII120918328",
    "title": "KAWAII120918328",
    "link_img": "https://live.staticflickr.com/65535/49548824417_a9b7e9303d_o.jpg",
    "id_image": "KAWAII120918328",
    "count_view": 0
  },
  {
    "link_thumb": "https://live.staticflickr.com/65535/49742360793_90892a6399_n.jpg",
    "id_album": "-422187261",
    "description": "KAWAII06042021491595",
    "title": "KAWAII06042021491595",
    "link_img": "https://live.staticflickr.com/65535/49742360793_ae488deb4b_o.jpg",
    "id_image": "KAWAII06042021491595",
    "count_view": 0
  },
  {
    "link_thumb": "https://live.staticflickr.com/65535/49548836022_9aaa929a07_n.jpg",
    "id_album": "-422187261",
    "description": "KAWAII120918374",
    "title": "KAWAII120918374",
    "link_img": "https://live.staticflickr.com/65535/49548836022_bb62d6afac_o.jpg",
    "id_image": "KAWAII120918374",
    "count_view": 0
  },
  {
    "link_thumb": "https://live.staticflickr.com/65535/49694086796_2038f4e37a_n.jpg",
    "id_album": "-643980979",
    "description": "KAWAII12091817",
    "title": "KAWAII12091817",
    "link_img": "https://live.staticflickr.com/65535/49694086796_46b9dc535b_o.jpg",
    "id_image": "KAWAII12091817",
    "count_view": 0
  },
  {
    "link_thumb": "https://live.staticflickr.com/65535/49694423912_b880bbe826_n.jpg",
    "id_album": "-643980979",
    "description": "KAWAII2702202351150",
    "title": "KAWAII2702202351150",
    "link_img": "https://live.staticflickr.com/65535/49694423912_eb973bbf79_o.jpg",
    "id_image": "KAWAII2702202351150",
    "count_view": 0
  },
  {
    "link_thumb": "https://live.staticflickr.com/65535/49743266612_67a23a67d8_n.jpg",
    "id_album": "-1779286820",
    "description": "KAWAII06042021491236",
    "title": "KAWAII06042021491236",
    "link_img": "https://live.staticflickr.com/65535/49743266612_0ae8e41462_o.jpg",
    "id_image": "KAWAII06042021491236",
    "count_view": 0
  },
  {
    "link_thumb": "https://live.staticflickr.com/65535/49727453971_8255094961_n.jpg",
    "id_album": "742877173",
    "description": "KAWAII02042019451497",
    "title": "KAWAII02042019451497",
    "link_img": "https://live.staticflickr.com/65535/49727453971_f333015350_o.jpg",
    "id_image": "KAWAII02042019451497",
    "count_view": 0
  },
  {
    "link_thumb": "https://live.staticflickr.com/65535/49694404137_1efbe86641_n.jpg",
    "id_album": "1201366373",
    "description": "KAWAII12091844",
    "title": "KAWAII12091844",
    "link_img": "https://live.staticflickr.com/65535/49694404137_96cff5090f_o.jpg",
    "id_image": "KAWAII12091844",
    "count_view": 0
  },
  {
    "link_thumb": "https://live.staticflickr.com/65535/49726888853_b3dbe268ea_n.jpg",
    "id_album": "-316663319",
    "description": "KAWAII02042019450894",
    "title": "KAWAII02042019450894",
    "link_img": "https://live.staticflickr.com/65535/49726888853_11a6296c9a_o.jpg",
    "id_image": "KAWAII02042019450894",
    "count_view": 0
  },
  {
    "link_thumb": "https://live.staticflickr.com/65535/49592951312_d3cd4b1750_n.jpg",
    "id_album": "1396902986",
    "description": "KAWAII270220235178",
    "title": "KAWAII270220235178",
    "link_img": "https://live.staticflickr.com/65535/49592951312_88327c789a_o.jpg",
    "id_image": "KAWAII270220235178",
    "count_view": 0
  },
  {
    "link_thumb": "https://live.staticflickr.com/65535/49548597551_3ef5da225b_n.jpg",
    "id_album": "-1741487325",
    "description": "KAWAII12091833",
    "title": "KAWAII12091833",
    "link_img": "https://live.staticflickr.com/65535/49548597551_5923ea7645_o.jpg",
    "id_image": "KAWAII12091833",
    "count_view": 0
  },
  {
    "link_thumb": "https://live.staticflickr.com/65535/49548627951_1abdc4fe57_n.jpg",
    "id_album": "-316663319",
    "description": "KAWAII170220223335",
    "title": "KAWAII170220223335",
    "link_img": "https://live.staticflickr.com/65535/49548627951_b5dc7ff754_o.jpg",
    "id_image": "KAWAII170220223335",
    "count_view": 0
  },
  {
    "link_thumb": "https://live.staticflickr.com/65535/49726922283_ca0505d06b_n.jpg",
    "id_album": "-1862561193",
    "description": "KAWAII020420194511233",
    "title": "KAWAII020420194511233",
    "link_img": "https://live.staticflickr.com/65535/49726922283_ed7cb0cc3b_o.jpg",
    "id_image": "KAWAII020420194511233",
    "count_view": 0
  },
  {
    "link_thumb": "https://live.staticflickr.com/65535/49623068762_8707473d16_n.jpg",
    "id_album": "-422187261",
    "description": "KAWAII0503202021167",
    "title": "KAWAII0503202021167",
    "link_img": "https://live.staticflickr.com/65535/49623068762_44dbf4f645_o.jpg",
    "id_image": "KAWAII0503202021167",
    "count_view": 0
  },
  {
    "link_thumb": "https://live.staticflickr.com/65535/49592708121_d3b90ed4e7_n.jpg",
    "id_album": "1396902986",
    "description": "KAWAII270220235137",
    "title": "KAWAII270220235137",
    "link_img": "https://live.staticflickr.com/65535/49592708121_c87e16771c_o.jpg",
    "id_image": "KAWAII270220235137",
    "count_view": 0
  },
  {
    "link_thumb": "https://live.staticflickr.com/65535/49548157168_2631bc68a8_n.jpg",
    "id_album": "-1099943053",
    "description": "KAWAII1702202235180",
    "title": "KAWAII1702202235180",
    "link_img": "https://live.staticflickr.com/65535/49548157168_858f7d729f_o.jpg",
    "id_image": "KAWAII1702202235180",
    "count_view": 0
  },
  {
    "link_thumb": "https://live.staticflickr.com/65535/49693562108_97c407f7ed_n.jpg",
    "id_album": "1201366373",
    "description": "KAWAII12091895",
    "title": "KAWAII12091895",
    "link_img": "https://live.staticflickr.com/65535/49693562108_078679f628_o.jpg",
    "id_image": "KAWAII12091895",
    "count_view": 0
  },
  {
    "link_thumb": "https://live.staticflickr.com/65535/49592734111_8526662cc3_n.jpg",
    "id_album": "949200594",
    "description": "KAWAII27022023518",
    "title": "KAWAII27022023518",
    "link_img": "https://live.staticflickr.com/65535/49592734111_25abae9b97_o.jpg",
    "id_image": "KAWAII27022023518",
    "count_view": 0
  },
  {
    "link_thumb": "https://live.staticflickr.com/65535/49742405328_c94bc0f915_n.jpg",
    "id_album": "-1862561193",
    "description": "KAWAII060420214918143",
    "title": "KAWAII060420214918143",
    "link_img": "https://live.staticflickr.com/65535/49742405328_bbc4ea039d_o.jpg",
    "id_image": "KAWAII060420214918143",
    "count_view": 0
  },
  {
    "link_thumb": "https://live.staticflickr.com/65535/49742409188_22e72030a2_n.jpg",
    "id_album": "-1431786825",
    "description": "KAWAII060420214917183",
    "title": "KAWAII060420214917183",
    "link_img": "https://live.staticflickr.com/65535/49742409188_e13fbcc783_o.jpg",
    "id_image": "KAWAII060420214917183",
    "count_view": 0
  },
  {
    "link_thumb": "https://live.staticflickr.com/65535/49693554703_8f6ecf4b6c_n.jpg",
    "id_album": "1201366373",
    "description": "KAWAII120918271",
    "title": "KAWAII120918271",
    "link_img": "https://live.staticflickr.com/65535/49693554703_c34d7d8b1b_o.jpg",
    "id_image": "KAWAII120918271",
    "count_view": 0
  },
  {
    "link_thumb": "https://live.staticflickr.com/65535/49743252197_fc8e6aff13_n.jpg",
    "id_album": "-316663319",
    "description": "KAWAII060420214915220",
    "title": "KAWAII060420214915220",
    "link_img": "https://live.staticflickr.com/65535/49743252197_a0dbe1a485_o.jpg",
    "id_image": "KAWAII060420214915220",
    "count_view": 0
  },
  {
    "link_thumb": "https://live.staticflickr.com/65535/49548928647_fc902612c2_n.jpg",
    "id_album": "-1694302085",
    "description": "KAWAII1702202237384",
    "title": "KAWAII1702202237384",
    "link_img": "https://live.staticflickr.com/65535/49548928647_8d57ffa024_o.jpg",
    "id_image": "KAWAII1702202237384",
    "count_view": 0
  },
  {
    "link_thumb": "https://live.staticflickr.com/65535/49742950451_7db9483b51_n.jpg",
    "id_album": "-1862561193",
    "description": "KAWAII0604202149126",
    "title": "KAWAII0604202149126",
    "link_img": "https://live.staticflickr.com/65535/49742950451_bf6196a714_o.jpg",
    "id_image": "KAWAII0604202149126",
    "count_view": 0
  },
  {
    "link_thumb": "https://live.staticflickr.com/65535/49694379572_266e9bdf0d_n.jpg",
    "id_album": "1201366373",
    "description": "KAWAII050320202165",
    "title": "KAWAII050320202165",
    "link_img": "https://live.staticflickr.com/65535/49694379572_2a0765af38_o.jpg",
    "id_image": "KAWAII050320202165",
    "count_view": 0
  },
  {
    "link_thumb": "https://live.staticflickr.com/65535/49743257167_612d045ff3_n.jpg",
    "id_album": "-316663319",
    "description": "KAWAII06042021491882",
    "title": "KAWAII06042021491882",
    "link_img": "https://live.staticflickr.com/65535/49743257167_867127abd9_o.jpg",
    "id_image": "KAWAII06042021491882",
    "count_view": 0
  },
  {
    "link_thumb": "https://live.staticflickr.com/65535/49694090886_f5a8983a5b_n.jpg",
    "id_album": "1201366373",
    "description": "KAWAII120918207",
    "title": "KAWAII120918207",
    "link_img": "https://live.staticflickr.com/65535/49694090886_f2d6594686_o.jpg",
    "id_image": "KAWAII120918207",
    "count_view": 0
  },
  {
    "link_thumb": "https://live.staticflickr.com/65535/49548739296_296dbcea52_n.jpg",
    "id_album": "-422187261",
    "description": "KAWAII1702202239526",
    "title": "KAWAII1702202239526",
    "link_img": "https://live.staticflickr.com/65535/49548739296_6725352ecb_o.jpg",
    "id_image": "KAWAII1702202239526",
    "count_view": 0
  },
  {
    "link_thumb": "https://live.staticflickr.com/65535/49727453196_7151bc12f8_n.jpg",
    "id_album": "742877173",
    "description": "KAWAII02042019451430",
    "title": "KAWAII02042019451430",
    "link_img": "https://live.staticflickr.com/65535/49727453196_a3fe118243_o.jpg",
    "id_image": "KAWAII02042019451430",
    "count_view": 0
  },
  {
    "link_thumb": "https://live.staticflickr.com/65535/49548864702_23c49122e7_n.jpg",
    "id_album": "-422187261",
    "description": "KAWAII170220223456",
    "title": "KAWAII170220223456",
    "link_img": "https://live.staticflickr.com/65535/49548864702_e87776d95f_o.jpg",
    "id_image": "KAWAII170220223456",
    "count_view": 0
  },
  {
    "link_thumb": "https://live.staticflickr.com/65535/49693528458_2508564005_n.jpg",
    "id_album": "-643980979",
    "description": "KAWAII050320202119",
    "title": "KAWAII050320202119",
    "link_img": "https://live.staticflickr.com/65535/49693528458_51366de5c9_o.jpg",
    "id_image": "KAWAII050320202119",
    "count_view": 0
  },
  {
    "link_thumb": "https://live.staticflickr.com/65535/49742925101_b70829c04d_n.jpg",
    "id_album": "-316663319",
    "description": "KAWAII060420214914199",
    "title": "KAWAII060420214914199",
    "link_img": "https://live.staticflickr.com/65535/49742925101_b1391f182a_o.jpg",
    "id_image": "KAWAII060420214914199",
    "count_view": 0
  },
  {
    "link_thumb": "https://live.staticflickr.com/65535/49694084236_63d3b3d1f2_n.jpg",
    "id_album": "1201366373",
    "description": "KAWAII120918146",
    "title": "KAWAII120918146",
    "link_img": "https://live.staticflickr.com/65535/49694084236_b4dc9217da_o.jpg",
    "id_image": "KAWAII120918146",
    "count_view": 0
  },
  {
    "link_thumb": "https://live.staticflickr.com/65535/49742934366_ef750daf0f_n.jpg",
    "id_album": "-1473448477",
    "description": "KAWAII060420214914180",
    "title": "KAWAII060420214914180",
    "link_img": "https://live.staticflickr.com/65535/49742934366_cbb2ac1530_o.jpg",
    "id_image": "KAWAII060420214914180",
    "count_view": 0
  },
  {
    "link_thumb": "https://live.staticflickr.com/65535/49727740517_150b78a0fe_n.jpg",
    "id_album": "-1694302085",
    "description": "KAWAII0503202021203",
    "title": "KAWAII0503202021203",
    "link_img": "https://live.staticflickr.com/65535/49727740517_44ae058446_o.jpg",
    "id_image": "KAWAII0503202021203",
    "count_view": 0
  },
  {
    "link_thumb": "https://live.staticflickr.com/65535/49622286478_3e670975d2_n.jpg",
    "id_album": "1396902986",
    "description": "KAWAII0503202021217",
    "title": "KAWAII0503202021217",
    "link_img": "https://live.staticflickr.com/65535/49622286478_b504a41004_o.jpg",
    "id_image": "KAWAII0503202021217",
    "count_view": 0
  }
]