[
  {
    "link_thumb": "https://live.staticflickr.com/65535/49623091217_7b4abf5289_n.jpg",
    "id_album": "-316663319",
    "description": "KAWAII0503202021169",
    "title": "KAWAII0503202021169",
    "link_img": "https://live.staticflickr.com/65535/49623091217_302da218d6_o.jpg",
    "id_image": "KAWAII0503202021169",
    "count_view": 0
  },
  {
    "link_thumb": "https://live.staticflickr.com/65535/49693568638_859062b459_n.jpg",
    "id_album": "1201366373",
    "description": "KAWAII1702202237389",
    "title": "KAWAII1702202237389",
    "link_img": "https://live.staticflickr.com/65535/49693568638_23620a4415_o.jpg",
    "id_image": "KAWAII1702202237389",
    "count_view": 0
  },
  {
    "link_thumb": "https://live.staticflickr.com/65535/49548742611_b5332b7a92_n.jpg",
    "id_album": "1396902986",
    "description": "KAWAII1702202239539",
    "title": "KAWAII1702202239539",
    "link_img": "https://live.staticflickr.com/65535/49548742611_78c0a19566_o.jpg",
    "id_image": "KAWAII1702202239539",
    "count_view": 0
  },
  {
    "link_thumb": "https://live.staticflickr.com/65535/49743230212_a927f80940_n.jpg",
    "id_album": "-422187261",
    "description": "KAWAII02042019451474",
    "title": "KAWAII02042019451474",
    "link_img": "https://live.staticflickr.com/65535/49743230212_5680ef703f_o.jpg",
    "id_image": "KAWAII02042019451474",
    "count_view": 0
  },
  {
    "link_thumb": "https://live.staticflickr.com/65535/49548627341_d1e91ca898_n.jpg",
    "id_album": "1396902986",
    "description": "KAWAII170220223332",
    "title": "KAWAII170220223332",
    "link_img": "https://live.staticflickr.com/65535/49548627341_947cb50218_o.jpg",
    "id_image": "KAWAII170220223332",
    "count_view": 0
  },
  {
    "link_thumb": "https://live.staticflickr.com/65535/49743272922_9784ee7c02_n.jpg",
    "id_album": "1396902986",
    "description": "KAWAII060420214915233",
    "title": "KAWAII060420214915233",
    "link_img": "https://live.staticflickr.com/65535/49743272922_1f2442eeac_o.jpg",
    "id_image": "KAWAII060420214915233",
    "count_view": 0
  },
  {
    "link_thumb": "https://live.staticflickr.com/65535/49622802611_b07e2b1953_n.jpg",
    "id_album": "1396902986",
    "description": "KAWAII0503202021257",
    "title": "KAWAII0503202021257",
    "link_img": "https://live.staticflickr.com/65535/49622802611_93a828d3ae_o.jpg",
    "id_image": "KAWAII0503202021257",
    "count_view": 0
  },
  {
    "link_thumb": "https://live.staticflickr.com/65535/49694405732_73d6df1054_n.jpg",
    "id_album": "1201366373",
    "description": "KAWAII12091864",
    "title": "KAWAII12091864",
    "link_img": "https://live.staticflickr.com/65535/49694405732_144d3d366c_o.jpg",
    "id_image": "KAWAII12091864",
    "count_view": 0
  },
  {
    "link_thumb": "https://live.staticflickr.com/65535/49742930621_46cbfcebfa_n.jpg",
    "id_album": "-316663319",
    "description": "KAWAII060420214917101",
    "title": "KAWAII060420214917101",
    "link_img": "https://live.staticflickr.com/65535/49742930621_c8a5efe622_o.jpg",
    "id_image": "KAWAII060420214917101",
    "count_view": 0
  },
  {
    "link_thumb": "https://live.staticflickr.com/65535/49622334223_e13ccd0b36_n.jpg",
    "id_album": "-406350429",
    "description": "KAWAII0503202021321",
    "title": "KAWAII0503202021321",
    "link_img": "https://live.staticflickr.com/65535/49622334223_cc2a9dea35_o.jpg",
    "id_image": "KAWAII0503202021321",
    "count_view": 0
  },
  {
    "link_thumb": "https://live.staticflickr.com/65535/49726897878_1ed0277fe2_n.jpg",
    "id_album": "742877173",
    "description": "KAWAII020420194510141",
    "title": "KAWAII020420194510141",
    "link_img": "https://live.staticflickr.com/65535/49726897878_f615fe128a_o.jpg",
    "id_image": "KAWAII020420194510141",
    "count_view": 0
  },
  {
    "link_thumb": "https://live.staticflickr.com/65535/49742369103_b35dcc7e8f_n.jpg",
    "id_album": "-643980979",
    "description": "KAWAII270220235134",
    "title": "KAWAII270220235134",
    "link_img": "https://live.staticflickr.com/65535/49742369103_90c86aa867_o.jpg",
    "id_image": "KAWAII270220235134",
    "count_view": 0
  },
  {
    "link_thumb": "https://live.staticflickr.com/65535/49592206538_8eb7abfc3e_n.jpg",
    "id_album": "1396902986",
    "description": "KAWAII270220235180",
    "title": "KAWAII270220235180",
    "link_img": "https://live.staticflickr.com/65535/49592206538_39174b06ac_o.jpg",
    "id_image": "KAWAII270220235180",
    "count_view": 0
  },
  {
    "link_thumb": "https://live.staticflickr.com/65535/49548553491_8957418aa9_n.jpg",
    "id_album": "-316663319",
    "description": "KAWAII120918136",
    "title": "KAWAII120918136",
    "link_img": "https://live.staticflickr.com/65535/49548553491_7069863d97_o.jpg",
    "id_image": "KAWAII120918136",
    "count_view": 0
  },
  {
    "link_thumb": "https://live.staticflickr.com/65535/49694120846_2eac335fe5_n.jpg",
    "id_album": "-643980979",
    "description": "KAWAII2702202351112",
    "title": "KAWAII2702202351112",
    "link_img": "https://live.staticflickr.com/65535/49694120846_3ca1dfdfec_o.jpg",
    "id_image": "KAWAII2702202351112",
    "count_view": 0
  },
  {
    "link_thumb": "https://live.staticflickr.com/65535/49552024348_0ec56c8447_n.jpg",
    "id_album": "-1432180061",
    "description": "KAWAII12091825180220205939",
    "title": "KAWAII12091825180220205939",
    "link_img": "https://live.staticflickr.com/65535/49552024348_b2b262bbb4_o.jpg",
    "id_image": "KAWAII12091825180220205939",
    "count_view": 0
  },
  {
    "link_thumb": "https://live.staticflickr.com/65535/49548624861_25dfed5587_n.jpg",
    "id_album": "-316663319",
    "description": "KAWAII170220223321",
    "title": "KAWAII170220223321",
    "link_img": "https://live.staticflickr.com/65535/49548624861_ea60be6153_o.jpg",
    "id_image": "KAWAII170220223321",
    "count_view": 0
  },
  {
    "link_thumb": "https://live.staticflickr.com/65535/49743265042_a289f35b3c_n.jpg",
    "id_album": "-1473448477",
    "description": "KAWAII060420214917177",
    "title": "KAWAII060420214917177",
    "link_img": "https://live.staticflickr.com/65535/49743265042_902a3b4cbe_o.jpg",
    "id_image": "KAWAII060420214917177",
    "count_view": 0
  },
  {
    "link_thumb": "https://live.staticflickr.com/65535/49578975672_8980cce170_n.jpg",
    "id_album": "-1694302085",
    "description": "KAWAII190220211114",
    "title": "KAWAII190220211114",
    "link_img": "https://live.staticflickr.com/65535/49578975672_926de08b53_o.jpg",
    "id_image": "KAWAII190220211114",
    "count_view": 0
  },
  {
    "link_thumb": "https://live.staticflickr.com/65535/49726905873_760521dc37_n.jpg",
    "id_album": "742877173",
    "description": "KAWAII02042019451456",
    "title": "KAWAII02042019451456",
    "link_img": "https://live.staticflickr.com/65535/49726905873_5c14423e87_o.jpg",
    "id_image": "KAWAII02042019451456",
    "count_view": 0
  },
  {
    "link_thumb": "https://live.staticflickr.com/65535/49548169653_65379b73e3_n.jpg",
    "id_album": "-1099943053",
    "description": "KAWAII1702202236241",
    "title": "KAWAII1702202236241",
    "link_img": "https://live.staticflickr.com/65535/49548169653_8a7c4e836a_o.jpg",
    "id_image": "KAWAII1702202236241",
    "count_view": 0
  },
  {
    "link_thumb": "https://live.staticflickr.com/65535/49548903547_a7812df0f8_n.jpg",
    "id_album": "-422187261",
    "description": "KAWAII1702202236271",
    "title": "KAWAII1702202236271",
    "link_img": "https://live.staticflickr.com/65535/49548903547_c91e97f61d_o.jpg",
    "id_image": "KAWAII1702202236271",
    "count_view": 0
  },
  {
    "link_thumb": "https://live.staticflickr.com/65535/49622326248_aebe21a59f_n.jpg",
    "id_album": "-316663319",
    "description": "KAWAII050320202199",
    "title": "KAWAII050320202199",
    "link_img": "https://live.staticflickr.com/65535/49622326248_fc40409f02_o.jpg",
    "id_image": "KAWAII050320202199",
    "count_view": 0
  },
  {
    "link_thumb": "https://live.staticflickr.com/65535/49548159738_789b788be2_n.jpg",
    "id_album": "-1099943053",
    "description": "KAWAII1702202235193",
    "title": "KAWAII1702202235193",
    "link_img": "https://live.staticflickr.com/65535/49548159738_94d5a8132f_o.jpg",
    "id_image": "KAWAII1702202235193",
    "count_view": 0
  },
  {
    "link_thumb": "https://live.staticflickr.com/65535/49742907191_c80bc106d2_n.jpg",
    "id_album": "-422187261",
    "description": "KAWAII060420214912152",
    "title": "KAWAII060420214912152",
    "link_img": "https://live.staticflickr.com/65535/49742907191_9b5e9d3445_o.jpg",
    "id_image": "KAWAII060420214912152",
    "count_view": 0
  },
  {
    "link_thumb": "https://live.staticflickr.com/65535/49726886368_b98d4249b6_n.jpg",
    "id_album": "-1497779911",
    "description": "KAWAII12091841",
    "title": "KAWAII12091841",
    "link_img": "https://live.staticflickr.com/65535/49726886368_dd5b0a008f_o.jpg",
    "id_image": "KAWAII12091841",
    "count_view": 0
  },
  {
    "link_thumb": "https://live.staticflickr.com/65535/49693548643_f895171502_n.jpg",
    "id_album": "-643980979",
    "description": "KAWAII120918221",
    "title": "KAWAII120918221",
    "link_img": "https://live.staticflickr.com/65535/49693548643_4a459079ff_o.jpg",
    "id_image": "KAWAII120918221",
    "count_view": 0
  },
  {
    "link_thumb": "https://live.staticflickr.com/65535/49694523462_66c879f542_n.jpg",
    "id_album": "-643980979",
    "description": "KAWAII24032022050248",
    "title": "KAWAII24032022050248",
    "link_img": "https://live.staticflickr.com/65535/49694523462_1630cbd1e5_o.jpg",
    "id_image": "KAWAII24032022050248",
    "count_view": 0
  },
  {
    "link_thumb": "https://live.staticflickr.com/65535/49743238552_fd3ffb0faa_n.jpg",
    "id_album": "-1497779911",
    "description": "KAWAII060420214914287",
    "title": "KAWAII060420214914287",
    "link_img": "https://live.staticflickr.com/65535/49743238552_30b39754c4_o.jpg",
    "id_image": "KAWAII060420214914287",
    "count_view": 0
  },
  {
    "link_thumb": "https://live.staticflickr.com/65535/49548834887_675f3dd3b1_n.jpg",
    "id_album": "-1741487325",
    "description": "KAWAII120918369",
    "title": "KAWAII120918369",
    "link_img": "https://live.staticflickr.com/65535/49548834887_e90e9472a9_o.jpg",
    "id_image": "KAWAII120918369",
    "count_view": 0
  },
  {
    "link_thumb": "https://live.staticflickr.com/65535/49742410363_1acfd7c229_n.jpg",
    "id_album": "1226948986",
    "description": "KAWAII060420214912216",
    "title": "KAWAII060420214912216",
    "link_img": "https://live.staticflickr.com/65535/49742410363_8ef30bc8d8_o.jpg",
    "id_image": "KAWAII060420214912216",
    "count_view": 0
  },
  {
    "link_thumb": "https://live.staticflickr.com/65535/49694401032_dc3cc4f2c4_n.jpg",
    "id_album": "1201366373",
    "description": "KAWAII120918280",
    "title": "KAWAII120918280",
    "link_img": "https://live.staticflickr.com/65535/49694401032_1877c96ec1_o.jpg",
    "id_image": "KAWAII120918280",
    "count_view": 0
  },
  {
    "link_thumb": "https://live.staticflickr.com/65535/49693584503_746fa8842a_n.jpg",
    "id_album": "-755466332",
    "description": "KAWAII120918128",
    "title": "KAWAII120918128",
    "link_img": "https://live.staticflickr.com/65535/49693584503_76342d4c76_o.jpg",
    "id_image": "KAWAII120918128",
    "count_view": 0
  },
  {
    "link_thumb": "https://live.staticflickr.com/65535/49743254982_55b8851550_n.jpg",
    "id_album": "-316663319",
    "description": "KAWAII060420214917150",
    "title": "KAWAII060420214917150",
    "link_img": "https://live.staticflickr.com/65535/49743254982_47dd6f411e_o.jpg",
    "id_image": "KAWAII060420214917150",
    "count_view": 0
  },
  {
    "link_thumb": "https://live.staticflickr.com/65535/49694391837_91d382ac68_n.jpg",
    "id_album": "-643980979",
    "description": "KAWAII120918195",
    "title": "KAWAII120918195",
    "link_img": "https://live.staticflickr.com/65535/49694391837_956d7e832f_o.jpg",
    "id_image": "KAWAII120918195",
    "count_view": 0
  },
  {
    "link_thumb": "https://live.staticflickr.com/65535/49710287133_c88fa54bb0_n.jpg",
    "id_album": "-1599896063",
    "description": "LITTLEMONK29032012063529",
    "title": "LITTLEMONK29032012063529",
    "link_img": "https://live.staticflickr.com/65535/49710287133_b5e17895be_o.jpg",
    "id_image": "LITTLEMONK29032012063529",
    "count_view": 0
  },
  {
    "link_thumb": "https://live.staticflickr.com/65535/49742947631_d1ebfe6c19_n.jpg",
    "id_album": "1396902986",
    "description": "KAWAII060420214913286",
    "title": "KAWAII060420214913286",
    "link_img": "https://live.staticflickr.com/65535/49742947631_f819898538_o.jpg",
    "id_image": "KAWAII060420214913286",
    "count_view": 0
  },
  {
    "link_thumb": "https://live.staticflickr.com/65535/49693529398_4cf983dddc_n.jpg",
    "id_album": "-643980979",
    "description": "KAWAII0503202021237",
    "title": "KAWAII0503202021237",
    "link_img": "https://live.staticflickr.com/65535/49693529398_102ff4eaa6_o.jpg",
    "id_image": "KAWAII0503202021237",
    "count_view": 0
  },
  {
    "link_thumb": "https://live.staticflickr.com/65535/49693587498_ae99d125d9_n.jpg",
    "id_album": "1226948986",
    "description": "TOTORO22032015428",
    "title": "TOTORO22032015428",
    "link_img": "https://live.staticflickr.com/65535/49693587498_8001c33ca7_o.jpg",
    "id_image": "TOTORO22032015428",
    "count_view": 0
  },
  {
    "link_thumb": "https://live.staticflickr.com/65535/49548818087_00d48ca029_n.jpg",
    "id_album": "-422187261",
    "description": "KAWAII120918302",
    "title": "KAWAII120918302",
    "link_img": "https://live.staticflickr.com/65535/49548818087_5861591717_o.jpg",
    "id_image": "KAWAII120918302",
    "count_view": 0
  },
  {
    "link_thumb": "https://live.staticflickr.com/65535/49743231337_faba003991_n.jpg",
    "id_album": "-422187261",
    "description": "KAWAII0604202149149",
    "title": "KAWAII0604202149149",
    "link_img": "https://live.staticflickr.com/65535/49743231337_90355cc7f2_o.jpg",
    "id_image": "KAWAII0604202149149",
    "count_view": 0
  },
  {
    "link_thumb": "https://live.staticflickr.com/65535/49693578008_056d619b66_n.jpg",
    "id_album": "-643980979",
    "description": "KAWAII2702202351120",
    "title": "KAWAII2702202351120",
    "link_img": "https://live.staticflickr.com/65535/49693578008_d174e96a0f_o.jpg",
    "id_image": "KAWAII2702202351120",
    "count_view": 0
  },
  {
    "link_thumb": "https://live.staticflickr.com/65535/49694428572_f60c5091e4_n.jpg",
    "id_album": "-358592519",
    "description": "KAWAII1702202239564",
    "title": "KAWAII1702202239564",
    "link_img": "https://live.staticflickr.com/65535/49694428572_a53551f534_o.jpg",
    "id_image": "KAWAII1702202239564",
    "count_view": 0
  },
  {
    "link_thumb": "https://live.staticflickr.com/65535/49727433241_36125f0001_n.jpg",
    "id_album": "-1497779911",
    "description": "KAWAII120918214",
    "title": "KAWAII120918214",
    "link_img": "https://live.staticflickr.com/65535/49727433241_3d532940ac_o.jpg",
    "id_image": "KAWAII120918214",
    "count_view": 0
  },
  {
    "link_thumb": "https://live.staticflickr.com/65535/49743239732_22caebe43d_n.jpg",
    "id_album": "-1497779911",
    "description": "KAWAII06042021491897",
    "title": "KAWAII06042021491897",
    "link_img": "https://live.staticflickr.com/65535/49743239732_45c8359692_o.jpg",
    "id_image": "KAWAII06042021491897",
    "count_view": 0
  },
  {
    "link_thumb": "https://live.staticflickr.com/65535/49693527218_5bce209935_n.jpg",
    "id_album": "1201366373",
    "description": "KAWAII050320202116",
    "title": "KAWAII050320202116",
    "link_img": "https://live.staticflickr.com/65535/49693527218_3359fd468d_o.jpg",
    "id_image": "KAWAII050320202116",
    "count_view": 0
  },
  {
    "link_thumb": "https://live.staticflickr.com/65535/49694219991_5df29d8ed5_n.jpg",
    "id_album": "-643980979",
    "description": "KAWAII24032022050265",
    "title": "KAWAII24032022050265",
    "link_img": "https://live.staticflickr.com/65535/49694219991_8eb24b53e7_o.jpg",
    "id_image": "KAWAII24032022050265",
    "count_view": 0
  },
  {
    "link_thumb": "https://live.staticflickr.com/65535/49548545271_67591625b4_n.jpg",
    "id_album": "-1741487325",
    "description": "KAWAII120918104",
    "title": "KAWAII120918104",
    "link_img": "https://live.staticflickr.com/65535/49548545271_6b90942aaf_o.jpg",
    "id_image": "KAWAII120918104",
    "count_view": 0
  },
  {
    "link_thumb": "https://live.staticflickr.com/65535/49622810156_3e0355d4a0_n.jpg",
    "id_album": "-316663319",
    "description": "KAWAII0503202021112",
    "title": "KAWAII0503202021112",
    "link_img": "https://live.staticflickr.com/65535/49622810156_1023b7c407_o.jpg",
    "id_image": "KAWAII0503202021112",
    "count_view": 0
  },
  {
    "link_thumb": "https://live.staticflickr.com/65535/49742374778_5eda6f9533_n.jpg",
    "id_album": "-316663319",
    "description": "KAWAII060420214912310",
    "title": "KAWAII060420214912310",
    "link_img": "https://live.staticflickr.com/65535/49742374778_14edba0f0b_o.jpg",
    "id_image": "KAWAII060420214912310",
    "count_view": 0
  },
  {
    "link_thumb": "https://live.staticflickr.com/65535/49548913477_92e37deab5_n.jpg",
    "id_album": "-1432180061",
    "description": "KAWAII1702202237316",
    "title": "KAWAII1702202237316",
    "link_img": "https://live.staticflickr.com/65535/49548913477_c9c6ed692f_o.jpg",
    "id_image": "KAWAII1702202237316",
    "count_view": 0
  },
  {
    "link_thumb": "https://live.staticflickr.com/65535/49693534803_6fd2b6ce19_n.jpg",
    "id_album": "-643980979",
    "description": "KAWAII050320202181",
    "title": "KAWAII050320202181",
    "link_img": "https://live.staticflickr.com/65535/49693534803_d4a668e179_o.jpg",
    "id_image": "KAWAII050320202181",
    "count_view": 0
  },
  {
    "link_thumb": "https://live.staticflickr.com/65535/49592956267_048df9ae17_n.jpg",
    "id_album": "-316663319",
    "description": "KAWAII2702202351114",
    "title": "KAWAII2702202351114",
    "link_img": "https://live.staticflickr.com/65535/49592956267_116b76a362_o.jpg",
    "id_image": "KAWAII2702202351114",
    "count_view": 0
  },
  {
    "link_thumb": "https://live.staticflickr.com/65535/49694100376_5609d3e550_n.jpg",
    "id_album": "1201366373",
    "description": "KAWAII120918310",
    "title": "KAWAII120918310",
    "link_img": "https://live.staticflickr.com/65535/49694100376_2f1da6b6f9_o.jpg",
    "id_image": "KAWAII120918310",
    "count_view": 0
  },
  {
    "link_thumb": "https://live.staticflickr.com/65535/49694127511_dfcb8f8d26_n.jpg",
    "id_album": "-755466332",
    "description": "KAWAII120918329",
    "title": "KAWAII120918329",
    "link_img": "https://live.staticflickr.com/65535/49694127511_fd11edfdf7_o.jpg",
    "id_image": "KAWAII120918329",
    "count_view": 0
  },
  {
    "link_thumb": "https://live.staticflickr.com/65535/49726889313_269c56d408_n.jpg",
    "id_album": "-316663319",
    "description": "KAWAII02042019451011",
    "title": "KAWAII02042019451011",
    "link_img": "https://live.staticflickr.com/65535/49726889313_5411c0b820_o.jpg",
    "id_image": "KAWAII02042019451011",
    "count_view": 0
  },
  {
    "link_thumb": "https://live.staticflickr.com/65535/49694111601_9f55f2da0d_n.jpg",
    "id_album": "-643980979",
    "description": "KAWAII1702202237395",
    "title": "KAWAII1702202237395",
    "link_img": "https://live.staticflickr.com/65535/49694111601_c1d2752b4c_o.jpg",
    "id_image": "KAWAII1702202237395",
    "count_view": 0
  },
  {
    "link_thumb": "https://live.staticflickr.com/65535/49578751021_24517b2d60_n.jpg",
    "id_album": "-316663319",
    "description": "KAWAII19022021119",
    "title": "KAWAII19022021119",
    "link_img": "https://live.staticflickr.com/65535/49578751021_dc150cfc10_o.jpg",
    "id_image": "KAWAII19022021119",
    "count_view": 0
  },
  {
    "link_thumb": "https://live.staticflickr.com/65535/49548596946_8b990ae9b8_n.jpg",
    "id_album": "1396902986",
    "description": "KAWAII120918327",
    "title": "KAWAII120918327",
    "link_img": "https://live.staticflickr.com/65535/49548596946_df4eb020d8_o.jpg",
    "id_image": "KAWAII120918327",
    "count_view": 0
  },
  {
    "link_thumb": "https://live.staticflickr.com/65535/49592734571_e7317aa3f2_n.jpg",
    "id_album": "949200594",
    "description": "KAWAII270220235193",
    "title": "KAWAII270220235193",
    "link_img": "https://live.staticflickr.com/65535/49592734571_d36286450a_o.jpg",
    "id_image": "KAWAII270220235193",
    "count_view": 0
  },
  {
    "link_thumb": "https://live.staticflickr.com/65535/49727466806_2760e8cfcf_n.jpg",
    "id_album": "-1862561193",
    "description": "KAWAII02042019450919",
    "title": "KAWAII02042019450919",
    "link_img": "https://live.staticflickr.com/65535/49727466806_a8a219a42d_o.jpg",
    "id_image": "KAWAII02042019450919",
    "count_view": 0
  },
  {
    "link_thumb": "https://live.staticflickr.com/65535/49726898053_d8f0c3bca1_n.jpg",
    "id_album": "742877173",
    "description": "KAWAII020420194510148",
    "title": "KAWAII020420194510148",
    "link_img": "https://live.staticflickr.com/65535/49726898053_a28a9c24da_o.jpg",
    "id_image": "KAWAII020420194510148",
    "count_view": 0
  },
  {
    "link_thumb": "https://live.staticflickr.com/65535/49742356483_b4dbd813b8_n.jpg",
    "id_album": "-1913845949",
    "description": "KAWAII060420214915298",
    "title": "KAWAII060420214915298",
    "link_img": "https://live.staticflickr.com/65535/49742356483_5d266574ca_o.jpg",
    "id_image": "KAWAII060420214915298",
    "count_view": 0
  },
  {
    "link_thumb": "https://live.staticflickr.com/65535/49727785262_9a8665653b_n.jpg",
    "id_album": "-1862561193",
    "description": "KAWAII02042019451214",
    "title": "KAWAII02042019451214",
    "link_img": "https://live.staticflickr.com/65535/49727785262_cc3eae3fff_o.jpg",
    "id_image": "KAWAII02042019451214",
    "count_view": 0
  },
  {
    "link_thumb": "https://live.staticflickr.com/65535/49548105213_4534f29ce5_n.jpg",
    "id_album": "-1741487325",
    "description": "KAWAII120918368",
    "title": "KAWAII120918368",
    "link_img": "https://live.staticflickr.com/65535/49548105213_8eae108d58_o.jpg",
    "id_image": "KAWAII120918368",
    "count_view": 0
  },
  {
    "link_thumb": "https://live.staticflickr.com/65535/49727435321_745f69d1d7_n.jpg",
    "id_album": "-1497779911",
    "description": "KAWAII17091851",
    "title": "KAWAII17091851",
    "link_img": "https://live.staticflickr.com/65535/49727435321_421dab3039_o.jpg",
    "id_image": "KAWAII17091851",
    "count_view": 0
  },
  {
    "link_thumb": "https://live.staticflickr.com/65535/49592212928_405a8dd919_n.jpg",
    "id_album": "-316663319",
    "description": "KAWAII2702202351143",
    "title": "KAWAII2702202351143",
    "link_img": "https://live.staticflickr.com/65535/49592212928_3f4652a666_o.jpg",
    "id_image": "KAWAII2702202351143",
    "count_view": 0
  },
  {
    "link_thumb": "https://live.staticflickr.com/65535/49693550458_389a7c3a92_n.jpg",
    "id_album": "1201366373",
    "description": "KAWAII120918240",
    "title": "KAWAII120918240",
    "link_img": "https://live.staticflickr.com/65535/49693550458_4c71bcbf04_o.jpg",
    "id_image": "KAWAII120918240",
    "count_view": 0
  },
  {
    "link_thumb": "https://live.staticflickr.com/65535/49623097582_a0b5d26cc5_n.jpg",
    "id_album": "-316663319",
    "description": "KAWAII0503202021229",
    "title": "KAWAII0503202021229",
    "link_img": "https://live.staticflickr.com/65535/49623097582_22857551b6_o.jpg",
    "id_image": "KAWAII0503202021229",
    "count_view": 0
  },
  {
    "link_thumb": "https://live.staticflickr.com/65535/49548781432_bbf23e809a_n.jpg",
    "id_album": "-316663319",
    "description": "KAWAII12091814",
    "title": "KAWAII12091814",
    "link_img": "https://live.staticflickr.com/65535/49548781432_02ef9ac37d_o.jpg",
    "id_image": "KAWAII12091814",
    "count_view": 0
  },
  {
    "link_thumb": "https://live.staticflickr.com/65535/49694396612_2dbb811b8c_n.jpg",
    "id_album": "1201366373",
    "description": "KAWAII120918243",
    "title": "KAWAII120918243",
    "link_img": "https://live.staticflickr.com/65535/49694396612_a9d6ca4198_o.jpg",
    "id_image": "KAWAII120918243",
    "count_view": 0
  },
  {
    "link_thumb": "https://live.staticflickr.com/65535/49727751267_d1ddd34e63_n.jpg",
    "id_album": "-316663319",
    "description": "KAWAII020420194510209",
    "title": "KAWAII020420194510209",
    "link_img": "https://live.staticflickr.com/65535/49727751267_76eb7d2aac_o.jpg",
    "id_image": "KAWAII020420194510209",
    "count_view": 0
  },
  {
    "link_thumb": "https://live.staticflickr.com/65535/49743261052_4b69c702e4_n.jpg",
    "id_album": "-1473448477",
    "description": "KAWAII06042021491524",
    "title": "KAWAII06042021491524",
    "link_img": "https://live.staticflickr.com/65535/49743261052_51fa3db42d_o.jpg",
    "id_image": "KAWAII06042021491524",
    "count_view": 0
  },
  {
    "link_thumb": "https://live.staticflickr.com/65535/49548615741_74846bdc3a_n.jpg",
    "id_album": "-316663319",
    "description": "KAWAII12091869",
    "title": "KAWAII12091869",
    "link_img": "https://live.staticflickr.com/65535/49548615741_5566937561_o.jpg",
    "id_image": "KAWAII12091869",
    "count_view": 0
  },
  {
    "link_thumb": "https://live.staticflickr.com/65535/49694381982_22f65d6e4b_n.jpg",
    "id_album": "-643980979",
    "description": "KAWAII050320202188",
    "title": "KAWAII050320202188",
    "link_img": "https://live.staticflickr.com/65535/49694381982_3672308b8b_o.jpg",
    "id_image": "KAWAII050320202188",
    "count_view": 0
  },
  {
    "link_thumb": "https://live.staticflickr.com/65535/49548734621_6f7909057d_n.jpg",
    "id_album": "-1431786825",
    "description": "KAWAII1702202239508",
    "title": "KAWAII1702202239508",
    "link_img": "https://live.staticflickr.com/65535/49548734621_96211a1217_o.jpg",
    "id_image": "KAWAII1702202239508",
    "count_view": 0
  },
  {
    "link_thumb": "https://live.staticflickr.com/65535/49548967697_e68f770f65_n.jpg",
    "id_album": "-1431786825",
    "description": "KAWAII1702202239532",
    "title": "KAWAII1702202239532",
    "link_img": "https://live.staticflickr.com/65535/49548967697_e81a4b715a_o.jpg",
    "id_image": "KAWAII1702202239532",
    "count_view": 0
  },
  {
    "link_thumb": "https://live.staticflickr.com/65535/49727784282_3fa89588d1_n.jpg",
    "id_album": "-1862561193",
    "description": "KAWAII02042019451140",
    "title": "KAWAII02042019451140",
    "link_img": "https://live.staticflickr.com/65535/49727784282_4ed66233ee_o.jpg",
    "id_image": "KAWAII02042019451140",
    "count_view": 0
  },
  {
    "link_thumb": "https://live.staticflickr.com/65535/49726921748_b4b5c4ecaa_n.jpg",
    "id_album": "-1862561193",
    "description": "KAWAII020420194511144",
    "title": "KAWAII020420194511144",
    "link_img": "https://live.staticflickr.com/65535/49726921748_3d1c4151fd_o.jpg",
    "id_image": "KAWAII020420194511144",
    "count_view": 0
  },
  {
    "link_thumb": "https://live.staticflickr.com/65535/49727748897_340ff7ecbd_n.jpg",
    "id_album": "-1497779911",
    "description": "KAWAII1702202235213",
    "title": "KAWAII1702202235213",
    "link_img": "https://live.staticflickr.com/65535/49727748897_864116ab44_o.jpg",
    "id_image": "KAWAII1702202235213",
    "count_view": 0
  },
  {
    "link_thumb": "https://live.staticflickr.com/65535/49548128073_3f00b9f7c1_n.jpg",
    "id_album": "-1431786825",
    "description": "KAWAII1702202234101",
    "title": "KAWAII1702202234101",
    "link_img": "https://live.staticflickr.com/65535/49548128073_2fe4883e52_o.jpg",
    "id_image": "KAWAII1702202234101",
    "count_view": 0
  },
  {
    "link_thumb": "https://live.staticflickr.com/65535/49693576363_687b529949_n.jpg",
    "id_album": "1201366373",
    "description": "KAWAII1709181",
    "title": "KAWAII1709181",
    "link_img": "https://live.staticflickr.com/65535/49693576363_0e1a57e2ba_o.jpg",
    "id_image": "KAWAII1709181",
    "count_view": 0
  },
  {
    "link_thumb": "https://live.staticflickr.com/65535/49622316283_db9e9926f0_n.jpg",
    "id_album": "-316663319",
    "description": "KAWAII05032020213",
    "title": "KAWAII05032020213",
    "link_img": "https://live.staticflickr.com/65535/49622316283_31fda07e1c_o.jpg",
    "id_image": "KAWAII05032020213",
    "count_view": 0
  },
  {
    "link_thumb": "https://live.staticflickr.com/65535/49693567148_49b477c0e3_n.jpg",
    "id_album": "1201366373",
    "description": "KAWAII1702202236259",
    "title": "KAWAII1702202236259",
    "link_img": "https://live.staticflickr.com/65535/49693567148_6e0c7e5bfe_o.jpg",
    "id_image": "KAWAII1702202236259",
    "count_view": 0
  },
  {
    "link_thumb": "https://live.staticflickr.com/65535/49694094696_78606a6e68_n.jpg",
    "id_album": "1201366373",
    "description": "KAWAII120918246",
    "title": "KAWAII120918246",
    "link_img": "https://live.staticflickr.com/65535/49694094696_3546c39ba8_o.jpg",
    "id_image": "KAWAII120918246",
    "count_view": 0
  },
  {
    "link_thumb": "https://live.staticflickr.com/65535/49742949546_5a2707e56d_n.jpg",
    "id_album": "1396902986",
    "description": "KAWAII060420214917148",
    "title": "KAWAII060420214917148",
    "link_img": "https://live.staticflickr.com/65535/49742949546_2909604b24_o.jpg",
    "id_image": "KAWAII060420214917148",
    "count_view": 0
  },
  {
    "link_thumb": "https://live.staticflickr.com/65535/49743255132_4bdd550b75_n.jpg",
    "id_album": "-316663319",
    "description": "KAWAII060420214917185",
    "title": "KAWAII060420214917185",
    "link_img": "https://live.staticflickr.com/65535/49743255132_dc88868ca4_o.jpg",
    "id_image": "KAWAII060420214917185",
    "count_view": 0
  },
  {
    "link_thumb": "https://live.staticflickr.com/65535/49548709421_895991a160_n.jpg",
    "id_album": "-1431786825",
    "description": "KAWAII1702202238414",
    "title": "KAWAII1702202238414",
    "link_img": "https://live.staticflickr.com/65535/49548709421_143b10f046_o.jpg",
    "id_image": "KAWAII1702202238414",
    "count_view": 0
  },
  {
    "link_thumb": "https://live.staticflickr.com/65535/49742934841_69d09604fe_n.jpg",
    "id_album": "-1473448477",
    "description": "KAWAII06042021491514",
    "title": "KAWAII06042021491514",
    "link_img": "https://live.staticflickr.com/65535/49742934841_48a5606e88_o.jpg",
    "id_image": "KAWAII06042021491514",
    "count_view": 0
  },
  {
    "link_thumb": "https://live.staticflickr.com/65535/49578247678_897aeb9c0b_n.jpg",
    "id_album": "-1099943053",
    "description": "KAWAII190220211110",
    "title": "KAWAII190220211110",
    "link_img": "https://live.staticflickr.com/65535/49578247678_5293d513a2_o.jpg",
    "id_image": "KAWAII190220211110",
    "count_view": 0
  },
  {
    "link_thumb": "https://live.staticflickr.com/65535/49727465396_43aa8d7c90_n.jpg",
    "id_album": "1396902986",
    "description": "KAWAII02042019451249",
    "title": "KAWAII02042019451249",
    "link_img": "https://live.staticflickr.com/65535/49727465396_a64da1a456_o.jpg",
    "id_image": "KAWAII02042019451249",
    "count_view": 0
  },
  {
    "link_thumb": "https://live.staticflickr.com/65535/49693545928_61f463169e_n.jpg",
    "id_album": "1201366373",
    "description": "KAWAII120918196",
    "title": "KAWAII120918196",
    "link_img": "https://live.staticflickr.com/65535/49693545928_b65581381d_o.jpg",
    "id_image": "KAWAII120918196",
    "count_view": 0
  },
  {
    "link_thumb": "https://live.staticflickr.com/65535/49592731011_49c2a743bf_n.jpg",
    "id_album": "949200594",
    "description": "KAWAII2702202351131",
    "title": "KAWAII2702202351131",
    "link_img": "https://live.staticflickr.com/65535/49592731011_23595a6872_o.jpg",
    "id_image": "KAWAII2702202351131",
    "count_view": 0
  },
  {
    "link_thumb": "https://live.staticflickr.com/65535/49693585708_88c3f8b717_n.jpg",
    "id_album": "1226948986",
    "description": "TOTORO220320154111",
    "title": "TOTORO220320154111",
    "link_img": "https://live.staticflickr.com/65535/49693585708_d75025b389_o.jpg",
    "id_image": "TOTORO220320154111",
    "count_view": 0
  },
  {
    "link_thumb": "https://live.staticflickr.com/65535/49592732326_ec544b524b_n.jpg",
    "id_album": "949200594",
    "description": "KAWAII27022023513",
    "title": "KAWAII27022023513",
    "link_img": "https://live.staticflickr.com/65535/49592732326_5d44a7d439_o.jpg",
    "id_image": "KAWAII27022023513",
    "count_view": 0
  },
  {
    "link_thumb": "https://live.staticflickr.com/65535/49742906736_e96c174ea1_n.jpg",
    "id_album": "1699819648",
    "description": "KAWAII060420214914299",
    "title": "KAWAII060420214914299",
    "link_img": "https://live.staticflickr.com/65535/49742906736_034e0f4e56_o.jpg",
    "id_image": "KAWAII060420214914299",
    "count_view": 0
  },
  {
    "link_thumb": "https://live.staticflickr.com/65535/49694383662_c3d6b5a253_n.jpg",
    "id_album": "1201366373",
    "description": "KAWAII120918110",
    "title": "KAWAII120918110",
    "link_img": "https://live.staticflickr.com/65535/49694383662_89b9a4d1d3_o.jpg",
    "id_image": "KAWAII120918110",
    "count_view": 0
  },
  {
    "link_thumb": "https://live.staticflickr.com/65535/49726924473_3f8ea1d665_n.jpg",
    "id_album": "-1862561193",
    "description": "KAWAII020420194513106",
    "title": "KAWAII020420194513106",
    "link_img": "https://live.staticflickr.com/65535/49726924473_6c8e71e23c_o.jpg",
    "id_image": "KAWAII020420194513106",
    "count_view": 0
  },
  {
    "link_thumb": "https://live.staticflickr.com/65535/49726882983_1a981c019f_n.jpg",
    "id_album": "-1497779911",
    "description": "KAWAII020420194511232",
    "title": "KAWAII020420194511232",
    "link_img": "https://live.staticflickr.com/65535/49726882983_cddcb7cb6a_o.jpg",
    "id_image": "KAWAII020420194511232",
    "count_view": 0
  },
  {
    "link_thumb": "https://live.staticflickr.com/65535/49623114102_c4b0e64840_n.jpg",
    "id_album": "-406350429",
    "description": "KAWAII0503202021115",
    "title": "KAWAII0503202021115",
    "link_img": "https://live.staticflickr.com/65535/49623114102_63275bcc45_o.jpg",
    "id_image": "KAWAII0503202021115",
    "count_view": 0
  },
  {
    "link_thumb": "https://live.staticflickr.com/65535/49743270082_7f0f33305a_n.jpg",
    "id_album": "1396902986",
    "description": "KAWAII050320202131",
    "title": "KAWAII050320202131",
    "link_img": "https://live.staticflickr.com/65535/49743270082_189a95b3d1_o.jpg",
    "id_image": "KAWAII050320202131",
    "count_view": 0
  },
  {
    "link_thumb": "https://live.staticflickr.com/65535/49726895823_7197f25723_n.jpg",
    "id_album": "742877173",
    "description": "KAWAII02042019450860",
    "title": "KAWAII02042019450860",
    "link_img": "https://live.staticflickr.com/65535/49726895823_b23a068759_o.jpg",
    "id_image": "KAWAII02042019450860",
    "count_view": 0
  },
  {
    "link_thumb": "https://live.staticflickr.com/65535/49742905991_c9c478aab5_n.jpg",
    "id_album": "-1913845949",
    "description": "KAWAII1702202235133",
    "title": "KAWAII1702202235133",
    "link_img": "https://live.staticflickr.com/65535/49742905991_788e3f3fca_o.jpg",
    "id_image": "KAWAII1702202235133",
    "count_view": 0
  },
  {
    "link_thumb": "https://live.staticflickr.com/65535/49694431617_90867bcb8a_n.jpg",
    "id_album": "1226948986",
    "description": "TOTORO220320154114",
    "title": "TOTORO220320154114",
    "link_img": "https://live.staticflickr.com/65535/49694431617_c4ac376478_o.jpg",
    "id_image": "TOTORO220320154114",
    "count_view": 0
  },
  {
    "link_thumb": "https://live.staticflickr.com/65535/49548666081_af29dc7e0d_n.jpg",
    "id_album": "-316663319",
    "description": "KAWAII1702202235217",
    "title": "KAWAII1702202235217",
    "link_img": "https://live.staticflickr.com/65535/49548666081_f380b51d80_o.jpg",
    "id_image": "KAWAII1702202235217",
    "count_view": 0
  },
  {
    "link_thumb": "https://live.staticflickr.com/65535/49726885053_9ea365cccc_n.jpg",
    "id_album": "-1497779911",
    "description": "KAWAII050320202141",
    "title": "KAWAII050320202141",
    "link_img": "https://live.staticflickr.com/65535/49726885053_fe748f8203_o.jpg",
    "id_image": "KAWAII050320202141",
    "count_view": 0
  },
  {
    "link_thumb": "https://live.staticflickr.com/65535/49548925482_76aa3720cf_n.jpg",
    "id_album": "-422187261",
    "description": "KAWAII1702202237369",
    "title": "KAWAII1702202237369",
    "link_img": "https://live.staticflickr.com/65535/49548925482_ec816fe0df_o.jpg",
    "id_image": "KAWAII1702202237369",
    "count_view": 0
  },
  {
    "link_thumb": "https://live.staticflickr.com/65535/49693576683_b0ede188d0_n.jpg",
    "id_album": "1201366373",
    "description": "KAWAII17091832",
    "title": "KAWAII17091832",
    "link_img": "https://live.staticflickr.com/65535/49693576683_cfec756f53_o.jpg",
    "id_image": "KAWAII17091832",
    "count_view": 0
  },
  {
    "link_thumb": "https://live.staticflickr.com/65535/49548979192_8701e062fe_n.jpg",
    "id_album": "-1431786825",
    "description": "KAWAII1702202239579",
    "title": "KAWAII1702202239579",
    "link_img": "https://live.staticflickr.com/65535/49548979192_dbd6fac7f5_o.jpg",
    "id_image": "KAWAII1702202239579",
    "count_view": 0
  },
  {
    "link_thumb": "https://live.staticflickr.com/65535/49693546958_bf60f7305c_n.jpg",
    "id_album": "1201366373",
    "description": "KAWAII120918205",
    "title": "KAWAII120918205",
    "link_img": "https://live.staticflickr.com/65535/49693546958_624b9d5b61_o.jpg",
    "id_image": "KAWAII120918205",
    "count_view": 0
  },
  {
    "link_thumb": "https://live.staticflickr.com/65535/49726882728_d4d89f133a_n.jpg",
    "id_album": "-1497779911",
    "description": "KAWAII02042019451083",
    "title": "KAWAII02042019451083",
    "link_img": "https://live.staticflickr.com/65535/49726882728_f2649991bf_o.jpg",
    "id_image": "KAWAII02042019451083",
    "count_view": 0
  },
  {
    "link_thumb": "https://live.staticflickr.com/65535/49694411482_dccb80dd9f_n.jpg",
    "id_album": "-643980979",
    "description": "KAWAII1702202235196",
    "title": "KAWAII1702202235196",
    "link_img": "https://live.staticflickr.com/65535/49694411482_4d17f04c9f_o.jpg",
    "id_image": "KAWAII1702202235196",
    "count_view": 0
  },
  {
    "link_thumb": "https://live.staticflickr.com/65535/49548274998_71e86743fb_n.jpg",
    "id_album": "-316663319",
    "description": "KAWAII17091859",
    "title": "KAWAII17091859",
    "link_img": "https://live.staticflickr.com/65535/49548274998_3834e0f3a6_o.jpg",
    "id_image": "KAWAII17091859",
    "count_view": 0
  },
  {
    "link_thumb": "https://live.staticflickr.com/65535/49693564863_d451c3d21c_n.jpg",
    "id_album": "1201366373",
    "description": "KAWAII170220223488",
    "title": "KAWAII170220223488",
    "link_img": "https://live.staticflickr.com/65535/49693564863_846111a703_o.jpg",
    "id_image": "KAWAII170220223488",
    "count_view": 0
  },
  {
    "link_thumb": "https://live.staticflickr.com/65535/49552021163_d9561b31fa_n.jpg",
    "id_album": "-1694302085",
    "description": "KAWAII12091825180220205918",
    "title": "KAWAII12091825180220205918",
    "link_img": "https://live.staticflickr.com/65535/49552021163_bde41e67f8_o.jpg",
    "id_image": "KAWAII12091825180220205918",
    "count_view": 0
  },
  {
    "link_thumb": "https://live.staticflickr.com/65535/49548064628_d02e014ab6_n.jpg",
    "id_album": "-316663319",
    "description": "KAWAII120918191",
    "title": "KAWAII120918191",
    "link_img": "https://live.staticflickr.com/65535/49548064628_78deddcd7e_o.jpg",
    "id_image": "KAWAII120918191",
    "count_view": 0
  },
  {
    "link_thumb": "https://live.staticflickr.com/65535/49693578608_18b1ed3562_n.jpg",
    "id_album": "-643980979",
    "description": "KAWAII2702202351160",
    "title": "KAWAII2702202351160",
    "link_img": "https://live.staticflickr.com/65535/49693578608_a956a23dc3_o.jpg",
    "id_image": "KAWAII2702202351160",
    "count_view": 0
  },
  {
    "link_thumb": "https://live.staticflickr.com/65535/49743230762_d587990639_n.jpg",
    "id_album": "-422187261",
    "description": "KAWAII060420214912167",
    "title": "KAWAII060420214912167",
    "link_img": "https://live.staticflickr.com/65535/49743230762_70ab22a7e4_o.jpg",
    "id_image": "KAWAII060420214912167",
    "count_view": 0
  },
  {
    "link_thumb": "https://live.staticflickr.com/65535/49693561393_32242b0474_n.jpg",
    "id_album": "1201366373",
    "description": "KAWAII12091886",
    "title": "KAWAII12091886",
    "link_img": "https://live.staticflickr.com/65535/49693561393_bb7b7c09f6_o.jpg",
    "id_image": "KAWAII12091886",
    "count_view": 0
  },
  {
    "link_thumb": "https://live.staticflickr.com/65535/49592962932_0c0df353dc_n.jpg",
    "id_album": "-316663319",
    "description": "KAWAII270220235187",
    "title": "KAWAII270220235187",
    "link_img": "https://live.staticflickr.com/65535/49592962932_3900739668_o.jpg",
    "id_image": "KAWAII270220235187",
    "count_view": 0
  },
  {
    "link_thumb": "https://live.staticflickr.com/65535/49592217268_d6786c2d1a_n.jpg",
    "id_album": "-316663319",
    "description": "KAWAII270220235181",
    "title": "KAWAII270220235181",
    "link_img": "https://live.staticflickr.com/65535/49592217268_d78b40da3a_o.jpg",
    "id_image": "KAWAII270220235181",
    "count_view": 0
  },
  {
    "link_thumb": "https://live.staticflickr.com/65535/49727768952_ac7222a721_n.jpg",
    "id_album": "1201366373",
    "description": "KAWAII120918297",
    "title": "KAWAII120918297",
    "link_img": "https://live.staticflickr.com/65535/49727768952_403d1918af_o.jpg",
    "id_image": "KAWAII120918297",
    "count_view": 0
  },
  {
    "link_thumb": "https://live.staticflickr.com/65535/49548274513_407c2b8a2f_n.jpg",
    "id_album": "949200594",
    "description": "KAWAII17091857",
    "title": "KAWAII17091857",
    "link_img": "https://live.staticflickr.com/65535/49548274513_201e71fcd3_o.jpg",
    "id_image": "KAWAII17091857",
    "count_view": 0
  },
  {
    "link_thumb": "https://live.staticflickr.com/65535/49548610471_c6a9e5014f_n.jpg",
    "id_album": "-316663319",
    "description": "KAWAII12091843",
    "title": "KAWAII12091843",
    "link_img": "https://live.staticflickr.com/65535/49548610471_bf36fce83f_o.jpg",
    "id_image": "KAWAII12091843",
    "count_view": 0
  },
  {
    "link_thumb": "https://live.staticflickr.com/65535/49742915941_883ca8ddcd_n.jpg",
    "id_album": "-1497779911",
    "description": "KAWAII060420214918276",
    "title": "KAWAII060420214918276",
    "link_img": "https://live.staticflickr.com/65535/49742915941_86224c14f7_o.jpg",
    "id_image": "KAWAII060420214918276",
    "count_view": 0
  },
  {
    "link_thumb": "https://live.staticflickr.com/65535/49727434356_c3ff8953bd_n.jpg",
    "id_album": "-1497779911",
    "description": "KAWAII1702202235125",
    "title": "KAWAII1702202235125",
    "link_img": "https://live.staticflickr.com/65535/49727434356_b768281799_o.jpg",
    "id_image": "KAWAII1702202235125",
    "count_view": 0
  },
  {
    "link_thumb": "https://live.staticflickr.com/65535/49548683346_86605be243_n.jpg",
    "id_album": "-422187261",
    "description": "KAWAII1702202236306",
    "title": "KAWAII1702202236306",
    "link_img": "https://live.staticflickr.com/65535/49548683346_e9a5c7e8c8_o.jpg",
    "id_image": "KAWAII1702202236306",
    "count_view": 0
  },
  {
    "link_thumb": "https://live.staticflickr.com/65535/49727436536_7dee9d1b02_n.jpg",
    "id_album": "-316663319",
    "description": "KAWAII0204201945099",
    "title": "KAWAII0204201945099",
    "link_img": "https://live.staticflickr.com/65535/49727436536_0fcc53344f_o.jpg",
    "id_image": "KAWAII0204201945099",
    "count_view": 0
  },
  {
    "link_thumb": "https://live.staticflickr.com/65535/49592721546_d1ebfd4155_n.jpg",
    "id_album": "-316663319",
    "description": "KAWAII270220235190",
    "title": "KAWAII270220235190",
    "link_img": "https://live.staticflickr.com/65535/49592721546_c743116700_o.jpg",
    "id_image": "KAWAII270220235190",
    "count_view": 0
  },
  {
    "link_thumb": "https://live.staticflickr.com/65535/49693584983_b04cf0d2ea_n.jpg",
    "id_album": "405170427",
    "description": "KAWAII120918321",
    "title": "KAWAII120918321",
    "link_img": "https://live.staticflickr.com/65535/49693584983_80e3f045d3_o.jpg",
    "id_image": "KAWAII120918321",
    "count_view": 0
  },
  {
    "link_thumb": "https://live.staticflickr.com/65535/49742934366_ef750daf0f_n.jpg",
    "id_album": "-1473448477",
    "description": "KAWAII060420214914180",
    "title": "KAWAII060420214914180",
    "link_img": "https://live.staticflickr.com/65535/49742934366_cbb2ac1530_o.jpg",
    "id_image": "KAWAII060420214914180",
    "count_view": 0
  },
  {
    "link_thumb": "https://live.staticflickr.com/65535/49592954487_25b10e6300_n.jpg",
    "id_album": "-1741487325",
    "description": "KAWAII270220235150",
    "title": "KAWAII270220235150",
    "link_img": "https://live.staticflickr.com/65535/49592954487_925a645ab0_o.jpg",
    "id_image": "KAWAII270220235150",
    "count_view": 0
  },
  {
    "link_thumb": "https://live.staticflickr.com/65535/49592959352_782199c1e7_n.jpg",
    "id_album": "-316663319",
    "description": "KAWAII2702202351162",
    "title": "KAWAII2702202351162",
    "link_img": "https://live.staticflickr.com/65535/49592959352_46dfee7f37_o.jpg",
    "id_image": "KAWAII2702202351162",
    "count_view": 0
  },
  {
    "link_thumb": "https://live.staticflickr.com/65535/49743273837_bfef20cf50_n.jpg",
    "id_album": "-1862561193",
    "description": "KAWAII060420214911202",
    "title": "KAWAII060420214911202",
    "link_img": "https://live.staticflickr.com/65535/49743273837_eb67cda728_o.jpg",
    "id_image": "KAWAII060420214911202",
    "count_view": 0
  },
  {
    "link_thumb": "https://live.staticflickr.com/65535/49743266967_158b749625_n.jpg",
    "id_album": "-1779286820",
    "description": "KAWAII060420214913187",
    "title": "KAWAII060420214913187",
    "link_img": "https://live.staticflickr.com/65535/49743266967_cacda7e47b_o.jpg",
    "id_image": "KAWAII060420214913187",
    "count_view": 0
  },
  {
    "link_thumb": "https://live.staticflickr.com/65535/49743262177_b32b106415_n.jpg",
    "id_album": "-1473448477",
    "description": "KAWAII06042021491528",
    "title": "KAWAII06042021491528",
    "link_img": "https://live.staticflickr.com/65535/49743262177_5c9f2f0140_o.jpg",
    "id_image": "KAWAII06042021491528",
    "count_view": 0
  },
  {
    "link_thumb": "https://live.staticflickr.com/65535/49694227571_4a8796ce62_n.jpg",
    "id_album": "1226948986",
    "description": "KAWAII24032022050221",
    "title": "KAWAII24032022050221",
    "link_img": "https://live.staticflickr.com/65535/49694227571_bc26e018a6_o.jpg",
    "id_image": "KAWAII24032022050221",
    "count_view": 0
  },
  {
    "link_thumb": "https://live.staticflickr.com/65535/49726896558_0919cc8216_n.jpg",
    "id_album": "742877173",
    "description": "KAWAII020420194509258",
    "title": "KAWAII020420194509258",
    "link_img": "https://live.staticflickr.com/65535/49726896558_3ed84326ed_o.jpg",
    "id_image": "KAWAII020420194509258",
    "count_view": 0
  },
  {
    "link_thumb": "https://live.staticflickr.com/65535/49693682353_8b39a5992c_n.jpg",
    "id_album": "46674803",
    "description": "KAWAII24032022050233",
    "title": "KAWAII24032022050233",
    "link_img": "https://live.staticflickr.com/65535/49693682353_ffce88a729_o.jpg",
    "id_image": "KAWAII24032022050233",
    "count_view": 0
  },
  {
    "link_thumb": "https://live.staticflickr.com/65535/49726922683_2146701424_n.jpg",
    "id_album": "-1862561193",
    "description": "KAWAII02042019451154",
    "title": "KAWAII02042019451154",
    "link_img": "https://live.staticflickr.com/65535/49726922683_e269b73430_o.jpg",
    "id_image": "KAWAII02042019451154",
    "count_view": 0
  },
  {
    "link_thumb": "https://live.staticflickr.com/65535/49742925786_af9a9b4d99_n.jpg",
    "id_album": "-316663319",
    "description": "KAWAII060420214914288",
    "title": "KAWAII060420214914288",
    "link_img": "https://live.staticflickr.com/65535/49742925786_377ff6721f_o.jpg",
    "id_image": "KAWAII060420214914288",
    "count_view": 0
  },
  {
    "link_thumb": "https://live.staticflickr.com/65535/49592722206_ecfc59669c_n.jpg",
    "id_album": "-316663319",
    "description": "KAWAII270220235198",
    "title": "KAWAII270220235198",
    "link_img": "https://live.staticflickr.com/65535/49592722206_35be976e12_o.jpg",
    "id_image": "KAWAII270220235198",
    "count_view": 0
  },
  {
    "link_thumb": "https://live.staticflickr.com/65535/49548268073_501ebd116c_n.jpg",
    "id_album": "1396902986",
    "description": "KAWAII17091835",
    "title": "KAWAII17091835",
    "link_img": "https://live.staticflickr.com/65535/49548268073_aeb9cb7d6b_o.jpg",
    "id_image": "KAWAII17091835",
    "count_view": 0
  },
  {
    "link_thumb": "https://live.staticflickr.com/65535/49693686013_12dd2df714_n.jpg",
    "id_album": "1226948986",
    "description": "KAWAII24032022050251",
    "title": "KAWAII24032022050251",
    "link_img": "https://live.staticflickr.com/65535/49693686013_6fa519d395_o.jpg",
    "id_image": "KAWAII24032022050251",
    "count_view": 0
  },
  {
    "link_thumb": "https://live.staticflickr.com/65535/49727475381_d6c16969bd_n.jpg",
    "id_album": "1226948986",
    "description": "KAWAII020420194509140",
    "title": "KAWAII020420194509140",
    "link_img": "https://live.staticflickr.com/65535/49727475381_b1e3ecfe87_o.jpg",
    "id_image": "KAWAII020420194509140",
    "count_view": 0
  },
  {
    "link_thumb": "https://live.staticflickr.com/65535/49548563691_39a2cdd7bd_n.jpg",
    "id_album": "-316663319",
    "description": "KAWAII12091818",
    "title": "KAWAII12091818",
    "link_img": "https://live.staticflickr.com/65535/49548563691_93ee2a0ac1_o.jpg",
    "id_image": "KAWAII12091818",
    "count_view": 0
  },
  {
    "link_thumb": "https://live.staticflickr.com/65535/49693528313_e2a2db57d1_n.jpg",
    "id_album": "-643980979",
    "description": "KAWAII0503202021188",
    "title": "KAWAII0503202021188",
    "link_img": "https://live.staticflickr.com/65535/49693528313_4748d2da47_o.jpg",
    "id_image": "KAWAII0503202021188",
    "count_view": 0
  },
  {
    "link_thumb": "https://live.staticflickr.com/65535/49622317858_5497f31501_n.jpg",
    "id_album": "-316663319",
    "description": "KAWAII0503202021315",
    "title": "KAWAII0503202021315",
    "link_img": "https://live.staticflickr.com/65535/49622317858_0ecf191dcd_o.jpg",
    "id_image": "KAWAII0503202021315",
    "count_view": 0
  },
  {
    "link_thumb": "https://live.staticflickr.com/65535/49727428166_9dd22aff1f_n.jpg",
    "id_album": "-1694302085",
    "description": "KAWAII270220235114",
    "title": "KAWAII270220235114",
    "link_img": "https://live.staticflickr.com/65535/49727428166_8c54bb9261_o.jpg",
    "id_image": "KAWAII270220235114",
    "count_view": 0
  },
  {
    "link_thumb": "https://live.staticflickr.com/65535/49623111612_2598b0db04_n.jpg",
    "id_album": "-316663319",
    "description": "KAWAII050320202183",
    "title": "KAWAII050320202183",
    "link_img": "https://live.staticflickr.com/65535/49623111612_bd0136d113_o.jpg",
    "id_image": "KAWAII050320202183",
    "count_view": 0
  },
  {
    "link_thumb": "https://live.staticflickr.com/65535/49694400567_51744eec7c_n.jpg",
    "id_album": "1201366373",
    "description": "KAWAII120918275",
    "title": "KAWAII120918275",
    "link_img": "https://live.staticflickr.com/65535/49694400567_290d9c2508_o.jpg",
    "id_image": "KAWAII120918275",
    "count_view": 0
  },
  {
    "link_thumb": "https://live.staticflickr.com/65535/49622842546_d246727f5d_n.jpg",
    "id_album": "-406350429",
    "description": "KAWAII0503202021129",
    "title": "KAWAII0503202021129",
    "link_img": "https://live.staticflickr.com/65535/49622842546_1fdb3f8ea0_o.jpg",
    "id_image": "KAWAII0503202021129",
    "count_view": 0
  },
  {
    "link_thumb": "https://live.staticflickr.com/65535/49622287383_fc159ea83c_n.jpg",
    "id_album": "1396902986",
    "description": "KAWAII0503202021250",
    "title": "KAWAII0503202021250",
    "link_img": "https://live.staticflickr.com/65535/49622287383_a1edc87a33_o.jpg",
    "id_image": "KAWAII0503202021250",
    "count_view": 0
  },
  {
    "link_thumb": "https://live.staticflickr.com/65535/49742931951_0bf3561d19_n.jpg",
    "id_album": "-316663319",
    "description": "KAWAII060420214917289",
    "title": "KAWAII060420214917289",
    "link_img": "https://live.staticflickr.com/65535/49742931951_2356bb7793_o.jpg",
    "id_image": "KAWAII060420214917289",
    "count_view": 0
  },
  {
    "link_thumb": "https://live.staticflickr.com/65535/49623077172_16baeb5882_n.jpg",
    "id_album": "1396902986",
    "description": "KAWAII05032020216",
    "title": "KAWAII05032020216",
    "link_img": "https://live.staticflickr.com/65535/49623077172_bbd401916a_o.jpg",
    "id_image": "KAWAII05032020216",
    "count_view": 0
  },
  {
    "link_thumb": "https://live.staticflickr.com/65535/49727740517_150b78a0fe_n.jpg",
    "id_album": "-1694302085",
    "description": "KAWAII0503202021203",
    "title": "KAWAII0503202021203",
    "link_img": "https://live.staticflickr.com/65535/49727740517_44ae058446_o.jpg",
    "id_image": "KAWAII0503202021203",
    "count_view": 0
  },
  {
    "link_thumb": "https://live.staticflickr.com/65535/49694086796_2038f4e37a_n.jpg",
    "id_album": "-643980979",
    "description": "KAWAII12091817",
    "title": "KAWAII12091817",
    "link_img": "https://live.staticflickr.com/65535/49694086796_46b9dc535b_o.jpg",
    "id_image": "KAWAII12091817",
    "count_view": 0
  },
  {
    "link_thumb": "https://live.staticflickr.com/65535/49622318068_abdf8528a3_n.jpg",
    "id_album": "-316663319",
    "description": "KAWAII0503202021317",
    "title": "KAWAII0503202021317",
    "link_img": "https://live.staticflickr.com/65535/49622318068_1c4d332d4b_o.jpg",
    "id_image": "KAWAII0503202021317",
    "count_view": 0
  },
  {
    "link_thumb": "https://live.staticflickr.com/65535/49548045533_0e77f46a71_n.jpg",
    "id_album": "-422187261",
    "description": "KAWAII120918114",
    "title": "KAWAII120918114",
    "link_img": "https://live.staticflickr.com/65535/49548045533_09119d7bc6_o.jpg",
    "id_image": "KAWAII120918114",
    "count_view": 0
  },
  {
    "link_thumb": "https://live.staticflickr.com/65535/49743253372_f91982bd8a_n.jpg",
    "id_album": "-316663319",
    "description": "KAWAII060420214915306",
    "title": "KAWAII060420214915306",
    "link_img": "https://live.staticflickr.com/65535/49743253372_90177eb6be_o.jpg",
    "id_image": "KAWAII060420214915306",
    "count_view": 0
  },
  {
    "link_thumb": "https://live.staticflickr.com/65535/49727453711_69725a9b6a_n.jpg",
    "id_album": "742877173",
    "description": "KAWAII02042019451471",
    "title": "KAWAII02042019451471",
    "link_img": "https://live.staticflickr.com/65535/49727453711_1b093a62f5_o.jpg",
    "id_image": "KAWAII02042019451471",
    "count_view": 0
  },
  {
    "link_thumb": "https://live.staticflickr.com/65535/49694078471_063ecc0884_n.jpg",
    "id_album": "-643980979",
    "description": "KAWAII050320202177",
    "title": "KAWAII050320202177",
    "link_img": "https://live.staticflickr.com/65535/49694078471_c5ebb44ffc_o.jpg",
    "id_image": "KAWAII050320202177",
    "count_view": 0
  },
  {
    "link_thumb": "https://live.staticflickr.com/65535/49548775137_a598aa735d_n.jpg",
    "id_album": "-1741487325",
    "description": "KAWAII120918117",
    "title": "KAWAII120918117",
    "link_img": "https://live.staticflickr.com/65535/49548775137_6eceb08f83_o.jpg",
    "id_image": "KAWAII120918117",
    "count_view": 0
  },
  {
    "link_thumb": "https://live.staticflickr.com/65535/49694425177_218d63f6ae_n.jpg",
    "id_album": "1201366373",
    "description": "KAWAII270220235159",
    "title": "KAWAII270220235159",
    "link_img": "https://live.staticflickr.com/65535/49694425177_c284129e6e_o.jpg",
    "id_image": "KAWAII270220235159",
    "count_view": 0
  },
  {
    "link_thumb": "https://live.staticflickr.com/65535/49694102616_bcf5bbb1b1_n.jpg",
    "id_album": "1201366373",
    "description": "KAWAII12091852",
    "title": "KAWAII12091852",
    "link_img": "https://live.staticflickr.com/65535/49694102616_fe381c228e_o.jpg",
    "id_image": "KAWAII12091852",
    "count_view": 0
  },
  {
    "link_thumb": "https://live.staticflickr.com/65535/49592721871_d8c01a7af3_n.jpg",
    "id_album": "-316663319",
    "description": "KAWAII270220235192",
    "title": "KAWAII270220235192",
    "link_img": "https://live.staticflickr.com/65535/49592721871_96360fb768_o.jpg",
    "id_image": "KAWAII270220235192",
    "count_view": 0
  },
  {
    "link_thumb": "https://live.staticflickr.com/65535/49694070071_dde1f6737b_n.jpg",
    "id_album": "-643980979",
    "description": "KAWAII0503202021118",
    "title": "KAWAII0503202021118",
    "link_img": "https://live.staticflickr.com/65535/49694070071_8aebd40329_o.jpg",
    "id_image": "KAWAII0503202021118",
    "count_view": 0
  },
  {
    "link_thumb": "https://live.staticflickr.com/65535/49727464601_e44b37d61b_n.jpg",
    "id_album": "1396902986",
    "description": "KAWAII02042019451047",
    "title": "KAWAII02042019451047",
    "link_img": "https://live.staticflickr.com/65535/49727464601_5672fec016_o.jpg",
    "id_image": "KAWAII02042019451047",
    "count_view": 0
  },
  {
    "link_thumb": "https://live.staticflickr.com/65535/49742911686_9ff0af5e21_n.jpg",
    "id_album": "-1741487325",
    "description": "KAWAII060420214912184",
    "title": "KAWAII060420214912184",
    "link_img": "https://live.staticflickr.com/65535/49742911686_c7bee8c3a9_o.jpg",
    "id_image": "KAWAII060420214912184",
    "count_view": 0
  },
  {
    "link_thumb": "https://live.staticflickr.com/65535/49694099321_b2d6dd6665_n.jpg",
    "id_album": "1201366373",
    "description": "KAWAII120918286",
    "title": "KAWAII120918286",
    "link_img": "https://live.staticflickr.com/65535/49694099321_fd4a1d1871_o.jpg",
    "id_image": "KAWAII120918286",
    "count_view": 0
  },
  {
    "link_thumb": "https://live.staticflickr.com/65535/49548121913_60da61ca27_n.jpg",
    "id_album": "-422187261",
    "description": "KAWAII170220223316",
    "title": "KAWAII170220223316",
    "link_img": "https://live.staticflickr.com/65535/49548121913_44d0b61ddf_o.jpg",
    "id_image": "KAWAII170220223316",
    "count_view": 0
  },
  {
    "link_thumb": "https://live.staticflickr.com/65535/49694129606_7ac23b2cab_n.jpg",
    "id_album": "1226948986",
    "description": "TOTORO22032015424",
    "title": "TOTORO22032015424",
    "link_img": "https://live.staticflickr.com/65535/49694129606_2d1cd45ab7_o.jpg",
    "id_image": "TOTORO22032015424",
    "count_view": 0
  },
  {
    "link_thumb": "https://live.staticflickr.com/65535/49694422952_3e4b1fe084_n.jpg",
    "id_album": "-643980979",
    "description": "KAWAII190220211136",
    "title": "KAWAII190220211136",
    "link_img": "https://live.staticflickr.com/65535/49694422952_84233e920a_o.jpg",
    "id_image": "KAWAII190220211136",
    "count_view": 0
  },
  {
    "link_thumb": "https://live.staticflickr.com/65535/49693681333_6abeaa8d64_n.jpg",
    "id_album": "-1862561193",
    "description": "KAWAII24032022050164",
    "title": "KAWAII24032022050164",
    "link_img": "https://live.staticflickr.com/65535/49693681333_5a06cfd631_o.jpg",
    "id_image": "KAWAII24032022050164",
    "count_view": 0
  },
  {
    "link_thumb": "https://live.staticflickr.com/65535/49592214213_574d679760_n.jpg",
    "id_album": "-316663319",
    "description": "KAWAII270220235117",
    "title": "KAWAII270220235117",
    "link_img": "https://live.staticflickr.com/65535/49592214213_4fdbd065b2_o.jpg",
    "id_image": "KAWAII270220235117",
    "count_view": 0
  },
  {
    "link_thumb": "https://live.staticflickr.com/65535/49548564106_4da17e55a0_n.jpg",
    "id_album": "-1741487325",
    "description": "KAWAII120918181",
    "title": "KAWAII120918181",
    "link_img": "https://live.staticflickr.com/65535/49548564106_7806ce5f14_o.jpg",
    "id_image": "KAWAII120918181",
    "count_view": 0
  },
  {
    "link_thumb": "https://live.staticflickr.com/65535/49727448281_b4ec788374_n.jpg",
    "id_album": "742877173",
    "description": "KAWAII020420194511265",
    "title": "KAWAII020420194511265",
    "link_img": "https://live.staticflickr.com/65535/49727448281_40f223619f_o.jpg",
    "id_image": "KAWAII020420194511265",
    "count_view": 0
  },
  {
    "link_thumb": "https://live.staticflickr.com/65535/49693571673_b7157feeb2_n.jpg",
    "id_album": "-643980979",
    "description": "KAWAII1702202239562",
    "title": "KAWAII1702202239562",
    "link_img": "https://live.staticflickr.com/65535/49693571673_e6720ca332_o.jpg",
    "id_image": "KAWAII1702202239562",
    "count_view": 0
  },
  {
    "link_thumb": "https://live.staticflickr.com/65535/49622830001_eb9b004f6c_n.jpg",
    "id_album": "-316663319",
    "description": "KAWAII0503202021290",
    "title": "KAWAII0503202021290",
    "link_img": "https://live.staticflickr.com/65535/49622830001_1cb79bebf2_o.jpg",
    "id_image": "KAWAII0503202021290",
    "count_view": 0
  },
  {
    "link_thumb": "https://live.staticflickr.com/65535/49726898628_e58725e8fe_n.jpg",
    "id_album": "742877173",
    "description": "KAWAII020420194510168",
    "title": "KAWAII020420194510168",
    "link_img": "https://live.staticflickr.com/65535/49726898628_9f32337f51_o.jpg",
    "id_image": "KAWAII020420194510168",
    "count_view": 0
  },
  {
    "link_thumb": "https://live.staticflickr.com/65535/49694427082_1206fc2ee5_n.jpg",
    "id_album": "-358592519",
    "description": "KAWAII120918347",
    "title": "KAWAII120918347",
    "link_img": "https://live.staticflickr.com/65535/49694427082_21e2e6b3a7_o.jpg",
    "id_image": "KAWAII120918347",
    "count_view": 0
  },
  {
    "link_thumb": "https://live.staticflickr.com/65535/49727437116_04fe3d752f_n.jpg",
    "id_album": "-316663319",
    "description": "KAWAII020420194510210",
    "title": "KAWAII020420194510210",
    "link_img": "https://live.staticflickr.com/65535/49727437116_db41a81af1_o.jpg",
    "id_image": "KAWAII020420194510210",
    "count_view": 0
  },
  {
    "link_thumb": "https://live.staticflickr.com/65535/49694229501_481ee8738a_n.jpg",
    "id_album": "1226948986",
    "description": "KAWAII2403202205026",
    "title": "KAWAII2403202205026",
    "link_img": "https://live.staticflickr.com/65535/49694229501_6240dacd6f_o.jpg",
    "id_image": "KAWAII2403202205026",
    "count_view": 0
  },
  {
    "link_thumb": "https://live.staticflickr.com/65535/49592209268_d679ee2f10_n.jpg",
    "id_album": "-1432180061",
    "description": "KAWAII270220235138",
    "title": "KAWAII270220235138",
    "link_img": "https://live.staticflickr.com/65535/49592209268_998a8a6dfe_o.jpg",
    "id_image": "KAWAII270220235138",
    "count_view": 0
  },
  {
    "link_thumb": "https://live.staticflickr.com/65535/49694228911_22e5202745_n.jpg",
    "id_album": "1226948986",
    "description": "KAWAII24032022050252",
    "title": "KAWAII24032022050252",
    "link_img": "https://live.staticflickr.com/65535/49694228911_fae9953d61_o.jpg",
    "id_image": "KAWAII24032022050252",
    "count_view": 0
  },
  {
    "link_thumb": "https://live.staticflickr.com/65535/49592975332_0aaa759e49_n.jpg",
    "id_album": "949200594",
    "description": "KAWAII27022023516",
    "title": "KAWAII27022023516",
    "link_img": "https://live.staticflickr.com/65535/49592975332_4ee484f112_o.jpg",
    "id_image": "KAWAII27022023516",
    "count_view": 0
  },
  {
    "link_thumb": "https://live.staticflickr.com/65535/49694377467_b776f7ced0_n.jpg",
    "id_album": "1201366373",
    "description": "KAWAII0503202021306",
    "title": "KAWAII0503202021306",
    "link_img": "https://live.staticflickr.com/65535/49694377467_5f1941966d_o.jpg",
    "id_image": "KAWAII0503202021306",
    "count_view": 0
  },
  {
    "link_thumb": "https://live.staticflickr.com/65535/49743238067_e9100109a9_n.jpg",
    "id_album": "-1497779911",
    "description": "KAWAII060420214914146",
    "title": "KAWAII060420214914146",
    "link_img": "https://live.staticflickr.com/65535/49743238067_642958007a_o.jpg",
    "id_image": "KAWAII060420214914146",
    "count_view": 0
  },
  {
    "link_thumb": "https://live.staticflickr.com/65535/49742914281_15539498c7_n.jpg",
    "id_album": "-1497779911",
    "description": "KAWAII06042021491411",
    "title": "KAWAII06042021491411",
    "link_img": "https://live.staticflickr.com/65535/49742914281_2f0cd2bd20_o.jpg",
    "id_image": "KAWAII06042021491411",
    "count_view": 0
  },
  {
    "link_thumb": "https://live.staticflickr.com/65535/49622816161_98892bc61c_n.jpg",
    "id_album": "-316663319",
    "description": "KAWAII0503202021127",
    "title": "KAWAII0503202021127",
    "link_img": "https://live.staticflickr.com/65535/49622816161_fb4f1c7349_o.jpg",
    "id_image": "KAWAII0503202021127",
    "count_view": 0
  },
  {
    "link_thumb": "https://live.staticflickr.com/65535/49552757447_256c75cf48_n.jpg",
    "id_album": "-1694302085",
    "description": "KAWAII12091825180220205924",
    "title": "KAWAII12091825180220205924",
    "link_img": "https://live.staticflickr.com/65535/49552757447_0c6ce1820b_o.jpg",
    "id_image": "KAWAII12091825180220205924",
    "count_view": 0
  },
  {
    "link_thumb": "https://live.staticflickr.com/65535/49578242613_7c8b60b077_n.jpg",
    "id_album": "-422187261",
    "description": "KAWAII190220211129",
    "title": "KAWAII190220211129",
    "link_img": "https://live.staticflickr.com/65535/49578242613_b4337b78c2_o.jpg",
    "id_image": "KAWAII190220211129",
    "count_view": 0
  },
  {
    "link_thumb": "https://live.staticflickr.com/65535/49548671301_2ff61f3d30_n.jpg",
    "id_album": "-1099943053",
    "description": "KAWAII1702202236244",
    "title": "KAWAII1702202236244",
    "link_img": "https://live.staticflickr.com/65535/49548671301_90c4e550f5_o.jpg",
    "id_image": "KAWAII1702202236244",
    "count_view": 0
  },
  {
    "link_thumb": "https://live.staticflickr.com/65535/49693676763_e5880238a2_n.jpg",
    "id_album": "-643980979",
    "description": "KAWAII24032022050256",
    "title": "KAWAII24032022050256",
    "link_img": "https://live.staticflickr.com/65535/49693676763_63e49d7ae3_o.jpg",
    "id_image": "KAWAII24032022050256",
    "count_view": 0
  },
  {
    "link_thumb": "https://live.staticflickr.com/65535/49622840081_e373bc4bf9_n.jpg",
    "id_album": "-1694302085",
    "description": "KAWAII050320202197",
    "title": "KAWAII050320202197",
    "link_img": "https://live.staticflickr.com/65535/49622840081_3138ee4372_o.jpg",
    "id_image": "KAWAII050320202197",
    "count_view": 0
  },
  {
    "link_thumb": "https://live.staticflickr.com/65535/49693532323_7162d35f4b_n.jpg",
    "id_album": "-643980979",
    "description": "KAWAII050320202143",
    "title": "KAWAII050320202143",
    "link_img": "https://live.staticflickr.com/65535/49693532323_2bbe67359d_o.jpg",
    "id_image": "KAWAII050320202143",
    "count_view": 0
  },
  {
    "link_thumb": "https://live.staticflickr.com/65535/49727759597_d1afff97f9_n.jpg",
    "id_album": "742877173",
    "description": "KAWAII020420194510107",
    "title": "KAWAII020420194510107",
    "link_img": "https://live.staticflickr.com/65535/49727759597_b05e372b1b_o.jpg",
    "id_image": "KAWAII020420194510107",
    "count_view": 0
  },
  {
    "link_thumb": "https://live.staticflickr.com/65535/49694218436_5e85cee4f6_n.jpg",
    "id_album": "-643980979",
    "description": "KAWAII24032022050213",
    "title": "KAWAII24032022050213",
    "link_img": "https://live.staticflickr.com/65535/49694218436_ac6a12492e_o.jpg",
    "id_image": "KAWAII24032022050213",
    "count_view": 0
  },
  {
    "link_thumb": "https://live.staticflickr.com/65535/49548102943_1427b14e8f_n.jpg",
    "id_album": "-1741487325",
    "description": "KAWAII12091836",
    "title": "KAWAII12091836",
    "link_img": "https://live.staticflickr.com/65535/49548102943_505ac71255_o.jpg",
    "id_image": "KAWAII12091836",
    "count_view": 0
  },
  {
    "link_thumb": "https://live.staticflickr.com/65535/49726922893_af395df580_n.jpg",
    "id_album": "-1862561193",
    "description": "KAWAII0204201945118",
    "title": "KAWAII0204201945118",
    "link_img": "https://live.staticflickr.com/65535/49726922893_9f0e4fa3c4_o.jpg",
    "id_image": "KAWAII0204201945118",
    "count_view": 0
  },
  {
    "link_thumb": "https://live.staticflickr.com/65535/49743266352_ef3704ed25_n.jpg",
    "id_album": "-1779286820",
    "description": "KAWAII060420214912201",
    "title": "KAWAII060420214912201",
    "link_img": "https://live.staticflickr.com/65535/49743266352_55704f23f8_o.jpg",
    "id_image": "KAWAII060420214912201",
    "count_view": 0
  },
  {
    "link_thumb": "https://live.staticflickr.com/65535/49742956766_47b7a5156a_n.jpg",
    "id_album": "-1431786825",
    "description": "KAWAII060420214915297",
    "title": "KAWAII060420214915297",
    "link_img": "https://live.staticflickr.com/65535/49742956766_8f346b98d5_o.jpg",
    "id_image": "KAWAII060420214915297",
    "count_view": 0
  },
  {
    "link_thumb": "https://live.staticflickr.com/65535/49742910946_7ee781323a_n.jpg",
    "id_album": "-1694302085",
    "description": "KAWAII06042021491829",
    "title": "KAWAII06042021491829",
    "link_img": "https://live.staticflickr.com/65535/49742910946_965a8aa9eb_o.jpg",
    "id_image": "KAWAII06042021491829",
    "count_view": 0
  },
  {
    "link_thumb": "https://live.staticflickr.com/65535/49592214838_890bcf4f6d_n.jpg",
    "id_album": "-316663319",
    "description": "KAWAII270220235129",
    "title": "KAWAII270220235129",
    "link_img": "https://live.staticflickr.com/65535/49592214838_713a6a5106_o.jpg",
    "id_image": "KAWAII270220235129",
    "count_view": 0
  },
  {
    "link_thumb": "https://live.staticflickr.com/65535/49622847721_e1602f2634_n.jpg",
    "id_album": "-406350429",
    "description": "KAWAII0503202021278",
    "title": "KAWAII0503202021278",
    "link_img": "https://live.staticflickr.com/65535/49622847721_093f75abe6_o.jpg",
    "id_image": "KAWAII0503202021278",
    "count_view": 0
  },
  {
    "link_thumb": "https://live.staticflickr.com/65535/49592961752_8a46053810_n.jpg",
    "id_album": "-316663319",
    "description": "KAWAII270220235165",
    "title": "KAWAII270220235165",
    "link_img": "https://live.staticflickr.com/65535/49592961752_f7ab543b0a_o.jpg",
    "id_image": "KAWAII270220235165",
    "count_view": 0
  },
  {
    "link_thumb": "https://live.staticflickr.com/65535/49727767037_44e8788115_n.jpg",
    "id_album": "742877173",
    "description": "KAWAII020420194514246",
    "title": "KAWAII020420194514246",
    "link_img": "https://live.staticflickr.com/65535/49727767037_c005c78e27_o.jpg",
    "id_image": "KAWAII020420194514246",
    "count_view": 0
  },
  {
    "link_thumb": "https://live.staticflickr.com/65535/49743240552_7cd755625e_n.jpg",
    "id_album": "-1432180061",
    "description": "KAWAII060420214914122",
    "title": "KAWAII060420214914122",
    "link_img": "https://live.staticflickr.com/65535/49743240552_875d81d504_o.jpg",
    "id_image": "KAWAII060420214914122",
    "count_view": 0
  },
  {
    "link_thumb": "https://live.staticflickr.com/65535/49578750051_26e3a6ac43_n.jpg",
    "id_album": "-316663319",
    "description": "KAWAII190220211123",
    "title": "KAWAII190220211123",
    "link_img": "https://live.staticflickr.com/65535/49578750051_3bc0f9edfc_o.jpg",
    "id_image": "KAWAII190220211123",
    "count_view": 0
  },
  {
    "link_thumb": "https://live.staticflickr.com/65535/49592710441_ed79fe1f96_n.jpg",
    "id_album": "-1741487325",
    "description": "KAWAII1702202238470",
    "title": "KAWAII1702202238470",
    "link_img": "https://live.staticflickr.com/65535/49592710441_3e5c46aec4_o.jpg",
    "id_image": "KAWAII1702202238470",
    "count_view": 0
  },
  {
    "link_thumb": "https://live.staticflickr.com/65535/49742368198_a78aea33e3_n.jpg",
    "id_album": "-1497779911",
    "description": "KAWAII060420214917131",
    "title": "KAWAII060420214917131",
    "link_img": "https://live.staticflickr.com/65535/49742368198_ec94c1902b_o.jpg",
    "id_image": "KAWAII060420214917131",
    "count_view": 0
  },
  {
    "link_thumb": "https://live.staticflickr.com/65535/49743282142_8e84ab67ca_n.jpg",
    "id_album": "1226948986",
    "description": "KAWAII060420214918282",
    "title": "KAWAII060420214918282",
    "link_img": "https://live.staticflickr.com/65535/49743282142_79a1d411eb_o.jpg",
    "id_image": "KAWAII060420214918282",
    "count_view": 0
  },
  {
    "link_thumb": "https://live.staticflickr.com/65535/49548735951_b794b658f5_n.jpg",
    "id_album": "-1099943053",
    "description": "KAWAII1702202239513",
    "title": "KAWAII1702202239513",
    "link_img": "https://live.staticflickr.com/65535/49548735951_f7a5f3408a_o.jpg",
    "id_image": "KAWAII1702202239513",
    "count_view": 0
  },
  {
    "link_thumb": "https://live.staticflickr.com/65535/49548056578_4ebb66f297_n.jpg",
    "id_album": "-1741487325",
    "description": "KAWAII120918159",
    "title": "KAWAII120918159",
    "link_img": "https://live.staticflickr.com/65535/49548056578_89ae5d8390_o.jpg",
    "id_image": "KAWAII120918159",
    "count_view": 0
  },
  {
    "link_thumb": "https://live.staticflickr.com/65535/49742919341_7d960dfd4e_n.jpg",
    "id_album": "-128218148",
    "description": "KAWAII06042021491238",
    "title": "KAWAII06042021491238",
    "link_img": "https://live.staticflickr.com/65535/49742919341_cb2f770b15_o.jpg",
    "id_image": "KAWAII06042021491238",
    "count_view": 0
  },
  {
    "link_thumb": "https://live.staticflickr.com/65535/49552755517_25b299252c_n.jpg",
    "id_album": "-1694302085",
    "description": "KAWAII1209182518022020591",
    "title": "KAWAII1209182518022020591",
    "link_img": "https://live.staticflickr.com/65535/49552755517_359822b8ec_o.jpg",
    "id_image": "KAWAII1209182518022020591",
    "count_view": 0
  },
  {
    "link_thumb": "https://live.staticflickr.com/65535/49742356068_9a5b2b97e1_n.jpg",
    "id_album": "-1913845949",
    "description": "KAWAII060420214915285",
    "title": "KAWAII060420214915285",
    "link_img": "https://live.staticflickr.com/65535/49742356068_001339ef2a_o.jpg",
    "id_image": "KAWAII060420214915285",
    "count_view": 0
  },
  {
    "link_thumb": "https://live.staticflickr.com/65535/49548153918_9f2a39eaf5_n.jpg",
    "id_album": "-316663319",
    "description": "KAWAII1702202235165",
    "title": "KAWAII1702202235165",
    "link_img": "https://live.staticflickr.com/65535/49548153918_2e4a738d4a_o.jpg",
    "id_image": "KAWAII1702202235165",
    "count_view": 0
  },
  {
    "link_thumb": "https://live.staticflickr.com/65535/49727788757_5483c62a0c_n.jpg",
    "id_album": "1563362783",
    "description": "KAWAII1702202237337",
    "title": "KAWAII1702202237337",
    "link_img": "https://live.staticflickr.com/65535/49727788757_3d61fcc73c_o.jpg",
    "id_image": "KAWAII1702202237337",
    "count_view": 0
  },
  {
    "link_thumb": "https://live.staticflickr.com/65535/49548708806_62e207f280_n.jpg",
    "id_album": "-1099943053",
    "description": "KAWAII1702202238412",
    "title": "KAWAII1702202238412",
    "link_img": "https://live.staticflickr.com/65535/49548708806_dddb75f40c_o.jpg",
    "id_image": "KAWAII1702202238412",
    "count_view": 0
  },
  {
    "link_thumb": "https://live.staticflickr.com/65535/49622284133_b3dbb6b9e6_n.jpg",
    "id_album": "1396902986",
    "description": "KAWAII0503202021116",
    "title": "KAWAII0503202021116",
    "link_img": "https://live.staticflickr.com/65535/49622284133_9419bac00a_o.jpg",
    "id_image": "KAWAII0503202021116",
    "count_view": 0
  },
  {
    "link_thumb": "https://live.staticflickr.com/65535/49592712941_9ab292a7fc_n.jpg",
    "id_album": "-316663319",
    "description": "KAWAII17091814",
    "title": "KAWAII17091814",
    "link_img": "https://live.staticflickr.com/65535/49592712941_b7c9d2594e_o.jpg",
    "id_image": "KAWAII17091814",
    "count_view": 0
  },
  {
    "link_thumb": "https://live.staticflickr.com/65535/49693526753_b1d2803960_n.jpg",
    "id_album": "-643980979",
    "description": "KAWAII0503202021140",
    "title": "KAWAII0503202021140",
    "link_img": "https://live.staticflickr.com/65535/49693526753_3f30c097d4_o.jpg",
    "id_image": "KAWAII0503202021140",
    "count_view": 0
  },
  {
    "link_thumb": "https://live.staticflickr.com/65535/49742383238_ea87b68092_n.jpg",
    "id_album": "-316663319",
    "description": "KAWAII060420214917130",
    "title": "KAWAII060420214917130",
    "link_img": "https://live.staticflickr.com/65535/49742383238_5cf925f38d_o.jpg",
    "id_image": "KAWAII060420214917130",
    "count_view": 0
  },
  {
    "link_thumb": "https://live.staticflickr.com/65535/49694217036_df3cfa0601_n.jpg",
    "id_album": "-1741487325",
    "description": "KAWAII1702202239533",
    "title": "KAWAII1702202239533",
    "link_img": "https://live.staticflickr.com/65535/49694217036_282e1f4953_o.jpg",
    "id_image": "KAWAII1702202239533",
    "count_view": 0
  },
  {
    "link_thumb": "https://live.staticflickr.com/65535/49548889667_c6eddf8f20_n.jpg",
    "id_album": "-422187261",
    "description": "KAWAII1702202235197",
    "title": "KAWAII1702202235197",
    "link_img": "https://live.staticflickr.com/65535/49548889667_866252b1f5_o.jpg",
    "id_image": "KAWAII1702202235197",
    "count_view": 0
  },
  {
    "link_thumb": "https://live.staticflickr.com/65535/49743259342_481651d1c3_n.jpg",
    "id_album": "-1473448477",
    "description": "KAWAII060420214915165",
    "title": "KAWAII060420214915165",
    "link_img": "https://live.staticflickr.com/65535/49743259342_a03d2777dd_o.jpg",
    "id_image": "KAWAII060420214915165",
    "count_view": 0
  },
  {
    "link_thumb": "https://live.staticflickr.com/65535/49694392417_3e8a76a371_n.jpg",
    "id_album": "1201366373",
    "description": "KAWAII120918198",
    "title": "KAWAII120918198",
    "link_img": "https://live.staticflickr.com/65535/49694392417_571fc3c679_o.jpg",
    "id_image": "KAWAII120918198",
    "count_view": 0
  },
  {
    "link_thumb": "https://live.staticflickr.com/65535/49727443746_39772e8c52_n.jpg",
    "id_album": "742877173",
    "description": "KAWAII02042019450912",
    "title": "KAWAII02042019450912",
    "link_img": "https://live.staticflickr.com/65535/49727443746_cf6dea5443_o.jpg",
    "id_image": "KAWAII02042019450912",
    "count_view": 0
  },
  {
    "link_thumb": "https://live.staticflickr.com/65535/49694127666_c8551f3481_n.jpg",
    "id_album": "-755466332",
    "description": "KAWAII12091874",
    "title": "KAWAII12091874",
    "link_img": "https://live.staticflickr.com/65535/49694127666_91c51285b1_o.jpg",
    "id_image": "KAWAII12091874",
    "count_view": 0
  },
  {
    "link_thumb": "https://live.staticflickr.com/65535/49742390688_6c1335e846_n.jpg",
    "id_album": "-1473448477",
    "description": "KAWAII060420214915278",
    "title": "KAWAII060420214915278",
    "link_img": "https://live.staticflickr.com/65535/49742390688_e32c909954_o.jpg",
    "id_image": "KAWAII060420214915278",
    "count_view": 0
  },
  {
    "link_thumb": "https://live.staticflickr.com/65535/49592708311_2d65f18178_n.jpg",
    "id_album": "1396902986",
    "description": "KAWAII270220235139",
    "title": "KAWAII270220235139",
    "link_img": "https://live.staticflickr.com/65535/49592708311_0cf0c4c8f1_o.jpg",
    "id_image": "KAWAII270220235139",
    "count_view": 0
  },
  {
    "link_thumb": "https://live.staticflickr.com/65535/49693555748_fafc0c40c6_n.jpg",
    "id_album": "1201366373",
    "description": "KAWAII120918279",
    "title": "KAWAII120918279",
    "link_img": "https://live.staticflickr.com/65535/49693555748_6c68d75bc0_o.jpg",
    "id_image": "KAWAII120918279",
    "count_view": 0
  },
  {
    "link_thumb": "https://live.staticflickr.com/65535/49727781362_13c6102828_n.jpg",
    "id_album": "-1862561193",
    "description": "KAWAII020420194509257",
    "title": "KAWAII020420194509257",
    "link_img": "https://live.staticflickr.com/65535/49727781362_08feb19a39_o.jpg",
    "id_image": "KAWAII020420194509257",
    "count_view": 0
  },
  {
    "link_thumb": "https://live.staticflickr.com/65535/49743247877_3868e1f44c_n.jpg",
    "id_album": "-316663319",
    "description": "KAWAII060420214913169",
    "title": "KAWAII060420214913169",
    "link_img": "https://live.staticflickr.com/65535/49743247877_8f7720baea_o.jpg",
    "id_image": "KAWAII060420214913169",
    "count_view": 0
  },
  {
    "link_thumb": "https://live.staticflickr.com/65535/49548139298_6e5456530b_n.jpg",
    "id_album": "-422187261",
    "description": "KAWAII170220223471",
    "title": "KAWAII170220223471",
    "link_img": "https://live.staticflickr.com/65535/49548139298_ba29e127e1_o.jpg",
    "id_image": "KAWAII170220223471",
    "count_view": 0
  },
  {
    "link_thumb": "https://live.staticflickr.com/65535/49548704591_00653c5e83_n.jpg",
    "id_album": "-1741487325",
    "description": "KAWAII1702202237397",
    "title": "KAWAII1702202237397",
    "link_img": "https://live.staticflickr.com/65535/49548704591_e08e358b04_o.jpg",
    "id_image": "KAWAII1702202237397",
    "count_view": 0
  },
  {
    "link_thumb": "https://live.staticflickr.com/65535/49742408543_f5f39b9b01_n.jpg",
    "id_album": "-1431786825",
    "description": "KAWAII060420214915193",
    "title": "KAWAII060420214915193",
    "link_img": "https://live.staticflickr.com/65535/49742408543_e1cc061ec5_o.jpg",
    "id_image": "KAWAII060420214915193",
    "count_view": 0
  },
  {
    "link_thumb": "https://live.staticflickr.com/65535/49693679248_a4a8c175eb_n.jpg",
    "id_album": "-406350429",
    "description": "KAWAII270220235132",
    "title": "KAWAII270220235132",
    "link_img": "https://live.staticflickr.com/65535/49693679248_99819b71ca_o.jpg",
    "id_image": "KAWAII270220235132",
    "count_view": 0
  },
  {
    "link_thumb": "https://live.staticflickr.com/65535/49548739296_296dbcea52_n.jpg",
    "id_album": "-422187261",
    "description": "KAWAII1702202239526",
    "title": "KAWAII1702202239526",
    "link_img": "https://live.staticflickr.com/65535/49548739296_6725352ecb_o.jpg",
    "id_image": "KAWAII1702202239526",
    "count_view": 0
  },
  {
    "link_thumb": "https://live.staticflickr.com/65535/49548146233_188fafd02f_n.jpg",
    "id_album": "-1694302085",
    "description": "KAWAII1702202235127",
    "title": "KAWAII1702202235127",
    "link_img": "https://live.staticflickr.com/65535/49548146233_e99c3e4208_o.jpg",
    "id_image": "KAWAII1702202235127",
    "count_view": 0
  },
  {
    "link_thumb": "https://live.staticflickr.com/65535/49548247718_b459a9d214_n.jpg",
    "id_album": "-1741487325",
    "description": "KAWAII1702202239561",
    "title": "KAWAII1702202239561",
    "link_img": "https://live.staticflickr.com/65535/49548247718_f328196e9b_o.jpg",
    "id_image": "KAWAII1702202239561",
    "count_view": 0
  },
  {
    "link_thumb": "https://live.staticflickr.com/65535/49693672713_f0ae745203_n.jpg",
    "id_album": "-1694302085",
    "description": "KAWAII2403202205022",
    "title": "KAWAII2403202205022",
    "link_img": "https://live.staticflickr.com/65535/49693672713_486f4578a4_o.jpg",
    "id_image": "KAWAII2403202205022",
    "count_view": 0
  },
  {
    "link_thumb": "https://live.staticflickr.com/65535/49742366173_9c888d39a5_n.jpg",
    "id_album": "-1497779911",
    "description": "KAWAII060420214912135",
    "title": "KAWAII060420214912135",
    "link_img": "https://live.staticflickr.com/65535/49742366173_fde6d7dc49_o.jpg",
    "id_image": "KAWAII060420214912135",
    "count_view": 0
  },
  {
    "link_thumb": "https://live.staticflickr.com/65535/49548708171_6d1d5e9699_n.jpg",
    "id_album": "-1741487325",
    "description": "KAWAII1702202238410",
    "title": "KAWAII1702202238410",
    "link_img": "https://live.staticflickr.com/65535/49548708171_89e5112627_o.jpg",
    "id_image": "KAWAII1702202238410",
    "count_view": 0
  },
  {
    "link_thumb": "https://live.staticflickr.com/65535/49742952006_e9716ab44a_n.jpg",
    "id_album": "-1862561193",
    "description": "KAWAII0604202149153",
    "title": "KAWAII0604202149153",
    "link_img": "https://live.staticflickr.com/65535/49742952006_73b3e51801_o.jpg",
    "id_image": "KAWAII0604202149153",
    "count_view": 0
  },
  {
    "link_thumb": "https://live.staticflickr.com/65535/49623077527_f75a4ccf12_n.jpg",
    "id_album": "1396902986",
    "description": "KAWAII050320202189",
    "title": "KAWAII050320202189",
    "link_img": "https://live.staticflickr.com/65535/49623077527_f93d23b57d_o.jpg",
    "id_image": "KAWAII050320202189",
    "count_view": 0
  },
  {
    "link_thumb": "https://live.staticflickr.com/65535/49548738521_ccc056fc17_n.jpg",
    "id_album": "1396902986",
    "description": "KAWAII1702202239523",
    "title": "KAWAII1702202239523",
    "link_img": "https://live.staticflickr.com/65535/49548738521_371e61eabd_o.jpg",
    "id_image": "KAWAII1702202239523",
    "count_view": 0
  },
  {
    "link_thumb": "https://live.staticflickr.com/65535/49742944171_e5575bc4ba_n.jpg",
    "id_album": "-1779286820",
    "description": "KAWAII060420214915197",
    "title": "KAWAII060420214915197",
    "link_img": "https://live.staticflickr.com/65535/49742944171_fd10342417_o.jpg",
    "id_image": "KAWAII060420214915197",
    "count_view": 0
  },
  {
    "link_thumb": "https://live.staticflickr.com/65535/49693552923_f17c02dde2_n.jpg",
    "id_album": "1201366373",
    "description": "KAWAII12091825180220205943",
    "title": "KAWAII12091825180220205943",
    "link_img": "https://live.staticflickr.com/65535/49693552923_0114e008e9_o.jpg",
    "id_image": "KAWAII12091825180220205943",
    "count_view": 0
  }
]